Genius-Nível-Dificuldade/testbench_timeoutDesafio.vcd
$date
	Sun Feb 25 22:36:16 2024
$end
$version
	Icarus Verilog
$end
$timescale
	1s
$end
$scope module circuito_exp7_timeoutDesafio_tb $end
$var wire 1 ! pronto_out $end
$var wire 1 " perdeu_out $end
$var wire 4 # leds_out [3:0] $end
$var wire 1 $ ganhou_out $end
$var wire 1 % db_timeout_out $end
$var wire 1 & db_tem_jogada_out $end
$var wire 7 ' db_rodada_out [6:0] $end
$var wire 7 ( db_memoria_out [6:0] $end
$var wire 7 ) db_jogadafeita_out [6:0] $end
$var wire 1 * db_jogada_correta_out $end
$var wire 1 + db_grava_out $end
$var wire 7 , db_estado_out [6:0] $end
$var wire 1 - db_enderecoIgualRodada_out $end
$var wire 7 . db_contagem_out [6:0] $end
$var wire 1 / db_clock_out $end
$var wire 13 0 db_Q_out [12:0] $end
$var reg 32 1 caso [31:0] $end
$var reg 4 2 chaves_in [3:0] $end
$var reg 1 3 clock_in $end
$var reg 1 4 iniciar_in $end
$var reg 5 5 jogada_counter [4:0] $end
$var reg 1 6 reset_in $end
$var integer 32 7 i [31:0] $end
$scope module dut $end
$var wire 4 8 botoes [3:0] $end
$var wire 1 3 clock $end
$var wire 1 / db_clock $end
$var wire 1 - db_enderecoIgualRodada $end
$var wire 1 + db_grava $end
$var wire 1 * db_jogada_correta $end
$var wire 1 % db_timeout $end
$var wire 1 4 iniciar $end
$var wire 1 6 reset $end
$var wire 1 9 zeraTI $end
$var wire 1 : zeraT $end
$var wire 1 ; zeraR $end
$var wire 1 < zeraDif $end
$var wire 1 = zeraCR $end
$var wire 1 > zeraCE $end
$var wire 1 ? timeout_jogada_inicial $end
$var wire 1 @ timeout $end
$var wire 1 A registraR $end
$var wire 1 B registraDif $end
$var wire 1 ! pronto $end
$var wire 1 " perdeu $end
$var wire 4 C leds [3:0] $end
$var wire 1 D jogada_correta $end
$var wire 1 E jogada $end
$var wire 1 F grava $end
$var wire 1 $ ganhou $end
$var wire 1 G fimCR $end
$var wire 1 H fimCE $end
$var wire 1 I exibe_jogada_inicial $end
$var wire 1 J enderecoIgualRodada $end
$var wire 1 & db_tem_jogada $end
$var wire 4 K db_rodada_hex [3:0] $end
$var wire 7 L db_rodada [6:0] $end
$var wire 4 M db_memoria_hex [3:0] $end
$var wire 7 N db_memoria [6:0] $end
$var wire 7 O db_jogadafeita [6:0] $end
$var wire 4 P db_jogada_hex [3:0] $end
$var wire 4 Q db_estado_hex [3:0] $end
$var wire 7 R db_estado [6:0] $end
$var wire 4 S db_contagem_hex [3:0] $end
$var wire 7 T db_contagem [6:0] $end
$var wire 13 U db_Q [12:0] $end
$var wire 1 V contaTI $end
$var wire 1 W contaT $end
$var wire 1 X contaCR $end
$var wire 1 Y contaCE $end
$scope module fd $end
$var wire 4 Z botoes [3:0] $end
$var wire 1 3 clock $end
$var wire 4 [ db_contagem [3:0] $end
$var wire 4 \ db_jogada [3:0] $end
$var wire 4 ] db_memoria [3:0] $end
$var wire 4 ^ db_rodada [3:0] $end
$var wire 1 H fimCE $end
$var wire 1 _ zera_timeout $end
$var wire 1 9 zeraTI $end
$var wire 1 : zeraT $end
$var wire 1 ; zeraR $end
$var wire 1 < zeraDif $end
$var wire 1 = zeraCR $end
$var wire 1 > zeraCE $end
$var wire 1 ` timeout_meio $end
$var wire 1 ? timeout_jogada_inicial $end
$var wire 1 a timeout_inteiro $end
$var wire 1 @ timeout $end
$var wire 4 b s_rodada [3:0] $end
$var wire 4 c s_jogada [3:0] $end
$var wire 4 d s_endereco_ram [3:0] $end
$var wire 4 e s_endereco [3:0] $end
$var wire 4 f s_dado [3:0] $end
$var wire 1 A registraR $end
$var wire 1 B registraDif $end
$var wire 4 g leds [3:0] $end
$var wire 1 E jogada_feita $end
$var wire 1 D jogada_correta $end
$var wire 1 F grava $end
$var wire 1 h fim_rodada $end
$var wire 1 G fimCR $end
$var wire 1 J enderecoIgualRodada $end
$var wire 4 i dificil [3:0] $end
$var wire 1 & db_tem_jogada $end
$var wire 1 V contaTI $end
$var wire 1 W contaT $end
$var wire 1 X contaCR $end
$var wire 1 Y contaCE $end
$var wire 13 j Q [12:0] $end
$scope module RAM $end
$var wire 4 k addr [3:0] $end
$var wire 1 3 clk $end
$var wire 4 l data [3:0] $end
$var wire 4 m q [3:0] $end
$var wire 1 F we $end
$var reg 4 n addr_reg [3:0] $end
$scope begin INICIA_RAM $end
$upscope $end
$upscope $end
$scope module comparador_endereco $end
$var wire 1 o AEBi $end
$var wire 1 J AEBo $end
$var wire 1 p AGBi $end
$var wire 1 q AGBo $end
$var wire 1 r ALBi $end
$var wire 1 s ALBo $end
$var wire 5 t CSL [4:0] $end
$var wire 5 u CSG [4:0] $end
$var wire 4 v B [3:0] $end
$var wire 4 w A [3:0] $end
$upscope $end
$scope module comparador_jogada $end
$var wire 4 x A [3:0] $end
$var wire 1 y AEBi $end
$var wire 1 D AEBo $end
$var wire 1 z AGBi $end
$var wire 1 { AGBo $end
$var wire 1 | ALBi $end
$var wire 1 } ALBo $end
$var wire 5 ~ CSL [4:0] $end
$var wire 5 !" CSG [4:0] $end
$var wire 4 "" B [3:0] $end
$upscope $end
$scope module contador_endereco $end
$var wire 4 #" D [3:0] $end
$var wire 1 3 clock $end
$var wire 1 $" clr $end
$var wire 1 %" ent $end
$var wire 1 &" ld $end
$var wire 1 Y enp $end
$var reg 4 '" Q [3:0] $end
$var reg 1 h rco $end
$upscope $end
$scope module contador_rodada $end
$var wire 4 (" D [3:0] $end
$var wire 1 3 clock $end
$var wire 1 )" clr $end
$var wire 1 *" ent $end
$var wire 1 +" ld $end
$var wire 1 X enp $end
$var reg 4 ," Q [3:0] $end
$var reg 1 G rco $end
$upscope $end
$scope module contador_tempo_display_jogada_inicial $end
$var wire 1 3 clock $end
$var wire 1 -" zera_as $end
$var wire 1 9 zera_s $end
$var wire 1 V conta $end
$var reg 13 ." Q [12:0] $end
$var reg 1 ? fim $end
$var reg 1 /" meio $end
$upscope $end
$scope module contador_timeout $end
$var wire 1 3 clock $end
$var wire 1 0" zera_as $end
$var wire 1 : zera_s $end
$var wire 1 W conta $end
$var reg 13 1" Q [12:0] $end
$var reg 1 a fim $end
$var reg 1 ` meio $end
$upscope $end
$scope module edge_detect $end
$var wire 1 3 clock $end
$var wire 1 E pulso $end
$var wire 1 2" reset $end
$var wire 1 & sinal $end
$var reg 1 3" reg0 $end
$var reg 1 4" reg1 $end
$upscope $end
$scope module registrador $end
$var wire 4 5" D [3:0] $end
$var wire 4 6" Q [3:0] $end
$var wire 1 3 clock $end
$var wire 1 A enable $end
$var wire 1 ; clear $end
$var reg 4 7" IQ [3:0] $end
$upscope $end
$scope module registrador_dificuldade $end
$var wire 4 8" D [3:0] $end
$var wire 4 9" Q [3:0] $end
$var wire 1 3 clock $end
$var wire 1 B enable $end
$var wire 1 < clear $end
$var reg 4 :" IQ [3:0] $end
$upscope $end
$upscope $end
$scope module hexa7seg_CHAVES $end
$var wire 4 ;" hexa [3:0] $end
$var reg 7 <" display [6:0] $end
$upscope $end
$scope module hexa7seg_CONT $end
$var wire 4 =" hexa [3:0] $end
$var reg 7 >" display [6:0] $end
$upscope $end
$scope module hexa7seg_EST $end
$var wire 4 ?" hexa [3:0] $end
$var reg 7 @" display [6:0] $end
$upscope $end
$scope module hexa7seg_MEM $end
$var wire 4 A" hexa [3:0] $end
$var reg 7 B" display [6:0] $end
$upscope $end
$scope module hexa7seg_ROD $end
$var wire 4 C" hexa [3:0] $end
$var reg 7 D" display [6:0] $end
$upscope $end
$scope module uc $end
$var wire 1 3 clock $end
$var wire 1 J enderecoIgualRodada $end
$var wire 1 H fimCE $end
$var wire 1 G fimCR $end
$var wire 1 4 iniciar $end
$var wire 1 E jogada $end
$var wire 1 D jogada_correta $end
$var wire 1 6 reset $end
$var wire 1 @ timeout $end
$var wire 1 ? timeout_jogada_inicial $end
$var reg 4 E" Eatual [3:0] $end
$var reg 4 F" Eprox [3:0] $end
$var reg 1 $ acertou $end
$var reg 1 Y contaCE $end
$var reg 1 X contaCR $end
$var reg 1 W contaT $end
$var reg 1 V contaTI $end
$var reg 4 G" db_estado [3:0] $end
$var reg 1 " errou $end
$var reg 1 I exibe_jogada_inicial $end
$var reg 1 F gravaRAM $end
$var reg 1 ! pronto $end
$var reg 1 B registraDif $end
$var reg 1 A registraR $end
$var reg 1 > zeraCE $end
$var reg 1 = zeraCR $end
$var reg 1 < zeraDif $end
$var reg 1 ; zeraR $end
$var reg 1 : zeraT $end
$var reg 1 9 zeraTI $end
$upscope $end
$upscope $end
$upscope $end
$enddefinitions $end
#0
$dumpvars
bx G"
b0 F"
bx E"
bx D"
bx C"
bx B"
bx A"
bx @"
bx ?"
bx >"
bx ="
bx <"
bx ;"
bx :"
bx 9"
b0 8"
bx 7"
bx 6"
b0 5"
x4"
03"
02"
bx 1"
00"
x/"
bx ."
0-"
bx ,"
1+"
1*"
x)"
b0 ("
bx '"
1&"
1%"
x$"
b0 #"
bx ""
bx !"
bx ~
x}
0|
x{
0z
1y
bx x
bx w
bx v
bx u
bx t
xs
0r
xq
0p
1o
bx n
bx m
b0 l
bx k
bx j
bx i
0h
bx g
bx f
bx e
bx d
bx c
bx b
xa
x`
x_
bx ^
bx ]
bx \
bx [
b0 Z
xY
xX
xW
xV
bx U
bx T
bx S
bx R
bx Q
bx P
bx O
bx N
bx M
bx L
bx K
xJ
xI
0H
0G
xF
0E
xD
bx C
xB
xA
x@
x?
x>
x=
x<
x;
x:
x9
b0 8
bx 7
06
b0 5
04
13
b0 2
b0 1
bx 0
1/
bx .
x-
bx ,
x+
x*
bx )
bx (
bx '
0&
x%
x$
bx #
x"
x!
$end
#500
0/
03
#1000
b1000000 )
b1000000 O
b1000000 <"
b0 i
b0 9"
b0 :"
b0 P
b0 \
b0 ;"
b0 c
b0 ""
b0 6"
b0 7"
b1000000 ,
b1000000 R
b1000000 @"
b0 #
b0 C
b0 g
1_
0)"
0$"
b0 Q
b0 ?"
b0 G"
0B
1<
0+
0F
0$
0"
0!
19
0V
1:
0W
0A
1;
0X
1=
0Y
1>
04"
b0 E"
1/
13
b1 1
#1500
16
0/
03
#2000
0q
0s
0%
0@
1-
1J
b11111 u
b0 d
b0 k
b1000000 .
b1000000 T
b1000000 >"
b11111 t
b1000000 '
b1000000 L
b1000000 D"
0/"
0?
0`
0a
b0 S
b0 [
b0 ="
b0 e
b0 v
b0 '"
b0 K
b0 ^
b0 C"
b0 b
b0 w
b0 ,"
b0 ."
b0 0
b0 U
b0 j
b0 1"
1/
13
#2500
0/
03
06
#3000
0}
1{
b11110 ~
0*
0D
b1111001 (
b1111001 N
b1111001 B"
b0 !"
b1 M
b1 ]
b1 A"
b1 f
b1 m
b1 x
b0 n
1/
13
#3500
0/
03
#4000
1/
13
#4500
0/
03
#5000
1/
13
#5500
0/
03
#6000
1/
13
#6500
0/
03
#7000
1/
13
#7500
b11 F"
0/
03
14
b10 1
#8000
b110000 ,
b110000 R
b110000 @"
b11 Q
b11 ?"
b11 G"
b11 E"
1/
13
#8500
0/
03
#9000
1/
13
#9500
0/
03
#10000
1/
13
#10500
0/
03
#11000
1/
13
#11500
0/
03
#12000
1/
13
#12500
0/
03
04
