PROJETO_DRONE/testbench_drone.vcd
$date
	Fri Mar 22 08:11:13 2024
$end
$version
	Icarus Verilog
$end
$timescale
	1s
$end
$scope module simulador_drone_tb $end
$var wire 1 ! venceu $end
$var wire 1 " perdeu $end
$var wire 7 # db_vidas [6:0] $end
$var wire 7 $ db_posicao_vertical [6:0] $end
$var wire 7 % db_posicao_horizontal [6:0] $end
$var wire 7 & db_obstaculos [6:0] $end
$var wire 2 ' db_modo [1:0] $end
$var wire 7 ( db_estado [6:0] $end
$var wire 7 ) colisao_counter_out [6:0] $end
$var reg 21 * caso [20:0] $end
$var reg 1 + clock $end
$var reg 1 , confirma $end
$var reg 2 - controle_horizontal [1:0] $end
$var reg 2 . controle_vertical [1:0] $end
$var reg 1 / iniciar $end
$var reg 1 0 reset $end
$var integer 32 1 i [31:0] $end
$scope module dut $end
$var wire 1 + clock $end
$var wire 1 , confirma $end
$var wire 2 2 controle_horizontal [1:0] $end
$var wire 2 3 controle_vertical [1:0] $end
$var wire 1 / iniciar $end
$var wire 1 0 reset $end
$var wire 1 4 zeraT $end
$var wire 1 5 zeraPosicoes $end
$var wire 3 6 vidas [2:0] $end
$var wire 1 ! venceu $end
$var wire 1 7 timeout $end
$var wire 1 8 resetaVidas $end
$var wire 4 9 posicao_vertical [3:0] $end
$var wire 4 : posicao_horizontal [3:0] $end
$var wire 1 " perdeu $end
$var wire 4 ; obstaculos [3:0] $end
$var wire 1 < fim_mapa $end
$var wire 4 = estado [3:0] $end
$var wire 1 > escolhe_vida $end
$var wire 1 ? escolhe_modo $end
$var wire 1 @ desloca $end
$var wire 7 A db_vidas [6:0] $end
$var wire 7 B db_posicao_vertical [6:0] $end
$var wire 7 C db_posicao_horizontal [6:0] $end
$var wire 7 D db_obstaculos [6:0] $end
$var wire 2 E db_modo [1:0] $end
$var wire 7 F db_estado [6:0] $end
$var wire 1 G contaT $end
$var wire 1 H confirma_pulso $end
$var wire 7 I colisao_counter_out [6:0] $end
$var wire 3 J colisao_counter [2:0] $end
$var wire 1 K colisao $end
$var wire 1 L checa_colisao $end
$var wire 1 M borda_movimento $end
$var wire 1 N atualiza $end
$scope module confirma_edge $end
$var wire 1 + clock $end
$var wire 1 H pulso $end
$var wire 1 O reset $end
$var wire 1 , sinal $end
$var reg 1 P reg0 $end
$var reg 1 Q reg1 $end
$upscope $end
$scope module display_colisao_counter $end
$var wire 4 R hexa [3:0] $end
$var reg 7 S display [6:0] $end
$upscope $end
$scope module display_estado $end
$var wire 4 T hexa [3:0] $end
$var reg 7 U display [6:0] $end
$upscope $end
$scope module display_obstaculos $end
$var wire 4 V hexa [3:0] $end
$var reg 7 W display [6:0] $end
$upscope $end
$scope module display_posicao_horizontal $end
$var wire 4 X hexa [3:0] $end
$var reg 7 Y display [6:0] $end
$upscope $end
$scope module display_posicao_vertical $end
$var wire 4 Z hexa [3:0] $end
$var reg 7 [ display [6:0] $end
$upscope $end
$scope module display_vidas $end
$var wire 4 \ hexa [3:0] $end
$var reg 7 ] display [6:0] $end
$upscope $end
$scope module fd $end
$var wire 1 M borda_movimento $end
$var wire 1 + clock $end
$var wire 3 ^ colisao_counter_out [2:0] $end
$var wire 1 H confirma $end
$var wire 2 _ controle_horizontal [1:0] $end
$var wire 2 ` controle_vertical [1:0] $end
$var wire 4 a db_obstaculos [3:0] $end
$var wire 4 b db_posicao_horizontal [3:0] $end
$var wire 1 / iniciar $end
$var wire 2 c modo [1:0] $end
$var wire 1 0 reset $end
$var wire 3 d vidas_out [2:0] $end
$var wire 1 4 zeraT $end
$var wire 1 5 zeraPosicoes $end
$var wire 3 e vidas [2:0] $end
$var wire 3 f timeout_interno [2:0] $end
$var wire 1 7 timeout $end
$var wire 1 8 resetaVidas $end
$var wire 2 g posicao_vertical [1:0] $end
$var wire 4 h posicao_horizontal [3:0] $end
$var wire 4 i obstaculos [3:0] $end
$var wire 2 j modo_interno [1:0] $end
$var wire 1 < fim_mapa $end
$var wire 1 > escolhe_vida $end
$var wire 1 ? escolhe_modo $end
$var wire 1 @ desloca $end
$var wire 4 k db_posicao_vertical [3:0] $end
$var wire 1 G contaT $end
$var wire 1 l colisao_interno_pulso $end
$var wire 1 m colisao_interno $end
$var wire 3 n colisao_counter [2:0] $end
$var wire 1 K colisao $end
$var wire 1 L checa_colisao $end
$var wire 1 o borda_vertical $end
$var wire 1 p borda_horizontal $end
$var wire 2 q borda_controle_vertical [1:0] $end
$var wire 2 r borda_controle_horizontal [1:0] $end
$var wire 1 s borda $end
$var wire 1 N atualiza $end
$scope module contador_colisao $end
$var wire 3 t D [2:0] $end
$var wire 1 + clock $end
$var wire 1 u clr $end
$var wire 1 v ld $end
$var wire 1 l ent $end
$var wire 1 L enp $end
$var reg 3 w Q [2:0] $end
$var reg 1 x rco $end
$upscope $end
$scope module contador_modo $end
$var wire 2 y D [1:0] $end
$var wire 1 + clock $end
$var wire 1 z clr $end
$var wire 1 { enp $end
$var wire 1 | ld $end
$var wire 1 } soma $end
$var wire 1 ~ sub $end
$var reg 2 !" Q [1:0] $end
$var reg 1 "" rco $end
$upscope $end
$scope module contador_posicao_horizontal $end
$var wire 4 #" D [3:0] $end
$var wire 1 + clock $end
$var wire 1 $" clr $end
$var wire 1 %" enp $end
$var wire 1 &" ld $end
$var wire 1 '" soma $end
$var wire 1 (" sub $end
$var reg 4 )" Q [3:0] $end
$var reg 1 *" rco $end
$upscope $end
$scope module contador_posicao_vertical $end
$var wire 2 +" D [1:0] $end
$var wire 1 + clock $end
$var wire 1 ," clr $end
$var wire 1 -" enp $end
$var wire 1 ." ld $end
$var wire 1 /" soma $end
$var wire 1 0" sub $end
$var reg 2 1" Q [1:0] $end
$var reg 1 2" rco $end
$upscope $end
$scope module contador_tempo_jogada_dificl $end
$var wire 1 + clock $end
$var wire 1 3" zera_as $end
$var wire 1 4 zera_s $end
$var wire 1 G conta $end
$var reg 15 4" Q [14:0] $end
$var reg 1 5" fim $end
$var reg 1 6" meio $end
$upscope $end
$scope module contador_tempo_jogada_facil $end
$var wire 1 + clock $end
$var wire 1 7" zera_as $end
$var wire 1 4 zera_s $end
$var wire 1 G conta $end
$var reg 16 8" Q [15:0] $end
$var reg 1 9" fim $end
$var reg 1 :" meio $end
$upscope $end
$scope module contador_tempo_jogada_medio $end
$var wire 1 + clock $end
$var wire 1 ;" zera_as $end
$var wire 1 4 zera_s $end
$var wire 1 G conta $end
$var reg 16 <" Q [15:0] $end
$var reg 1 =" fim $end
$var reg 1 >" meio $end
$upscope $end
$scope module contador_vidas $end
$var wire 3 ?" D [2:0] $end
$var wire 1 + clock $end
$var wire 1 @" clr $end
$var wire 1 A" enp $end
$var wire 1 B" ld $end
$var wire 1 C" soma $end
$var wire 1 D" sub $end
$var reg 3 E" Q [2:0] $end
$var reg 1 F" rco $end
$upscope $end
$scope module conversor_posicao $end
$var wire 2 G" posicao_2b [1:0] $end
$var wire 4 H" posicao_4b [3:0] $end
$upscope $end
$scope module detector_borda_horizontal_0 $end
$var wire 1 + clock $end
$var wire 1 I" pulso $end
$var wire 1 J" reset $end
$var wire 1 K" sinal $end
$var reg 1 L" reg0 $end
$var reg 1 M" reg1 $end
$upscope $end
$scope module detector_borda_horizontal_1 $end
$var wire 1 + clock $end
$var wire 1 N" pulso $end
$var wire 1 O" reset $end
$var wire 1 P" sinal $end
$var reg 1 Q" reg0 $end
$var reg 1 R" reg1 $end
$upscope $end
$scope module detector_borda_vertical_0 $end
$var wire 1 + clock $end
$var wire 1 S" pulso $end
$var wire 1 T" reset $end
$var wire 1 U" sinal $end
$var reg 1 V" reg0 $end
$var reg 1 W" reg1 $end
$upscope $end
$scope module detector_borda_vertical_1 $end
$var wire 1 + clock $end
$var wire 1 X" pulso $end
$var wire 1 Y" reset $end
$var wire 1 Z" sinal $end
$var reg 1 [" reg0 $end
$var reg 1 \" reg1 $end
$upscope $end
$scope module detector_colisao_pulso $end
$var wire 1 + clock $end
$var wire 1 l pulso $end
$var wire 1 ]" reset $end
$var wire 1 ^" sinal $end
$var reg 1 _" reg0 $end
$var reg 1 `" reg1 $end
$upscope $end
$scope module mapa_jogo $end
$var wire 4 a" addr [3:0] $end
$var wire 1 + clk $end
$var wire 4 b" data [3:0] $end
$var wire 4 c" q [3:0] $end
$var wire 1 d" we $end
$var reg 4 e" addr_reg [3:0] $end
$scope begin INICIA_RAM $end
$upscope $end
$upscope $end
$upscope $end
$scope module uc $end
$var wire 1 M borda_movimento $end
$var wire 1 + clock $end
$var wire 1 K colisao $end
$var wire 1 H confirma $end
$var wire 1 < fim_mapa $end
$var wire 1 / iniciar $end
$var wire 1 0 reset $end
$var wire 1 7 timeout $end
$var reg 4 f" Eatual [3:0] $end
$var reg 4 g" Eprox [3:0] $end
$var reg 1 N atualiza_out $end
$var reg 1 L checa_colisao_out $end
$var reg 1 G contaT $end
$var reg 4 h" db_estado [3:0] $end
$var reg 1 @ desloca $end
$var reg 1 ? escolhe_modo $end
$var reg 1 > escolhe_vida $end
$var reg 1 " perdeu $end
$var reg 1 8 resetaVidas $end
$var reg 1 ! venceu $end
$var reg 1 5 zeraPosicoes $end
$var reg 1 4 zeraT $end
$upscope $end
$upscope $end
$upscope $end
$enddefinitions $end
#0
$dumpvars
bx h"
b0 g"
bx f"
bx e"
0d"
bx c"
b0 b"
bx a"
x`"
x_"
x^"
0]"
x\"
x["
0Z"
0Y"
xX"
xW"
xV"
0U"
0T"
xS"
xR"
xQ"
0P"
0O"
xN"
xM"
xL"
0K"
0J"
xI"
bx H"
bx G"
xF"
bx E"
0D"
0C"
xB"
xA"
1@"
b1 ?"
x>"
x="
bx <"
0;"
x:"
x9"
bx 8"
07"
x6"
x5"
bx 4"
03"
x2"
bx 1"
00"
0/"
x."
x-"
1,"
b10 +"
x*"
bx )"
0("
0'"
1&"
x%"
x$"
bz #"
x""
bx !"
0~
0}
1|
x{
1z
bz y
xx
bx w
1v
xu
bz t
xs
bx r
bx q
xp
xo
bx n
xm
xl
bx k
bx j
bx i
bx h
bx g
bx f
bx e
bx d
bx c
bx b
bx a
b0 `
b0 _
bx ^
b1111111 ]
b0xxx \
b1111111 [
bx Z
bx Y
bx X
bx W
bx V
bx U
bx T
b1111111 S
b0xxx R
xQ
xP
zO
xN
xM
xL
xK
bx J
b1111111 I
xH
xG
bx F
bx E
bx D
bx C
b1111111 B
b1111111 A
x@
x?
x>
bx =
x<
bx ;
bx :
bx 9
x8
x7
bx 6
x5
x4
b0 3
b0 2
bx 1
00
0/
b0 .
b0 -
0,
0+
b1 *
b1111111 )
bx (
bx '
bx &
bx %
b1111111 $
b1111111 #
x"
x!
$end
#500
0M
0s
0p
0o
0F"
0""
02"
0*"
b1000000 (
b1000000 F
b1000000 U
0^"
0A"
0{
0-"
0%"
0B"
0u
0."
0$"
0H
0I"
b0 r
0N"
0S"
b0 q
0X"
b0 =
b0 T
b0 h"
0N
0L
0>
0?
0"
0!
0@
14
0G
18
15
0P
0L"
0Q"
0V"
0["
b0 f"
1+
#1000
0+
#1500
0K
b11001 $
b11001 B
b11001 [
0x
b1000000 )
b1000000 I
b1000000 S
b1111001 #
b1111001 A
b1111001 ]
b100 9
b100 Z
b100 k
b100 H"
0<
b1000000 %
b1000000 C
b1000000 Y
06"
05"
0:"
09"
0>"
b0 f
0="
0l
0Q
b0 R
b0 J
b0 ^
b0 n
b0 w
b1 \
b1 6
b1 d
b1 e
b1 E"
b10 g
b10 1"
b10 G"
b0 :
b0 X
b0 b
b0 h
b0 )"
b0 a"
b0 4"
b0 8"
b0 <"
0M"
0R"
0W"
0\"
0_"
1+
#2000
0+
#2500
0m
b1000000 &
b1000000 D
b1000000 W
b0 ;
b0 V
b0 a
b0 i
b0 c"
b0 e"
0`"
1+
#3000
0+
#3500
1+
#4000
0+
#4500
1+
#5000
0+
#5500
1+
#6000
0+
#6500
1+
#7000
0+
#7500
1+
#8000
0+
#8500
1+
#9000
0+
#9500
1+
#10000
10
0+
#10500
1+
#11000
0+
#11500
1+
#12000
0+
#12500
1+
#13000
0+
#13500
1+
#14000
0+
#14500
1+
#15000
0+
#15500
1+
#16000
0+
#16500
1+
#17000
0+
#17500
1+
#18000
0+
#18500
1+
#19000
0+
#19500
1+
#20000
0+
00
#20500
1+
#21000
0+
#21500
1+
#22000
0+
#22500
1+
#23000
0+
#23500
1+
#24000
0+
#24500
1+
#25000
0+
#25500
1+
#26000
0+
#26500
1+
#27000
0+
#27500
1+
#28000
0+
#28500
1+
#29000
0+
#29500
1+
#30000
0z
b10 g"
0+
1/
b10 *
#30500
b100100 (
b100100 F
b100100 U
1u
1."
1$"
b10 =
b10 T
b10 h"
1?
04
05
07
b0 '
b0 E
b0 c
b0 j
b0 !"
b10 f"
1+
#31000
0+
#31500
1+
#32000
0+
#32500
1+
#33000
0+
#33500
1+
#34000
0+
#34500
1+
#35000
1z
0+
0/
#35500
1+
#36000
0+
#36500
1+
#37000
0+
#37500
1+
#38000
0+
#38500
1+
#39000
0+
#39500
1+
#40000
0+
#40500
1+
#41000
0+
#41500
1+
#42000
0+
#42500
1+
#43000
0+
#43500
1+
#44000
0+
#44500
1+
#45000
0+
b101 *
#45500
1+
#46000
0+
#46500
1+
#47000
0+
#47500
1+
#48000
0+
#48500
1+
#49000
0+
#49500
1+
#50000
0+
#50500
1+
#51000
0+
#51500
1+
#52000
0+
#52500
1+
#53000
0+
#53500
1+
#54000
0+
#54500
1+
#55000
0+
1,
#55500
b1001 g"
1H
1P
1+
#56000
0+
#56500
0H
b10000 (
b10000 F
b10000 U
1B"
b1001 =
b1001 T
b1001 h"
1>
0?
08
b1001 g"
1Q
b1001 f"
1+
#57000
0+
#57500
1+
#58000
0+
#58500
1+
#59000
0+
#59500
1+
#60000
0+
#60500
1+
#61000
0+
#61500
1+
#62000
0+
#62500
1+
#63000
0+
#63500
1+
#64000
0+
#64500
1+
#65000
0+
0,
#65500
0P
1+
#66000
0+
#66500
0Q
1+
#67000
0+
#67500
1+
#68000
0+
#68500
1+
#69000
0+
#69500
1+
#70000
0+
#70500
1+
#71000
0+
#71500
1+
#72000
0+
#72500
1+
#73000
0+
#73500
1+
#74000
0+
#74500
1+
#75000
1/"
1}
1C"
1U"
0+
b1 .
b1 3
b1 `
#75500
1M
1s
1A"
1o
b1 q
1S"
1V"
1+
#76000
0+
#76500
0M
0s
0A"
0o
b0 q
0S"
b100100 #
b100100 A
b100100 ]
b10 \
b10 6
b10 d
b10 e
b10 E"
1W"
1+
#77000
0+
#77500
1+
#78000
0+
#78500
1+
#79000
0+
#79500
1+
#80000
0+
#80500
1+
#81000
0+
#81500
1+
#82000
0+
#82500
1+
#83000
0+
#83500
1+
#84000
0+
#84500
1+
#85000
0/"
0}
0C"
0U"
0+
b0 .
b0 3
b0 `
#85500
0V"
1+
#86000
0+
#86500
0W"
1+
#87000
0+
#87500
1+
#88000
0+
#88500
1+
#89000
0+
#89500
1+
#90000
0+
#90500
1+
#91000
0+
#91500
1+
#92000
0+
#92500
1+
#93000
0+
#93500
1+
#94000
0+
#94500
1+
#95000
1/"
1}
1C"
1U"
0+
b1 .
b1 3
b1 `
#95500
1M
1s
1A"
1o
b1 q
1S"
1V"
1+
#96000
0+
#96500
0M
0s
0A"
0o
b0 q
0S"
b110000 #
b110000 A
b110000 ]
b11 \
b11 6
b11 d
b11 e
b11 E"
1W"
1+
#97000
0+
#97500
1+
#98000
0+
#98500
1+
#99000
0+
#99500
1+
#100000
0+
#100500
1+
#101000
0+
#101500
1+
#102000
0+
#102500
1+
#103000
0+
#103500
1+
#104000
0+
#104500
1+
#105000
0/"
0}
0C"
0U"
0+
b0 .
b0 3
b0 `
#105500
0V"
1+
#106000
0+
#106500
0W"
1+
#107000
0+
#107500
1+
#108000
0+
#108500
1+
#109000
0+
#109500
1+
#110000
0+
#110500
1+
#111000
0+
#111500
1+
#112000
0+
#112500
1+
#113000
0+
#113500
1+
#114000
0+
#114500
1+
#115000
0+
1,
#115500
b1 g"
1H
1P
1+
#116000
0+
#116500
0H
b1111001 (
b1111001 F
b1111001 U
0u
0."
0$"
b1 =
b1 T
b1 h"
0>
14
15
b11 g"
1Q
b1 f"
1+
#117000
0+
#117500
b110000 (
b110000 F
b110000 U
1u
1."
1$"
b11 =
b11 T
b11 h"
1@
04
1G
05
b11 f"
1+
#118000
0+
#118500
b1 4"
b1 8"
b1 <"
1+
#119000
0+
#119500
b10 4"
b10 8"
b10 <"
1+
#120000
0+
#120500
b11 4"
b11 8"
b11 <"
1+
#121000
0+
#121500
b100 4"
b100 8"
b100 <"
1+
#122000
0+
#122500
b101 4"
b101 8"
b101 <"
1+
#123000
0+
#123500
b110 4"
b110 8"
b110 <"
1+
#124000
0+
#124500
b111 4"
b111 8"
b111 <"
1+
#125000
1'"
1K"
0+
b1 -
b1 2
b1 _
b111 *
#125500
b100 g"
1*"
1M
1s
1%"
1p
b1 r
1I"
b1000 4"
b1000 8"
b1000 <"
1L"
1+
#126000
0+
#126500
0M
0s
0p
b0 r
0I"
b11001 (
b11001 F
b11001 U
0%"
0*"
b1111001 %
b1111001 C
b1111001 Y
b100 =
b100 T
b100 h"
0@
0G
b1010 g"
b1 :
b1 X
b1 b
b1 h
b1 )"
b1 a"
b1001 4"
b1001 8"
b1001 <"
1M"
b100 f"
1+
#127000
0+
#127500
b1110 (
b1110 F
b1110 U
b100100 &
b100100 D
b100100 W
b1111 =
b1111 T
b1111 h"
1N
b101 g"
b10 ;
b10 V
b10 a
b10 i
b10 c"
b1 e"
b1010 f"
1+
#128000
0+
#128500
0N
1L
b110 g"
b101 f"
1+
#129000
0+
#129500
b10 (
b10 F
b10 U
b110 =
b110 T
b110 h"
0L
14
b11 g"
b110 f"
1+
#130000
0+
#130500
b110000 (
b110000 F
b110000 U
b11 =
b11 T
b11 h"
1@
04
1G
b0 4"
b0 8"
b0 <"
b11 f"
1+
#131000
0+
#131500
b1 4"
b1 8"
b1 <"
1+
#132000
0+
#132500
b10 4"
b10 8"
b10 <"
1+
#133000
0+
#133500
b11 4"
b11 8"
b11 <"
1+
#134000
0+
#134500
b100 4"
b100 8"
b100 <"
1+
#135000
0+
#135500
b101 4"
b101 8"
b101 <"
1+
#136000
0+
#136500
b110 4"
b110 8"
b110 <"
1+
#137000
0+
#137500
b111 4"
b111 8"
b111 <"
1+
#138000
0+
#138500
b1000 4"
b1000 8"
b1000 <"
1+
#139000
0+
#139500
b1001 4"
b1001 8"
b1001 <"
1+
#140000
0+
#140500
b1010 4"
b1010 8"
b1010 <"
1+
#141000
0+
#141500
b1011 4"
b1011 8"
b1011 <"
1+
#142000
0+
#142500
b1100 4"
b1100 8"
b1100 <"
1+
#143000
0+
#143500
b1101 4"
b1101 8"
b1101 <"
1+
#144000
0+
#144500
b1110 4"
b1110 8"
b1110 <"
1+
#145000
0+
#145500
b1111 4"
b1111 8"
b1111 <"
1+
#146000
0+
#146500
b10000 4"
b10000 8"
b10000 <"
1+
#147000
0+
#147500
b10001 4"
b10001 8"
b10001 <"
1+
#148000
0+
#148500
b10010 4"
b10010 8"
b10010 <"
1+
#149000
0+
#149500
b10011 4"
b10011 8"
b10011 <"
1+
#150000
0+
#150500
b10100 4"
b10100 8"
b10100 <"
1+
#151000
0+
#151500
b10101 4"
b10101 8"
b10101 <"
1+
#152000
0+
#152500
b10110 4"
b10110 8"
b10110 <"
1+
#153000
0+
#153500
b10111 4"
b10111 8"
b10111 <"
1+
#154000
0+
#154500
b11000 4"
b11000 8"
b11000 <"
1+
#155000
0+
#155500
b11001 4"
b11001 8"
b11001 <"
1+
#156000
0+
#156500
b11010 4"
b11010 8"
b11010 <"
1+
#157000
0+
#157500
b11011 4"
b11011 8"
b11011 <"
1+
#158000
0+
#158500
b11100 4"
b11100 8"
b11100 <"
1+
#159000
0+
#159500
b11101 4"
b11101 8"
b11101 <"
1+
#160000
0+
#160500
b11110 4"
b11110 8"
b11110 <"
1+
#161000
0+
#161500
b11111 4"
b11111 8"
b11111 <"
1+
#162000
0+
#162500
b100000 4"
b100000 8"
b100000 <"
1+
#163000
0+
#163500
b100001 4"
b100001 8"
b100001 <"
1+
#164000
0+
#164500
b100010 4"
b100010 8"
b100010 <"
1+
#165000
0+
#165500
b100011 4"
b100011 8"
b100011 <"
1+
#166000
0+
#166500
b100100 4"
b100100 8"
b100100 <"
1+
#167000
0+
#167500
b100101 4"
b100101 8"
b100101 <"
1+
#168000
0+
#168500
b100110 4"
b100110 8"
b100110 <"
1+
#169000
0+
#169500
b100111 4"
b100111 8"
b100111 <"
1+
#170000
0+
#170500
b101000 4"
b101000 8"
b101000 <"
1+
#171000
0+
#171500
b101001 4"
b101001 8"
b101001 <"
1+
#172000
0+
#172500
b101010 4"
b101010 8"
b101010 <"
1+
#173000
0+
#173500
b101011 4"
b101011 8"
b101011 <"
1+
#174000
0+
#174500
b101100 4"
b101100 8"
b101100 <"
1+
#175000
0+
#175500
b101101 4"
b101101 8"
b101101 <"
1+
#176000
0+
#176500
b101110 4"
b101110 8"
b101110 <"
1+
#177000
0+
#177500
b101111 4"
b101111 8"
b101111 <"
1+
#178000
0+
#178500
b110000 4"
b110000 8"
b110000 <"
1+
#179000
0+
#179500
b110001 4"
b110001 8"
b110001 <"
1+
#180000
0+
#180500
b110010 4"
b110010 8"
b110010 <"
1+
#181000
0+
#181500
b110011 4"
b110011 8"
b110011 <"
1+
#182000
0+
#182500
b110100 4"
b110100 8"
b110100 <"
1+
#183000
0+
#183500
b110101 4"
b110101 8"
b110101 <"
1+
#184000
0+
#184500
b110110 4"
b110110 8"
b110110 <"
1+
#185000
0+
#185500
b110111 4"
b110111 8"
b110111 <"
1+
#186000
0+
#186500
b111000 4"
b111000 8"
b111000 <"
1+
#187000
0+
#187500
b111001 4"
b111001 8"
b111001 <"
1+
#188000
0+
#188500
b111010 4"
b111010 8"
b111010 <"
1+
#189000
0+
#189500
b111011 4"
b111011 8"
b111011 <"
1+
#190000
0+
#190500
b111100 4"
b111100 8"
b111100 <"
1+
#191000
0+
#191500
b111101 4"
b111101 8"
b111101 <"
1+
#192000
0+
#192500
b111110 4"
b111110 8"
b111110 <"
1+
#193000
0+
#193500
b111111 4"
b111111 8"
b111111 <"
1+
#194000
0+
#194500
b1000000 4"
b1000000 8"
b1000000 <"
1+
#195000
0+
#195500
b1000001 4"
b1000001 8"
b1000001 <"
1+
#196000
0+
#196500
b1000010 4"
b1000010 8"
b1000010 <"
1+
#197000
0+
#197500
b1000011 4"
b1000011 8"
b1000011 <"
1+
#198000
0+
#198500
b1000100 4"
b1000100 8"
b1000100 <"
1+
#199000
0+
#199500
b1000101 4"
b1000101 8"
b1000101 <"
1+
#200000
0+
#200500
b1000110 4"
b1000110 8"
b1000110 <"
1+
#201000
0+
#201500
b1000111 4"
b1000111 8"
b1000111 <"
1+
#202000
0+
#202500
b1001000 4"
b1001000 8"
b1001000 <"
1+
#203000
0+
#203500
b1001001 4"
b1001001 8"
b1001001 <"
1+
#204000
0+
#204500
b1001010 4"
b1001010 8"
b1001010 <"
1+
#205000
0+
#205500
b1001011 4"
b1001011 8"
b1001011 <"
1+
#206000
0+
#206500
b1001100 4"
b1001100 8"
b1001100 <"
1+
#207000
0+
#207500
b1001101 4"
b1001101 8"
b1001101 <"
1+
#208000
0+
#208500
b1001110 4"
b1001110 8"
b1001110 <"
1+
#209000
0+
#209500
b1001111 4"
b1001111 8"
b1001111 <"
1+
#210000
0+
#210500
b1010000 4"
b1010000 8"
b1010000 <"
1+
#211000
0+
#211500
b1010001 4"
b1010001 8"
b1010001 <"
1+
#212000
0+
#212500
b1010010 4"
b1010010 8"
b1010010 <"
1+
#213000
0+
#213500
b1010011 4"
b1010011 8"
b1010011 <"
1+
#214000
0+
#214500
b1010100 4"
b1010100 8"
b1010100 <"
1+
#215000
0+
#215500
b1010101 4"
b1010101 8"
b1010101 <"
1+
#216000
0+
#216500
b1010110 4"
b1010110 8"
b1010110 <"
1+
#217000
0+
#217500
b1010111 4"
b1010111 8"
b1010111 <"
1+
#218000
0+
#218500
b1011000 4"
b1011000 8"
b1011000 <"
1+
#219000
0+
#219500
b1011001 4"
b1011001 8"
b1011001 <"
1+
#220000
0+
#220500
b1011010 4"
b1011010 8"
b1011010 <"
1+
#221000
0+
#221500
b1011011 4"
b1011011 8"
b1011011 <"
1+
#222000
0+
#222500
b1011100 4"
b1011100 8"
b1011100 <"
1+
#223000
0+
#223500
b1011101 4"
b1011101 8"
b1011101 <"
1+
#224000
0+
#224500
b1011110 4"
b1011110 8"
b1011110 <"
1+
#225000
0+
#225500
b1011111 4"
b1011111 8"
b1011111 <"
1+
#226000
0+
#226500
b1100000 4"
b1100000 8"
b1100000 <"
1+
#227000
0+
#227500
b1100001 4"
b1100001 8"
b1100001 <"
1+
#228000
0+
#228500
b1100010 4"
b1100010 8"
b1100010 <"
1+
#229000
0+
#229500
b1100011 4"
b1100011 8"
b1100011 <"
1+
#230000
0+
#230500
b1100100 4"
b1100100 8"
b1100100 <"
1+
#231000
0+
#231500
b1100101 4"
b1100101 8"
b1100101 <"
1+
#232000
0+
#232500
b1100110 4"
b1100110 8"
b1100110 <"
1+
#233000
0+
#233500
b1100111 4"
b1100111 8"
b1100111 <"
1+
#234000
0+
#234500
b1101000 4"
b1101000 8"
b1101000 <"
1+
#235000
0+
#235500
b1101001 4"
b1101001 8"
b1101001 <"
1+
#236000
0+
#236500
b1101010 4"
b1101010 8"
b1101010 <"
1+
#237000
0+
#237500
b1101011 4"
b1101011 8"
b1101011 <"
1+
#238000
0+
#238500
b1101100 4"
b1101100 8"
b1101100 <"
1+
#239000
0+
#239500
b1101101 4"
b1101101 8"
b1101101 <"
1+
#240000
0+
#240500
b1101110 4"
b1101110 8"
b1101110 <"
1+
#241000
0+
#241500
b1101111 4"
b1101111 8"
b1101111 <"
1+
#242000
0+
#242500
b1110000 4"
b1110000 8"
b1110000 <"
1+
#243000
0+
#243500
b1110001 4"
b1110001 8"
b1110001 <"
1+
#244000
0+
#244500
b1110010 4"
b1110010 8"
b1110010 <"
1+
#245000
0+
#245500
b1110011 4"
b1110011 8"
b1110011 <"
1+
#246000
0+
#246500
b1110100 4"
b1110100 8"
b1110100 <"
1+
#247000
0+
#247500
b1110101 4"
b1110101 8"
b1110101 <"
1+
#248000
0+
#248500
b1110110 4"
b1110110 8"
b1110110 <"
1+
#249000
0+
#249500
b1110111 4"
b1110111 8"
b1110111 <"
1+
#250000
0+
#250500
b1111000 4"
b1111000 8"
b1111000 <"
1+
#251000
0+
#251500
b1111001 4"
b1111001 8"
b1111001 <"
1+
#252000
0+
#252500
b1111010 4"
b1111010 8"
b1111010 <"
1+
#253000
0+
#253500
b1111011 4"
b1111011 8"
b1111011 <"
1+
#254000
0+
#254500
b1111100 4"
b1111100 8"
b1111100 <"
1+
#255000
0+
#255500
b1111101 4"
b1111101 8"
b1111101 <"
1+
#256000
0+
#256500
b1111110 4"
b1111110 8"
b1111110 <"
1+
#257000
0+
#257500
b1111111 4"
b1111111 8"
b1111111 <"
1+
#258000
0+
#258500
b10000000 4"
b10000000 8"
b10000000 <"
1+
#259000
0+
#259500
b10000001 4"
b10000001 8"
b10000001 <"
1+
#260000
0+
#260500
b10000010 4"
b10000010 8"
b10000010 <"
1+
#261000
0+
#261500
b10000011 4"
b10000011 8"
b10000011 <"
1+
#262000
0+
#262500
b10000100 4"
b10000100 8"
b10000100 <"
1+
#263000
0+
#263500
b10000101 4"
b10000101 8"
b10000101 <"
1+
#264000
0+
#264500
b10000110 4"
b10000110 8"
b10000110 <"
1+
#265000
0+
#265500
b10000111 4"
b10000111 8"
b10000111 <"
1+
#266000
0+
#266500
b10001000 4"
b10001000 8"
b10001000 <"
1+
#267000
0+
#267500
b10001001 4"
b10001001 8"
b10001001 <"
1+
#268000
0+
#268500
b10001010 4"
b10001010 8"
b10001010 <"
1+
#269000
0+
#269500
b10001011 4"
b10001011 8"
b10001011 <"
1+
#270000
0+
#270500
b10001100 4"
b10001100 8"
b10001100 <"
1+
#271000
0+
#271500
b10001101 4"
b10001101 8"
b10001101 <"
1+
#272000
0+
#272500
b10001110 4"
b10001110 8"
b10001110 <"
1+
#273000
0+
#273500
b10001111 4"
b10001111 8"
b10001111 <"
1+
#274000
0+
#274500
b10010000 4"
b10010000 8"
b10010000 <"
1+
#275000
0+
#275500
b10010001 4"
b10010001 8"
b10010001 <"
1+
#276000
0+
#276500
b10010010 4"
b10010010 8"
b10010010 <"
1+
#277000
0+
#277500
b10010011 4"
b10010011 8"
b10010011 <"
1+
#278000
0+
#278500
b10010100 4"
b10010100 8"
b10010100 <"
1+
#279000
0+
#279500
b10010101 4"
b10010101 8"
b10010101 <"
1+
#280000
0+
#280500
b10010110 4"
b10010110 8"
b10010110 <"
1+
#281000
0+
#281500
b10010111 4"
b10010111 8"
b10010111 <"
1+
#282000
0+
#282500
b10011000 4"
b10011000 8"
b10011000 <"
1+
#283000
0+
#283500
b10011001 4"
b10011001 8"
b10011001 <"
1+
#284000
0+
#284500
b10011010 4"
b10011010 8"
b10011010 <"
1+
#285000
0+
#285500
b10011011 4"
b10011011 8"
b10011011 <"
1+
#286000
0+
#286500
b10011100 4"
b10011100 8"
b10011100 <"
1+
#287000
0+
#287500
b10011101 4"
b10011101 8"
b10011101 <"
1+
#288000
0+
#288500
b10011110 4"
b10011110 8"
b10011110 <"
1+
#289000
0+
#289500
b10011111 4"
b10011111 8"
b10011111 <"
1+
#290000
0+
#290500
b10100000 4"
b10100000 8"
b10100000 <"
1+
#291000
0+
#291500
b10100001 4"
b10100001 8"
b10100001 <"
1+
#292000
0+
#292500
b10100010 4"
b10100010 8"
b10100010 <"
1+
#293000
0+
#293500
b10100011 4"
b10100011 8"
b10100011 <"
1+
