PROJETO_DRONE/testbench_drone.vcd
$date
	Mon Mar 11 10:33:43 2024
$end
$version
	ModelSim Version 2020.1
$end
$timescale
	1ps
$end

$scope module simulador_drone_tb $end
$var parameter 32 ! clockPeriod $end
$var reg 1 " clock $end
$var reg 1 # reset $end
$var reg 1 $ iniciar $end
$var reg 2 % controle [1:0] $end
$var wire 1 & venceu $end
$var wire 1 ' perdeu $end
$var wire 1 ( db_posicao_horizontal [3] $end
$var wire 1 ) db_posicao_horizontal [2] $end
$var wire 1 * db_posicao_horizontal [1] $end
$var wire 1 + db_posicao_horizontal [0] $end
$var wire 1 , db_posicao_vertical [3] $end
$var wire 1 - db_posicao_vertical [2] $end
$var wire 1 . db_posicao_vertical [1] $end
$var wire 1 / db_posicao_vertical [0] $end
$var wire 1 0 db_obstaculos [3] $end
$var wire 1 1 db_obstaculos [2] $end
$var wire 1 2 db_obstaculos [1] $end
$var wire 1 3 db_obstaculos [0] $end
$var wire 1 4 db_estado [3] $end
$var wire 1 5 db_estado [2] $end
$var wire 1 6 db_estado [1] $end
$var wire 1 7 db_estado [0] $end
$var reg 21 8 caso [20:0] $end

$scope module dut $end
$var wire 1 9 clock $end
$var wire 1 : bot $end
$var wire 1 ; fds $end
$var wire 1 < reset $end
$var wire 1 = iniciar $end
$var wire 1 > controle [1] $end
$var wire 1 ? controle [0] $end
$var wire 1 & venceu $end
$var wire 1 ' perdeu $end
$var wire 1 ( db_posicao_horizontal [3] $end
$var wire 1 ) db_posicao_horizontal [2] $end
$var wire 1 * db_posicao_horizontal [1] $end
$var wire 1 + db_posicao_horizontal [0] $end
$var wire 1 , db_posicao_vertical [3] $end
$var wire 1 - db_posicao_vertical [2] $end
$var wire 1 . db_posicao_vertical [1] $end
$var wire 1 / db_posicao_vertical [0] $end
$var wire 1 0 db_obstaculos [3] $end
$var wire 1 1 db_obstaculos [2] $end
$var wire 1 2 db_obstaculos [1] $end
$var wire 1 3 db_obstaculos [0] $end
$var wire 1 4 db_estado [3] $end
$var wire 1 5 db_estado [2] $end
$var wire 1 6 db_estado [1] $end
$var wire 1 7 db_estado [0] $end
$var wire 1 @ botout $end
$var wire 1 A fdsout $end
$var wire 1 B desloca $end
$var wire 1 C zeraPosicoes $end
$var wire 1 D colisao $end
$var wire 1 E fim_espera $end
$var wire 1 F fim_mapa $end
$var wire 1 G contaT $end
$var wire 1 H zeraT $end

$scope module uc $end
$var parameter 4 I inicial $end
$var parameter 4 J preparacao $end
$var parameter 4 K inicio_rodada $end
$var parameter 4 L espera $end
$var parameter 4 M deslocamento $end
$var parameter 4 N checa_colisao $end
$var parameter 4 O proximo $end
$var parameter 4 P derrota $end
$var parameter 4 Q vitoria $end
$var wire 1 9 clock $end
$var wire 1 < reset $end
$var wire 1 = iniciar $end
$var wire 1 E fim_espera $end
$var wire 1 F fim_mapa $end
$var wire 1 D colisao $end
$var reg 1 R zeraPosicoes $end
$var reg 1 S contaT $end
$var reg 1 T zeraT $end
$var reg 1 U desloca $end
$var reg 1 V venceu $end
$var reg 1 W perdeu $end
$var reg 4 X db_estado [3:0] $end
$var reg 4 Y Eatual [3:0] $end
$var reg 4 Z Eprox [3:0] $end
$upscope $end

$scope module fd $end
$var wire 1 < reset $end
$var wire 1 = iniciar $end
$var wire 1 > controle [1] $end
$var wire 1 ? controle [0] $end
$var wire 1 9 clock $end
$var wire 1 B desloca $end
$var wire 1 C zeraPosicoes $end
$var wire 1 G contaT $end
$var wire 1 H zeraT $end
$var wire 1 D colisao $end
$var wire 1 E fim_espera $end
$var wire 1 F fim_mapa $end
$var wire 1 ( db_posicao_horizontal [3] $end
$var wire 1 ) db_posicao_horizontal [2] $end
$var wire 1 * db_posicao_horizontal [1] $end
$var wire 1 + db_posicao_horizontal [0] $end
$var wire 1 , db_posicao_vertical [3] $end
$var wire 1 - db_posicao_vertical [2] $end
$var wire 1 . db_posicao_vertical [1] $end
$var wire 1 / db_posicao_vertical [0] $end
$var wire 1 0 db_obstaculos [3] $end
$var wire 1 1 db_obstaculos [2] $end
$var wire 1 2 db_obstaculos [1] $end
$var wire 1 3 db_obstaculos [0] $end
$var wire 1 [ posicao_vertical [1] $end
$var wire 1 \ posicao_vertical [0] $end
$var wire 1 ] obstaculos [3] $end
$var wire 1 ^ obstaculos [2] $end
$var wire 1 _ obstaculos [1] $end
$var wire 1 ` obstaculos [0] $end
$var wire 1 a posicao_horizontal [3] $end
$var wire 1 b posicao_horizontal [2] $end
$var wire 1 c posicao_horizontal [1] $end
$var wire 1 d posicao_horizontal [0] $end

$scope module contador_posicao_horizontal $end
$var wire 1 9 clock $end
$var wire 1 e clr $end
$var wire 1 f ld $end
$var wire 1 g ent $end
$var wire 1 B enp $end
$var wire 1 h D [3] $end
$var wire 1 i D [2] $end
$var wire 1 j D [1] $end
$var wire 1 k D [0] $end
$var reg 4 l Q [3:0] $end
$var reg 1 m rco $end
$upscope $end

$scope module contador_posicao_vertical $end
$var wire 1 9 clock $end
$var wire 1 n clr $end
$var wire 1 o ld $end
$var wire 1 B enp $end
$var wire 1 ? soma $end
$var wire 1 > sub $end
$var wire 1 p D [1] $end
$var wire 1 q D [0] $end
$var reg 2 r Q [1:0] $end
$var reg 1 s rco $end
$upscope $end

$scope module contador_tempo_jogada $end
$var parameter 32 t M $end
$var parameter 32 u N $end
$var wire 1 9 clock $end
$var wire 1 v zera_as $end
$var wire 1 H zera_s $end
$var wire 1 G conta $end
$var reg 13 w Q [12:0] $end
$var reg 1 x fim $end
$var reg 1 y meio $end
$upscope $end

$scope module mapa_jogo $end
$var parameter 96 z BINFILE $end
$var wire 1 9 clk $end
$var wire 1 { we $end
$var wire 1 | data [3] $end
$var wire 1 } data [2] $end
$var wire 1 ~ data [1] $end
$var wire 1 !! data [0] $end
$var wire 1 "! addr [3] $end
$var wire 1 #! addr [2] $end
$var wire 1 $! addr [1] $end
$var wire 1 %! addr [0] $end
$var wire 1 ] q [3] $end
$var wire 1 ^ q [2] $end
$var wire 1 _ q [1] $end
$var wire 1 ` q [0] $end
$var reg 4 &! addr_reg [3:0] $end

$scope begin INICIA_RAM $end
$upscope $end
$upscope $end

$scope module conversor_posicao $end
$var wire 1 [ posicao_2b [1] $end
$var wire 1 \ posicao_2b [0] $end
$var wire 1 , posicao_4b [3] $end
$var wire 1 - posicao_4b [2] $end
$var wire 1 . posicao_4b [1] $end
$var wire 1 / posicao_4b [0] $end
$upscope $end
$upscope $end
$upscope $end
$upscope $end
$enddefinitions $end
#0
$dumpvars
0"
0#
0$
b1 %
xR
xS
xT
xU
xV
xW
bx X
bx Y
b0 Z
bx l
0m
bx r
xs
bx w
xx
xy
bx &!
b1 8
b1111101000 !
b0 I
b1 J
b10 K
b11 L
b100 M
b101 N
b110 O
b111 P
b1000 Q
b11111010000 t
b1101 u
b11100100110000101101101010111110110100101101110011010010111010000101110011101000111100001110100 z
x&
x'
x+
x*
x)
x(
x/
x.
x-
x,
x3
x2
x1
x0
x7
x6
x5
x4
xB
xC
xD
xE
0F
xG
xH
x\
x[
x`
x_
x^
x]
xd
xc
xb
xa
1?
0>
0=
0<
09
z:
z;
z@
zA
x%!
x$!
x#!
x"!
0!!
0~
0}
0|
0{
0v
0q
1p
xo
1n
1g
1f
xe
zk
zj
zi
zh
$end
#500
1"
19
b0 Y
1R
0S
1T
0U
0V
0W
b0 X
1C
0G
1H
0&
0'
07
06
05
04
0o
0e
0B
0s
#1000
0"
09
1#
1<
#1500
1"
19
b0 l
b10 r
b0 w
0\
1[
0d
0c
0b
0a
1%!
0$!
0#!
0"!
0+
0*
0)
0(
0/
0.
1-
0,
0x
0y
0E
#2000
0#
0"
0<
09
#2500
1"
19
b1 &!
0`
1_
0^
0]
03
12
01
00
0D
#3000
0"
09
#3500
1"
19
#4000
0"
09
#4500
1"
19
#5000
0"
09
#5500
1"
19
#6000
0"
09
#6500
1"
19
#7000
b10 8
1$
0"
1=
09
b1 Z
#7500
1"
19
b1 Y
b10 Z
b1 X
17
#8000
0"
09
#8500
1"
19
b10 Y
b11 Z
0R
b10 X
0C
07
16
1o
1e
#9000
0"
09
#9500
1"
19
b11 Y
1S
0T
b11 X
1G
0H
17
#10000
0"
09
#10500
1"
19
b1 w
#11000
0"
09
#11500
1"
19
b10 w
#12000
0$
b11 8
b0 %
0"
0?
0=
09
#12500
1"
19
b11 w
#13000
0"
09
#13500
1"
19
b100 w
#14000
0"
09
#14500
1"
19
b101 w
#15000
0"
09
#15500
1"
19
b110 w
#16000
0"
09
#16500
1"
19
b111 w
#17000
0"
09
#17500
1"
19
b1000 w
#18000
0"
09
#18500
1"
19
b1001 w
#19000
0"
09
#19500
1"
19
b1010 w
#20000
0"
09
#20500
1"
19
b1011 w
#21000
0"
09
#21500
1"
19
b1100 w
#22000
0"
09
#22500
1"
19
b1101 w
#23000
0"
09
#23500
1"
19
b1110 w
#24000
0"
09
#24500
1"
19
b1111 w
#25000
0"
09
#25500
1"
19
b10000 w
#26000
0"
09
#26500
1"
19
b10001 w
#27000
0"
09
#27500
1"
19
b10010 w
#28000
0"
09
#28500
1"
19
b10011 w
#29000
0"
09
#29500
1"
19
b10100 w
#30000
0"
09
#30500
1"
19
b10101 w
#31000
0"
09
#31500
1"
19
b10110 w
#32000
0"
09
#32500
1"
19
b10111 w
#33000
0"
09
#33500
1"
19
b11000 w
#34000
0"
09
#34500
1"
19
b11001 w
#35000
0"
09
#35500
1"
19
b11010 w
#36000
0"
09
#36500
1"
19
b11011 w
#37000
0"
09
#37500
1"
19
b11100 w
#38000
0"
09
#38500
1"
19
b11101 w
#39000
0"
09
#39500
1"
19
b11110 w
#40000
0"
09
#40500
1"
19
b11111 w
#41000
0"
09
#41500
1"
19
b100000 w
#42000
0"
09
#42500
1"
19
b100001 w
#43000
0"
09
#43500
1"
19
b100010 w
#44000
0"
09
#44500
1"
19
b100011 w
#45000
0"
09
#45500
1"
19
b100100 w
#46000
0"
09
#46500
1"
19
b100101 w
#47000
0"
09
#47500
1"
19
b100110 w
#48000
0"
09
#48500
1"
19
b100111 w
#49000
0"
09
#49500
1"
19
b101000 w
#50000
0"
09
#50500
1"
19
b101001 w
#51000
0"
09
#51500
1"
19
b101010 w
#52000
0"
09
#52500
1"
19
b101011 w
#53000
0"
09
#53500
1"
19
b101100 w
#54000
0"
09
#54500
1"
19
b101101 w
#55000
0"
09
#55500
1"
19
b101110 w
#56000
0"
09
#56500
1"
19
b101111 w
#57000
0"
09
#57500
1"
19
b110000 w
#58000
0"
09
#58500
1"
19
b110001 w
#59000
0"
09
#59500
1"
19
b110010 w
#60000
0"
09
#60500
1"
19
b110011 w
#61000
0"
09
#61500
1"
19
b110100 w
#62000
0"
09
#62500
1"
19
b110101 w
#63000
0"
09
#63500
1"
19
b110110 w
#64000
0"
09
#64500
1"
19
b110111 w
#65000
0"
09
#65500
1"
19
b111000 w
#66000
0"
09
#66500
1"
19
b111001 w
#67000
0"
09
#67500
1"
19
b111010 w
#68000
0"
09
#68500
1"
19
b111011 w
#69000
0"
09
#69500
1"
19
b111100 w
#70000
0"
09
#70500
1"
19
b111101 w
#71000
0"
09
#71500
1"
19
b111110 w
#72000
0"
09
#72500
1"
19
b111111 w
#73000
0"
09
#73500
1"
19
b1000000 w
#74000
0"
09
#74500
1"
19
b1000001 w
#75000
0"
09
#75500
1"
19
b1000010 w
#76000
0"
09
#76500
1"
19
b1000011 w
#77000
0"
09
#77500
1"
19
b1000100 w
#78000
0"
09
#78500
1"
19
b1000101 w
#79000
0"
09
#79500
1"
19
b1000110 w
#80000
0"
09
#80500
1"
19
b1000111 w
#81000
0"
09
#81500
1"
19
b1001000 w
#82000
0"
09
#82500
1"
19
b1001001 w
#83000
0"
09
#83500
1"
19
b1001010 w
#84000
0"
09
#84500
1"
19
b1001011 w
#85000
0"
09
#85500
1"
19
b1001100 w
#86000
0"
09
#86500
1"
19
b1001101 w
#87000
0"
09
#87500
1"
19
b1001110 w
#88000
0"
09
#88500
1"
19
b1001111 w
#89000
0"
09
#89500
1"
19
b1010000 w
#90000
0"
09
#90500
1"
19
b1010001 w
#91000
0"
09
#91500
1"
19
b1010010 w
#92000
0"
09
#92500
1"
19
b1010011 w
#93000
0"
09
#93500
1"
19
b1010100 w
#94000
0"
09
#94500
1"
19
b1010101 w
#95000
0"
09
#95500
1"
19
b1010110 w
#96000
0"
09
#96500
1"
19
b1010111 w
#97000
0"
09
#97500
1"
19
b1011000 w
#98000
0"
09
#98500
1"
19
b1011001 w
#99000
0"
09
#99500
1"
19
b1011010 w
#100000
0"
09
#100500
1"
19
b1011011 w
#101000
0"
09
#101500
1"
19
b1011100 w
#102000
0"
09
#102500
1"
19
b1011101 w
#103000
0"
09
#103500
1"
19
b1011110 w
#104000
0"
09
#104500
1"
19
b1011111 w
#105000
0"
09
#105500
1"
19
b1100000 w
#106000
0"
09
#106500
1"
19
b1100001 w
#107000
0"
09
#107500
1"
19
b1100010 w
#108000
0"
09
#108500
1"
19
b1100011 w
#109000
0"
09
#109500
1"
19
b1100100 w
#110000
0"
09
#110500
1"
19
b1100101 w
#111000
0"
09
#111500
1"
19
b1100110 w
#112000
0"
09
#112500
1"
19
b1100111 w
#113000
0"
09
#113500
1"
19
b1101000 w
#114000
0"
09
#114500
1"
19
b1101001 w
#115000
0"
09
#115500
1"
19
b1101010 w
#116000
0"
09
#116500
1"
19
b1101011 w
#117000
0"
09
#117500
1"
19
b1101100 w
#118000
0"
09
#118500
1"
19
b1101101 w
#119000
0"
09
#119500
1"
19
b1101110 w
#120000
0"
09
#120500
1"
19
b1101111 w
#121000
0"
09
#121500
1"
19
b1110000 w
#122000
0"
09
#122500
1"
19
b1110001 w
#123000
0"
09
#123500
1"
19
b1110010 w
#124000
0"
09
#124500
1"
19
b1110011 w
#125000
0"
09
#125500
1"
19
b1110100 w
#126000
0"
09
#126500
1"
19
b1110101 w
#127000
0"
09
#127500
1"
19
b1110110 w
#128000
0"
09
#128500
1"
19
b1110111 w
#129000
0"
09
#129500
1"
19
b1111000 w
#130000
0"
09
#130500
1"
19
b1111001 w
#131000
0"
09
#131500
1"
19
b1111010 w
#132000
0"
09
#132500
1"
19
b1111011 w
#133000
0"
09
#133500
1"
19
b1111100 w
#134000
0"
09
#134500
1"
19
b1111101 w
#135000
0"
09
#135500
1"
19
b1111110 w
#136000
0"
09
#136500
1"
19
b1111111 w
#137000
0"
09
#137500
1"
19
b10000000 w
#138000
0"
09
#138500
1"
19
b10000001 w
#139000
0"
09
#139500
1"
19
b10000010 w
#140000
0"
09
#140500
1"
19
b10000011 w
#141000
0"
09
#141500
1"
19
b10000100 w
#142000
0"
09
#142500
1"
19
b10000101 w
#143000
0"
09
#143500
1"
19
b10000110 w
#144000
0"
09
#144500
1"
19
b10000111 w
#145000
0"
09
#145500
1"
19
b10001000 w
#146000
0"
09
#146500
1"
19
b10001001 w
#147000
0"
09
#147500
1"
19
b10001010 w
#148000
0"
09
#148500
1"
19
b10001011 w
#149000
0"
09
#149500
1"
19
b10001100 w
#150000
0"
09
#150500
1"
19
b10001101 w
#151000
0"
09
#151500
1"
19
b10001110 w
#152000
0"
09
#152500
1"
19
b10001111 w
#153000
0"
09
#153500
1"
19
b10010000 w
#154000
0"
09
#154500
1"
19
b10010001 w
#155000
0"
09
#155500
1"
19
b10010010 w
#156000
0"
09
#156500
1"
19
b10010011 w
#157000
0"
09
#157500
1"
19
b10010100 w
#158000
0"
09
#158500
1"
19
b10010101 w
#159000
0"
09
#159500
1"
19
b10010110 w
#160000
0"
09
#160500
1"
19
b10010111 w
#161000
0"
09
#161500
1"
19
b10011000 w
#162000
0"
09
#162500
1"
19
b10011001 w
#163000
0"
09
#163500
1"
19
b10011010 w
#164000
0"
09
#164500
1"
19
b10011011 w
#165000
0"
09
#165500
1"
19
b10011100 w
#166000
0"
09
#166500
1"
19
b10011101 w
#167000
0"
09
#167500
1"
19
b10011110 w
#168000
0"
09
#168500
1"
19
b10011111 w
#169000
0"
09
#169500
1"
19
b10100000 w
#170000
0"
09
#170500
1"
19
b10100001 w
#171000
0"
09
#171500
1"
19
b10100010 w
#172000
0"
09
#172500
1"
19
b10100011 w
#173000
0"
09
#173500
1"
19
b10100100 w
#174000
0"
09
#174500
1"
19
b10100101 w
#175000
0"
09
#175500
1"
19
b10100110 w
#176000
0"
09
#176500
1"
19
b10100111 w
#177000
0"
09
#177500
1"
19
b10101000 w
#178000
0"
09
#178500
1"
19
b10101001 w
#179000
0"
09
#179500
1"
19
b10101010 w
#180000
0"
09
#180500
1"
19
b10101011 w
#181000
0"
09
#181500
1"
19
b10101100 w
#182000
0"
09
#182500
1"
19
b10101101 w
#183000
0"
09
#183500
1"
19
b10101110 w
#184000
0"
09
#184500
1"
19
b10101111 w
#185000
0"
09
#185500
1"
19
b10110000 w
#186000
0"
09
#186500
1"
19
b10110001 w
#187000
0"
09
#187500
1"
19
b10110010 w
#188000
0"
09
#188500
1"
19
b10110011 w
#189000
0"
09
#189500
1"
19
b10110100 w
#190000
0"
09
#190500
1"
19
b10110101 w
#191000
0"
09
#191500
1"
19
b10110110 w
#192000
0"
09
#192500
1"
19
b10110111 w
#193000
0"
09
#193500
1"
19
b10111000 w
#194000
0"
09
#194500
1"
19
b10111001 w
#195000
0"
09
#195500
1"
19
b10111010 w
#196000
0"
09
#196500
1"
19
b10111011 w
#197000
0"
09
#197500
1"
19
b10111100 w
#198000
0"
09
#198500
1"
19
b10111101 w
#199000
0"
09
#199500
1"
19
b10111110 w
#200000
0"
09
#200500
1"
19
b10111111 w
#201000
0"
09
#201500
1"
19
b11000000 w
#202000
0"
09
#202500
1"
19
b11000001 w
#203000
0"
09
#203500
1"
19
b11000010 w
#204000
0"
09
#204500
1"
19
b11000011 w
#205000
0"
09
#205500
1"
19
b11000100 w
#206000
0"
09
#206500
1"
19
b11000101 w
#207000
0"
09
#207500
1"
19
b11000110 w
#208000
0"
09
#208500
1"
19
b11000111 w
#209000
0"
09
#209500
1"
19
b11001000 w
#210000
0"
09
#210500
1"
19
b11001001 w
#211000
0"
09
#211500
1"
19
b11001010 w
#212000
0"
09
#212500
1"
19
b11001011 w
#213000
0"
09
#213500
1"
19
b11001100 w
#214000
0"
09
#214500
1"
19
b11001101 w
#215000
0"
09
#215500
1"
19
b11001110 w
#216000
0"
09
#216500
1"
19
b11001111 w
#217000
0"
09
#217500
1"
19
b11010000 w
#218000
0"
09
#218500
1"
19
b11010001 w
#219000
0"
09
#219500
1"
19
b11010010 w
#220000
0"
09
#220500
1"
19
b11010011 w
#221000
0"
09
#221500
1"
19
b11010100 w
#222000
0"
09
#222500
1"
19
b11010101 w
#223000
0"
09
#223500
1"
19
b11010110 w
#224000
0"
09
#224500
1"
19
b11010111 w
#225000
0"
09
#225500
1"
19
b11011000 w
#226000
0"
09
#226500
1"
19
b11011001 w
#227000
0"
09
#227500
1"
19
b11011010 w
#228000
0"
09
#228500
1"
19
b11011011 w
#229000
0"
09
#229500
1"
19
b11011100 w
#230000
0"
09
#230500
1"
19
b11011101 w
#231000
0"
09
#231500
1"
19
b11011110 w
#232000
0"
09
#232500
1"
19
b11011111 w
#233000
0"
09
#233500
1"
19
b11100000 w
#234000
0"
09
#234500
1"
19
b11100001 w
#235000
0"
09
#235500
1"
19
b11100010 w
#236000
0"
09
#236500
1"
19
b11100011 w
#237000
0"
09
#237500
1"
19
b11100100 w
#238000
0"
09
#238500
1"
19
b11100101 w
#239000
0"
09
#239500
1"
19
b11100110 w
#240000
0"
09
#240500
1"
19
b11100111 w
#241000
0"
09
#241500
1"
19
b11101000 w
#242000
0"
09
#242500
1"
19
b11101001 w
#243000
0"
09
#243500
1"
19
b11101010 w
#244000
0"
09
#244500
1"
19
b11101011 w
#245000
0"
09
#245500
1"
19
b11101100 w
#246000
0"
09
#246500
1"
19
b11101101 w
#247000
0"
09
#247500
1"
19
b11101110 w
#248000
0"
09
#248500
1"
19
b11101111 w
#249000
0"
09
#249500
1"
19
b11110000 w
#250000
0"
09
#250500
1"
19
b11110001 w
#251000
0"
09
#251500
1"
19
b11110010 w
#252000
0"
09
#252500
1"
19
b11110011 w
#253000
0"
09
#253500
1"
19
b11110100 w
#254000
0"
09
#254500
1"
19
b11110101 w
#255000
0"
09
#255500
1"
19
b11110110 w
#256000
0"
09
#256500
1"
19
b11110111 w
#257000
0"
09
#257500
1"
19
b11111000 w
#258000
0"
09
#258500
1"
19
b11111001 w
#259000
0"
09
#259500
1"
19
b11111010 w
#260000
0"
09
#260500
1"
19
b11111011 w
#261000
0"
09
#261500
1"
19
b11111100 w
#262000
0"
09
#262500
1"
19
b11111101 w
#263000
0"
09
#263500
1"
19
b11111110 w
#264000
0"
09
#264500
1"
19
b11111111 w
#265000
0"
09
#265500
1"
19
b100000000 w
#266000
0"
09
#266500
1"
19
b100000001 w
#267000
0"
09
#267500
1"
19
b100000010 w
#268000
0"
09
#268500
1"
19
b100000011 w
#269000
0"
09
#269500
1"
19
b100000100 w
#270000
0"
09
#270500
1"
19
b100000101 w
#271000
0"
09
#271500
1"
19
b100000110 w
#272000
0"
09
#272500
1"
19
b100000111 w
#273000
0"
09
#273500
1"
19
b100001000 w
#274000
0"
09
#274500
1"
19
b100001001 w
#275000
0"
09
#275500
1"
19
b100001010 w
#276000
0"
09
#276500
1"
19
b100001011 w
#277000
0"
09
#277500
1"
19
b100001100 w
#278000
0"
09
#278500
1"
19
b100001101 w
#279000
0"
09
#279500
1"
19
b100001110 w
#280000
0"
09
#280500
1"
19
b100001111 w
#281000
0"
09
#281500
1"
19
b100010000 w
#282000
0"
09
#282500
1"
19
b100010001 w
#283000
0"
09
#283500
1"
19
b100010010 w
#284000
0"
09
#284500
1"
19
b100010011 w
#285000
0"
09
#285500
1"
19
b100010100 w
#286000
0"
09
#286500
1"
19
b100010101 w
#287000
0"
09
#287500
1"
19
b100010110 w
#288000
0"
09
#288500
1"
19
b100010111 w
#289000
0"
09
#289500
1"
19
b100011000 w
#290000
0"
09
#290500
1"
19
b100011001 w
#291000
0"
09
#291500
1"
19
b100011010 w
#292000
0"
09
#292500
1"
19
b100011011 w
#293000
0"
09
#293500
1"
19
b100011100 w
#294000
0"
09
#294500
1"
19
b100011101 w
#295000
0"
09
#295500
1"
19
b100011110 w
#296000
0"
09
#296500
1"
19
b100011111 w
#297000
0"
09
#297500
1"
19
b100100000 w
#298000
0"
09
#298500
1"
19
b100100001 w
#299000
0"
09
#299500
1"
19
b100100010 w
#300000
0"
09
#300500
1"
19
b100100011 w
#301000
0"
09
#301500
1"
19
b100100100 w
#302000
0"
09
#302500
1"
19
b100100101 w
#303000
0"
09
#303500
1"
19
b100100110 w
#304000
0"
09
#304500
1"
19
b100100111 w
#305000
0"
09
#305500
1"
19
b100101000 w
#306000
0"
09
#306500
1"
19
b100101001 w
#307000
0"
09
#307500
1"
19
b100101010 w
#308000
0"
09
#308500
1"
19
b100101011 w
#309000
0"
09
#309500
1"
19
b100101100 w
#310000
0"
09
#310500
1"
19
b100101101 w
#311000
0"
09
#311500
1"
19
b100101110 w
#312000
0"
09
#312500
1"
19
b100101111 w
#313000
0"
09
#313500
1"
19
b100110000 w
#314000
0"
09
#314500
1"
19
b100110001 w
#315000
0"
09
#315500
1"
19
b100110010 w
#316000
0"
09
#316500
1"
19
b100110011 w
#317000
0"
09
#317500
1"
19
b100110100 w
#318000
0"
09
#318500
1"
19
b100110101 w
#319000
0"
09
#319500
1"
19
b100110110 w
#320000
0"
09
#320500
1"
19
b100110111 w
#321000
0"
09
#321500
1"
19
b100111000 w
#322000
0"
09
#322500
1"
19
b100111001 w
#323000
0"
09
#323500
1"
19
b100111010 w
#324000
0"
09
#324500
1"
19
b100111011 w
#325000
0"
09
#325500
1"
19
b100111100 w
#326000
0"
09
#326500
1"
19
b100111101 w
#327000
0"
09
#327500
1"
19
b100111110 w
#328000
0"
09
#328500
1"
19
b100111111 w
#329000
0"
09
#329500
1"
19
b101000000 w
#330000
0"
09
#330500
1"
19
b101000001 w
#331000
0"
09
#331500
1"
19
b101000010 w
#332000
0"
09
#332500
1"
19
b101000011 w
#333000
0"
09
#333500
1"
19
b101000100 w
#334000
0"
09
#334500
1"
19
b101000101 w
#335000
0"
09
#335500
1"
19
b101000110 w
#336000
0"
09
#336500
1"
19
b101000111 w
#337000
0"
09
#337500
1"
19
b101001000 w
#338000
0"
09
#338500
1"
19
b101001001 w
#339000
0"
09
#339500
1"
19
b101001010 w
#340000
0"
09
#340500
1"
19
b101001011 w
#341000
0"
09
#341500
1"
19
b101001100 w
#342000
0"
09
#342500
1"
19
b101001101 w
#343000
0"
09
#343500
1"
19
b101001110 w
#344000
0"
09
#344500
1"
19
b101001111 w
#345000
0"
09
#345500
1"
19
b101010000 w
#346000
0"
09
#346500
1"
19
b101010001 w
#347000
0"
09
#347500
1"
19
b101010010 w
#348000
0"
09
#348500
1"
19
b101010011 w
#349000
0"
09
#349500
1"
19
b101010100 w
#350000
0"
09
#350500
1"
19
b101010101 w
#351000
0"
09
#351500
1"
19
b101010110 w
#352000
0"
09
#352500
1"
19
b101010111 w
#353000
0"
09
#353500
1"
19
b101011000 w
#354000
0"
09
#354500
1"
19
b101011001 w
#355000
0"
09
#355500
1"
19
b101011010 w
#356000
0"
09
#356500
1"
19
b101011011 w
#357000
0"
09
#357500
1"
19
b101011100 w
#358000
0"
09
#358500
1"
19
b101011101 w
#359000
0"
09
#359500
1"
19
b101011110 w
#360000
0"
09
#360500
1"
19
b101011111 w
#361000
0"
09
#361500
1"
19
b101100000 w
#362000
0"
09
#362500
1"
19
b101100001 w
#363000
0"
09
#363500
1"
19
b101100010 w
#364000
0"
09
#364500
1"
19
b101100011 w
#365000
0"
09
#365500
1"
19
b101100100 w
#366000
0"
09
#366500
1"
19
b101100101 w
#367000
0"
09
#367500
1"
19
b101100110 w
#368000
0"
09
#368500
1"
19
b101100111 w
#369000
0"
09
#369500
1"
19
b101101000 w
#370000
0"
09
#370500
1"
19
b101101001 w
#371000
0"
09
#371500
1"
19
b101101010 w
#372000
0"
09
#372500
1"
19
b101101011 w
#373000
0"
09
#373500
1"
19
b101101100 w
#374000
0"
09
#374500
1"
19
b101101101 w
#375000
0"
09
#375500
1"
19
b101101110 w
#376000
0"
09
#376500
1"
19
b101101111 w
#377000
0"
09
#377500
1"
19
b101110000 w
#378000
0"
09
#378500
1"
19
b101110001 w
#379000
0"
09
#379500
1"
19
b101110010 w
#380000
0"
09
#380500
1"
19
b101110011 w
#381000
0"
09
#381500
1"
19
b101110100 w
#382000
0"
09
#382500
1"
19
b101110101 w
#383000
0"
09
#383500
1"
19
b101110110 w
#384000
0"
09
#384500
1"
19
b101110111 w
#385000
0"
09
#385500
1"
19
b101111000 w
#386000
0"
09
#386500
1"
19
b101111001 w
#387000
0"
09
#387500
1"
19
b101111010 w
#388000
0"
09
#388500
1"
19
b101111011 w
#389000
0"
09
#389500
1"
19
b101111100 w
#390000
0"
09
#390500
1"
19
b101111101 w
#391000
0"
09
#391500
1"
19
b101111110 w
#392000
0"
09
#392500
1"
19
b101111111 w
#393000
0"
09
#393500
1"
19
b110000000 w
#394000
0"
09
#394500
1"
19
b110000001 w
#395000
0"
09
#395500
1"
19
b110000010 w
#396000
0"
09
#396500
1"
19
b110000011 w
#397000
0"
09
#397500
1"
19
b110000100 w
#398000
0"
09
#398500
1"
19
b110000101 w
#399000
0"
09
#399500
1"
19
b110000110 w
#400000
0"
09
#400500
1"
19
b110000111 w
#401000
0"
09
#401500
1"
19
b110001000 w
#402000
0"
09
#402500
1"
19
b110001001 w
#403000
0"
09
#403500
1"
19
b110001010 w
#404000
0"
09
#404500
1"
19
b110001011 w
#405000
0"
09
#405500
1"
19
b110001100 w
#406000
0"
09
#406500
1"
19
b110001101 w
#407000
0"
09
#407500
1"
19
b110001110 w
#408000
0"
09
#408500
1"
19
b110001111 w
#409000
0"
09
#409500
1"
19
b110010000 w
#410000
0"
09
#410500
1"
19
b110010001 w
#411000
0"
09
#411500
1"
19
b110010010 w
#412000
0"
09
#412500
1"
19
b110010011 w
#413000
0"
09
#413500
1"
19
b110010100 w
#414000
0"
09
#414500
1"
19
b110010101 w
#415000
0"
09
#415500
1"
19
b110010110 w
#416000
0"
09
#416500
1"
19
b110010111 w
#417000
0"
09
#417500
1"
19
b110011000 w
#418000
0"
09
#418500
1"
19
b110011001 w
#419000
0"
09
#419500
1"
19
b110011010 w
#420000
0"
09
#420500
1"
19
b110011011 w
#421000
0"
09
#421500
1"
19
b110011100 w
#422000
0"
09
#422500
1"
19
b110011101 w
#423000
0"
09
#423500
1"
19
b110011110 w
#424000
0"
09
#424500
1"
19
b110011111 w
#425000
0"
09
#425500
1"
19
b110100000 w
#426000
0"
09
#426500
1"
19
b110100001 w
#427000
0"
09
#427500
1"
19
b110100010 w
#428000
0"
09
#428500
1"
19
b110100011 w
#429000
0"
09
#429500
1"
19
b110100100 w
#430000
0"
09
#430500
1"
19
b110100101 w
#431000
0"
09
#431500
1"
19
b110100110 w
#432000
0"
09
#432500
1"
19
b110100111 w
#433000
0"
09
#433500
1"
19
b110101000 w
#434000
0"
09
#434500
1"
19
b110101001 w
#435000
0"
09
#435500
1"
19
b110101010 w
#436000
0"
09
#436500
1"
19
b110101011 w
#437000
0"
09
#437500
1"
19
b110101100 w
#438000
0"
09
#438500
1"
19
b110101101 w
#439000
0"
09
#439500
1"
19
b110101110 w
#440000
0"
09
#440500
1"
19
b110101111 w
#441000
0"
09
#441500
1"
19
b110110000 w
#442000
0"
09
#442500
1"
19
b110110001 w
#443000
0"
09
#443500
1"
19
b110110010 w
#444000
0"
09
#444500
1"
19
b110110011 w
#445000
0"
09
#445500
1"
19
b110110100 w
#446000
0"
09
#446500
1"
19
b110110101 w
