PROJETO_DRONE/testbench_drone.vcd
$date
	Sat Mar 16 23:27:30 2024
$end
$version
	Icarus Verilog
$end
$timescale
	1s
$end
$scope module simulador_drone_tb $end
$var wire 1 ! venceu $end
$var wire 1 " perdeu $end
$var wire 4 # db_posicao_vertical [3:0] $end
$var wire 4 $ db_posicao_horizontal [3:0] $end
$var wire 4 % db_obstaculos [3:0] $end
$var wire 2 & db_modo [1:0] $end
$var wire 4 ' db_estado [3:0] $end
$var wire 3 ( colisao_counter_out [2:0] $end
$var reg 21 ) caso [20:0] $end
$var reg 1 * clock $end
$var reg 1 + confirma $end
$var reg 2 , controle [1:0] $end
$var reg 1 - iniciar $end
$var reg 1 . reset $end
$var integer 32 / i [31:0] $end
$scope module dut $end
$var wire 1 * clock $end
$var wire 1 + confirma $end
$var wire 2 0 controle [1:0] $end
$var wire 1 - iniciar $end
$var wire 1 . reset $end
$var wire 1 1 zeraT $end
$var wire 1 2 zeraPosicoes $end
$var wire 1 ! venceu $end
$var wire 1 3 resetaVidas $end
$var wire 1 " perdeu $end
$var wire 1 4 move_drone $end
$var wire 1 5 fim_mapa $end
$var wire 1 6 fim_espera $end
$var wire 1 7 escolhe_vida $end
$var wire 1 8 escolhe_modo $end
$var wire 1 9 desloca_horizontal $end
$var wire 4 : db_posicao_vertical [3:0] $end
$var wire 4 ; db_posicao_horizontal [3:0] $end
$var wire 4 < db_obstaculos [3:0] $end
$var wire 2 = db_modo [1:0] $end
$var wire 4 > db_estado [3:0] $end
$var wire 1 ? contaT $end
$var wire 1 @ confirma_pulso $end
$var wire 3 A colisao_counter_out [2:0] $end
$var wire 1 B colisao $end
$scope module confirma_edge $end
$var wire 1 * clock $end
$var wire 1 @ pulso $end
$var wire 1 C reset $end
$var wire 1 + sinal $end
$var reg 1 D reg0 $end
$var reg 1 E reg1 $end
$upscope $end
$scope module fd $end
$var wire 1 F borda $end
$var wire 1 * clock $end
$var wire 3 G colisao_counter_out [2:0] $end
$var wire 1 @ confirma $end
$var wire 2 H controle [1:0] $end
$var wire 4 I db_obstaculos [3:0] $end
$var wire 4 J db_posicao_horizontal [3:0] $end
$var wire 1 - iniciar $end
$var wire 2 K modo [1:0] $end
$var wire 1 . reset $end
$var wire 1 1 zeraT $end
$var wire 1 2 zeraPosicoes $end
$var wire 3 L vidas [2:0] $end
$var wire 1 3 resetaVidas $end
$var wire 2 M posicao_vertical [1:0] $end
$var wire 4 N posicao_horizontal [3:0] $end
$var wire 4 O obstaculos [3:0] $end
$var wire 1 4 move_drone $end
$var wire 2 P modo_interno [1:0] $end
$var wire 1 5 fim_mapa $end
$var wire 3 Q fim_espera_interno [2:0] $end
$var wire 1 6 fim_espera $end
$var wire 1 7 escolhe_vida $end
$var wire 1 8 escolhe_modo $end
$var wire 1 9 desloca_horizontal $end
$var wire 4 R db_posicao_vertical [3:0] $end
$var wire 1 ? contaT $end
$var wire 1 S colisao_interno $end
$var wire 3 T colisao_counter [2:0] $end
$var wire 1 B colisao $end
$var wire 2 U borda_controle [1:0] $end
$scope module contador_colisao $end
$var wire 3 V D [2:0] $end
$var wire 1 * clock $end
$var wire 1 W clr $end
$var wire 1 S ent $end
$var wire 1 X ld $end
$var wire 1 9 enp $end
$var reg 3 Y Q [2:0] $end
$var reg 1 Z rco $end
$upscope $end
$scope module contador_modo $end
$var wire 2 [ D [1:0] $end
$var wire 1 * clock $end
$var wire 1 \ clr $end
$var wire 1 ] enp $end
$var wire 1 ^ ld $end
$var wire 1 _ soma $end
$var wire 1 ` sub $end
$var reg 2 a Q [1:0] $end
$var reg 1 b rco $end
$upscope $end
$scope module contador_posicao_horizontal $end
$var wire 4 c D [3:0] $end
$var wire 1 * clock $end
$var wire 1 d clr $end
$var wire 1 e ent $end
$var wire 1 f ld $end
$var wire 1 9 enp $end
$var reg 4 g Q [3:0] $end
$var reg 1 5 rco $end
$upscope $end
$scope module contador_posicao_vertical $end
$var wire 2 h D [1:0] $end
$var wire 1 * clock $end
$var wire 1 i clr $end
$var wire 1 j enp $end
$var wire 1 k ld $end
$var wire 1 l soma $end
$var wire 1 m sub $end
$var reg 2 n Q [1:0] $end
$var reg 1 o rco $end
$upscope $end
$scope module contador_tempo_jogada_dificl $end
$var wire 1 * clock $end
$var wire 1 p zera_as $end
$var wire 1 1 zera_s $end
$var wire 1 ? conta $end
$var reg 10 q Q [9:0] $end
$var reg 1 r fim $end
$var reg 1 s meio $end
$upscope $end
$scope module contador_tempo_jogada_facil $end
$var wire 1 * clock $end
$var wire 1 t zera_as $end
$var wire 1 1 zera_s $end
$var wire 1 ? conta $end
$var reg 13 u Q [12:0] $end
$var reg 1 v fim $end
$var reg 1 w meio $end
$upscope $end
$scope module contador_tempo_jogada_medio $end
$var wire 1 * clock $end
$var wire 1 x zera_as $end
$var wire 1 1 zera_s $end
$var wire 1 ? conta $end
$var reg 11 y Q [10:0] $end
$var reg 1 z fim $end
$var reg 1 { meio $end
$upscope $end
$scope module contador_vidas $end
$var wire 3 | D [2:0] $end
$var wire 1 * clock $end
$var wire 1 } clr $end
$var wire 1 ~ enp $end
$var wire 1 !" ld $end
$var wire 1 "" soma $end
$var wire 1 #" sub $end
$var reg 3 $" Q [2:0] $end
$var reg 1 %" rco $end
$upscope $end
$scope module conversor_posicao $end
$var wire 2 &" posicao_2b [1:0] $end
$var wire 4 '" posicao_4b [3:0] $end
$upscope $end
$scope module detector_borda0 $end
$var wire 1 * clock $end
$var wire 1 (" pulso $end
$var wire 1 )" reset $end
$var wire 1 *" sinal $end
$var reg 1 +" reg0 $end
$var reg 1 ," reg1 $end
$upscope $end
$scope module detector_borda1 $end
$var wire 1 * clock $end
$var wire 1 -" pulso $end
$var wire 1 ." reset $end
$var wire 1 /" sinal $end
$var reg 1 0" reg0 $end
$var reg 1 1" reg1 $end
$upscope $end
$scope module mapa_jogo $end
$var wire 4 2" addr [3:0] $end
$var wire 1 * clk $end
$var wire 4 3" data [3:0] $end
$var wire 4 4" q [3:0] $end
$var wire 1 5" we $end
$var reg 4 6" addr_reg [3:0] $end
$scope begin INICIA_RAM $end
$upscope $end
$upscope $end
$upscope $end
$scope module uc $end
$var wire 1 * clock $end
$var wire 1 B colisao $end
$var wire 1 @ confirma $end
$var wire 1 6 fim_espera $end
$var wire 1 5 fim_mapa $end
$var wire 1 - iniciar $end
$var wire 1 . reset $end
$var reg 4 7" Eatual [3:0] $end
$var reg 4 8" Eprox [3:0] $end
$var reg 1 ? contaT $end
$var reg 4 9" db_estado [3:0] $end
$var reg 1 9 desloca_horizontal $end
$var reg 1 8 escolhe_modo $end
$var reg 1 7 escolhe_vida $end
$var reg 1 4 move_drone $end
$var reg 1 " perdeu $end
$var reg 1 3 resetaVidas $end
$var reg 1 ! venceu $end
$var reg 1 2 zeraPosicoes $end
$var reg 1 1 zeraT $end
$upscope $end
$upscope $end
$upscope $end
$enddefinitions $end
#0
$dumpvars
bx 9"
b0 8"
bx 7"
bx 6"
05"
bx 4"
b0 3"
bx 2"
x1"
x0"
0/"
0."
x-"
x,"
x+"
0*"
0)"
x("
bx '"
bx &"
x%"
bx $"
0#"
0""
x!"
x~
1}
b1 |
x{
xz
bx y
0x
xw
xv
bx u
0t
xs
xr
bx q
0p
xo
bx n
0m
0l
xk
xj
1i
b10 h
bx g
1f
1e
xd
bz c
xb
bx a
0`
0_
1^
x]
1\
bz [
0Z
bx Y
1X
xW
bz V
bx U
bx T
xS
bx R
bx Q
bx P
bx O
bx N
bx M
bx L
bx K
bx J
bx I
b0 H
bx G
xF
xE
xD
zC
xB
bx A
x@
x?
bx >
bx =
bx <
bx ;
bx :
x9
x8
x7
x6
05
x4
x3
x2
x1
b0 0
bx /
0.
0-
b0 ,
0+
0*
b1 )
bx (
bx '
bx &
bx %
bx $
bx #
x"
x!
$end
#500
0F
0%"
0b
0o
0~
0]
0j
0!"
0W
0k
0d
0@
0("
b0 U
0-"
b0 '
b0 >
b0 9"
07
08
0"
0!
09
04
11
0?
13
12
0D
0+"
00"
b0 7"
1*
#1000
1.
0*
#1500
0B
b100 #
b100 :
b100 R
b100 '"
0s
0r
0w
0v
0{
b0 Q
0z
0E
b0 (
b0 A
b0 G
b0 T
b0 Y
b1 L
b1 $"
b10 M
b10 n
b10 &"
b1 2"
b0 $
b0 ;
b0 J
b0 N
b0 g
b0 q
b0 u
b0 y
0,"
01"
1*
#2000
0*
0.
#2500
0S
b10 %
b10 <
b10 I
b10 O
b10 4"
b1 6"
1*
#3000
0*
#3500
1*
#4000
0*
#4500
1*
#5000
0*
#5500
1*
#6000
0*
#6500
1*
#7000
0*
#7500
1*
#8000
0*
#8500
1*
#9000
0*
#9500
1*
#10000
0*
#10500
1*
#11000
0*
#11500
1*
#12000
0\
b10 8"
0*
1-
b10 )
#12500
1W
1k
1d
b10 '
b10 >
b10 9"
18
01
02
06
b0 &
b0 =
b0 K
b0 P
b0 a
b10 7"
1*
#13000
0*
#13500
1*
#14000
1\
0*
0-
#14500
1*
#15000
0*
#15500
1*
#16000
0*
#16500
1*
#17000
0*
#17500
1*
#18000
0*
#18500
1*
#19000
0*
#19500
1*
#20000
0*
#20500
1*
#21000
0*
#21500
1*
#22000
0*
#22500
1*
#23000
0*
#23500
1*
#24000
0*
b101 )
#24500
1*
#25000
0*
#25500
1*
#26000
0*
#26500
1*
#27000
0*
#27500
1*
#28000
0*
#28500
1*
#29000
0*
#29500
1*
#30000
0*
#30500
1*
#31000
0*
#31500
1*
#32000
0*
#32500
1*
#33000
0*
#33500
1*
#34000
0*
1+
#34500
b1001 8"
1@
1D
1*
#35000
0*
#35500
0@
1!"
b1001 '
b1001 >
b1001 9"
17
08
03
b1001 8"
1E
b1001 7"
1*
#36000
0*
#36500
1*
#37000
0*
#37500
1*
#38000
0*
#38500
1*
#39000
0*
#39500
1*
#40000
0*
#40500
1*
#41000
0*
#41500
1*
#42000
0*
#42500
1*
#43000
0*
#43500
1*
#44000
0*
0+
#44500
0D
1*
#45000
0*
#45500
0E
1*
#46000
0*
#46500
1*
#47000
0*
#47500
1*
#48000
0*
#48500
1*
#49000
0*
#49500
1*
#50000
0*
#50500
1*
#51000
0*
#51500
1*
#52000
0*
#52500
1*
#53000
0*
#53500
1*
#54000
1l
1_
1""
1*"
0*
b1 ,
b1 0
b1 H
#54500
1~
1F
b1 U
1("
1+"
1*
#55000
0*
#55500
0~
0F
b0 U
0("
b10 L
b10 $"
1,"
1*
#56000
0*
#56500
1*
#57000
0*
#57500
1*
#58000
0*
#58500
1*
#59000
0*
#59500
1*
#60000
0*
#60500
1*
#61000
0*
#61500
1*
#62000
0*
#62500
1*
#63000
0*
#63500
1*
#64000
0l
0_
0""
0*"
0*
b0 ,
b0 0
b0 H
#64500
0+"
1*
#65000
0*
#65500
0,"
1*
#66000
0*
#66500
1*
#67000
0*
#67500
1*
#68000
0*
#68500
1*
#69000
0*
#69500
1*
#70000
0*
#70500
1*
#71000
0*
#71500
1*
#72000
0*
#72500
1*
#73000
0*
#73500
1*
#74000
1l
1_
1""
1*"
0*
b1 ,
b1 0
b1 H
#74500
1~
1F
b1 U
1("
1+"
1*
#75000
0*
#75500
0~
0F
b0 U
0("
b11 L
b11 $"
1,"
1*
#76000
0*
#76500
1*
#77000
0*
#77500
1*
#78000
0*
#78500
1*
#79000
0*
#79500
1*
#80000
0*
#80500
1*
#81000
0*
#81500
1*
#82000
0*
#82500
1*
#83000
0*
#83500
1*
#84000
0l
0_
0""
0*"
0*
b0 ,
b0 0
b0 H
#84500
0+"
1*
#85000
0*
#85500
0,"
1*
#86000
0*
#86500
1*
#87000
0*
#87500
1*
#88000
0*
#88500
1*
#89000
0*
#89500
1*
#90000
0*
#90500
1*
#91000
0*
#91500
1*
#92000
0*
#92500
1*
#93000
0*
#93500
1*
#94000
0*
1+
#94500
b1 8"
1@
1D
1*
#95000
0*
#95500
0@
0W
0k
0d
b1 '
b1 >
b1 9"
07
11
12
b11 8"
1E
b1 7"
1*
#96000
0*
#96500
1W
1k
1d
b11 '
b11 >
b11 9"
14
01
1?
02
b11 7"
1*
#97000
0*
#97500
b1 q
b1 u
b1 y
1*
#98000
0*
#98500
b10 q
b10 u
b10 y
1*
#99000
0*
#99500
b11 q
b11 u
b11 y
1*
#100000
0*
#100500
b100 q
b100 u
b100 y
1*
#101000
0*
#101500
b101 q
b101 u
b101 y
1*
#102000
0*
#102500
b110 q
b110 u
b110 y
1*
#103000
0*
#103500
b111 q
b111 u
b111 y
1*
#104000
0*
b1000 )
b0 /
#104500
b1000 q
b1000 u
b1000 y
1*
#105000
0*
#105500
b1001 q
b1001 u
b1001 y
1*
#106000
0*
#106500
b1010 q
b1010 u
b1010 y
1*
#107000
0*
#107500
b1011 q
b1011 u
b1011 y
1*
#108000
0*
#108500
b1100 q
b1100 u
b1100 y
1*
#109000
0*
#109500
b1101 q
b1101 u
b1101 y
1*
#110000
0*
#110500
b1110 q
b1110 u
b1110 y
1*
#111000
0*
#111500
b1111 q
b1111 u
b1111 y
1*
#112000
0*
#112500
b10000 q
b10000 u
b10000 y
1*
#113000
0*
#113500
b10001 q
b10001 u
b10001 y
1*
#114000
0*
#114500
b10010 q
b10010 u
b10010 y
1*
#115000
0*
#115500
b10011 q
b10011 u
b10011 y
1*
#116000
0*
#116500
b10100 q
b10100 u
b10100 y
1*
#117000
0*
#117500
b10101 q
b10101 u
b10101 y
1*
#118000
0*
#118500
b10110 q
b10110 u
b10110 y
1*
#119000
0*
#119500
b10111 q
b10111 u
b10111 y
1*
#120000
0*
#120500
b11000 q
b11000 u
b11000 y
1*
#121000
0*
#121500
b11001 q
b11001 u
b11001 y
1*
#122000
0*
#122500
b11010 q
b11010 u
b11010 y
1*
#123000
0*
#123500
b11011 q
b11011 u
b11011 y
1*
#124000
0*
#124500
b11100 q
b11100 u
b11100 y
1*
#125000
0*
#125500
b11101 q
b11101 u
b11101 y
1*
#126000
0*
#126500
b11110 q
b11110 u
b11110 y
1*
#127000
0*
#127500
b11111 q
b11111 u
b11111 y
1*
#128000
0*
#128500
b100000 q
b100000 u
b100000 y
1*
#129000
0*
#129500
b100001 q
b100001 u
b100001 y
1*
#130000
0*
#130500
b100010 q
b100010 u
b100010 y
1*
#131000
0*
#131500
b100011 q
b100011 u
b100011 y
1*
#132000
0*
#132500
b100100 q
b100100 u
b100100 y
1*
#133000
0*
#133500
b100101 q
b100101 u
b100101 y
1*
#134000
0*
#134500
b100110 q
b100110 u
b100110 y
1*
#135000
0*
#135500
b100111 q
b100111 u
b100111 y
1*
#136000
0*
#136500
b101000 q
b101000 u
b101000 y
1*
#137000
0*
#137500
b101001 q
b101001 u
b101001 y
1*
#138000
0*
#138500
b101010 q
b101010 u
b101010 y
1*
#139000
0*
#139500
b101011 q
b101011 u
b101011 y
1*
#140000
0*
#140500
b101100 q
b101100 u
b101100 y
1*
#141000
0*
#141500
b101101 q
b101101 u
b101101 y
1*
#142000
0*
#142500
b101110 q
b101110 u
b101110 y
1*
#143000
0*
#143500
b101111 q
b101111 u
b101111 y
1*
#144000
0*
#144500
b110000 q
b110000 u
b110000 y
1*
#145000
0*
#145500
b110001 q
b110001 u
b110001 y
1*
#146000
0*
#146500
b110010 q
b110010 u
b110010 y
1*
#147000
0*
#147500
b110011 q
b110011 u
b110011 y
1*
#148000
0*
#148500
b110100 q
b110100 u
b110100 y
1*
#149000
0*
#149500
b110101 q
b110101 u
b110101 y
1*
#150000
0*
#150500
b110110 q
b110110 u
b110110 y
1*
#151000
0*
#151500
b110111 q
b110111 u
b110111 y
1*
#152000
0*
#152500
b111000 q
b111000 u
b111000 y
1*
#153000
0*
#153500
b111001 q
b111001 u
b111001 y
1*
#154000
0*
#154500
b111010 q
b111010 u
b111010 y
1*
#155000
0*
#155500
b111011 q
b111011 u
b111011 y
1*
#156000
0*
#156500
b111100 q
b111100 u
b111100 y
1*
#157000
0*
#157500
b111101 q
b111101 u
b111101 y
1*
#158000
0*
#158500
b111110 q
b111110 u
b111110 y
1*
#159000
0*
#159500
b111111 q
b111111 u
b111111 y
1*
#160000
0*
#160500
b1000000 q
b1000000 u
b1000000 y
1*
#161000
0*
#161500
b1000001 q
b1000001 u
b1000001 y
1*
#162000
0*
#162500
b1000010 q
b1000010 u
b1000010 y
1*
#163000
0*
#163500
b1000011 q
b1000011 u
b1000011 y
1*
#164000
0*
#164500
b1000100 q
b1000100 u
b1000100 y
1*
#165000
0*
#165500
b1000101 q
b1000101 u
b1000101 y
1*
#166000
0*
#166500
b1000110 q
b1000110 u
b1000110 y
1*
#167000
0*
#167500
b1000111 q
b1000111 u
b1000111 y
1*
#168000
0*
#168500
b1001000 q
b1001000 u
b1001000 y
1*
#169000
0*
#169500
b1001001 q
b1001001 u
b1001001 y
1*
#170000
0*
#170500
b1001010 q
b1001010 u
b1001010 y
1*
#171000
0*
#171500
b1001011 q
b1001011 u
b1001011 y
1*
#172000
0*
#172500
b1001100 q
b1001100 u
b1001100 y
1*
#173000
0*
#173500
b1001101 q
b1001101 u
b1001101 y
1*
#174000
0*
#174500
b1001110 q
b1001110 u
b1001110 y
1*
#175000
0*
#175500
b1001111 q
b1001111 u
b1001111 y
1*
#176000
0*
#176500
b1010000 q
b1010000 u
b1010000 y
1*
#177000
0*
#177500
b1010001 q
b1010001 u
b1010001 y
1*
#178000
0*
#178500
b1010010 q
b1010010 u
b1010010 y
1*
#179000
0*
#179500
b1010011 q
b1010011 u
b1010011 y
1*
#180000
0*
#180500
b1010100 q
b1010100 u
b1010100 y
1*
#181000
0*
#181500
b1010101 q
b1010101 u
b1010101 y
1*
#182000
0*
#182500
b1010110 q
b1010110 u
b1010110 y
1*
#183000
0*
#183500
b1010111 q
b1010111 u
b1010111 y
1*
#184000
0*
#184500
b1011000 q
b1011000 u
b1011000 y
1*
#185000
0*
#185500
b1011001 q
b1011001 u
b1011001 y
1*
#186000
0*
#186500
b1011010 q
b1011010 u
b1011010 y
1*
#187000
0*
#187500
b1011011 q
b1011011 u
b1011011 y
1*
#188000
0*
#188500
b1011100 q
b1011100 u
b1011100 y
1*
#189000
0*
#189500
b1011101 q
b1011101 u
b1011101 y
1*
#190000
0*
#190500
b1011110 q
b1011110 u
b1011110 y
1*
#191000
0*
#191500
b1011111 q
b1011111 u
b1011111 y
1*
#192000
0*
#192500
b1100000 q
b1100000 u
b1100000 y
1*
#193000
0*
#193500
b1100001 q
b1100001 u
b1100001 y
1*
#194000
0*
#194500
b1100010 q
b1100010 u
b1100010 y
1*
#195000
0*
#195500
b1100011 q
b1100011 u
b1100011 y
1*
#196000
0*
#196500
b1100100 q
b1100100 u
b1100100 y
1*
#197000
0*
#197500
b1100101 q
b1100101 u
b1100101 y
1*
#198000
0*
#198500
b1100110 q
b1100110 u
b1100110 y
1*
#199000
0*
#199500
b1100111 q
b1100111 u
b1100111 y
1*
#200000
0*
#200500
b1101000 q
b1101000 u
b1101000 y
1*
#201000
0*
#201500
b1101001 q
b1101001 u
b1101001 y
1*
#202000
0*
#202500
b1101010 q
b1101010 u
b1101010 y
1*
#203000
0*
#203500
b1101011 q
b1101011 u
b1101011 y
1*
#204000
0*
#204500
b1101100 q
b1101100 u
b1101100 y
1*
#205000
0*
#205500
b1101101 q
b1101101 u
b1101101 y
1*
#206000
0*
#206500
b1101110 q
b1101110 u
b1101110 y
1*
#207000
0*
#207500
b1101111 q
b1101111 u
b1101111 y
1*
#208000
0*
#208500
b1110000 q
b1110000 u
b1110000 y
1*
#209000
0*
#209500
b1110001 q
b1110001 u
b1110001 y
1*
#210000
0*
#210500
b1110010 q
b1110010 u
b1110010 y
1*
#211000
0*
#211500
b1110011 q
b1110011 u
b1110011 y
1*
#212000
0*
#212500
b1110100 q
b1110100 u
b1110100 y
1*
#213000
0*
#213500
b1110101 q
b1110101 u
b1110101 y
1*
#214000
0*
#214500
b1110110 q
b1110110 u
b1110110 y
1*
#215000
0*
#215500
b1110111 q
b1110111 u
b1110111 y
1*
#216000
0*
#216500
b1111000 q
b1111000 u
b1111000 y
1*
#217000
0*
#217500
b1111001 q
b1111001 u
b1111001 y
1*
#218000
0*
#218500
b1111010 q
b1111010 u
b1111010 y
1*
#219000
0*
#219500
b1111011 q
b1111011 u
b1111011 y
1*
#220000
0*
#220500
b1111100 q
b1111100 u
b1111100 y
1*
#221000
0*
#221500
b1111101 q
b1111101 u
b1111101 y
1*
#222000
0*
#222500
b1111110 q
b1111110 u
b1111110 y
1*
#223000
0*
#223500
b1111111 q
b1111111 u
b1111111 y
1*
#224000
0*
#224500
b10000000 q
b10000000 u
b10000000 y
1*
#225000
0*
#225500
b10000001 q
b10000001 u
b10000001 y
1*
#226000
0*
#226500
b10000010 q
b10000010 u
b10000010 y
1*
#227000
0*
#227500
b10000011 q
b10000011 u
b10000011 y
1*
#228000
0*
#228500
b10000100 q
b10000100 u
b10000100 y
1*
#229000
0*
#229500
b10000101 q
b10000101 u
b10000101 y
1*
#230000
0*
#230500
b10000110 q
b10000110 u
b10000110 y
1*
#231000
0*
#231500
b10000111 q
b10000111 u
b10000111 y
1*
#232000
0*
#232500
b10001000 q
b10001000 u
b10001000 y
1*
#233000
0*
#233500
b10001001 q
b10001001 u
b10001001 y
1*
#234000
0*
#234500
b10001010 q
b10001010 u
b10001010 y
1*
#235000
0*
#235500
b10001011 q
b10001011 u
b10001011 y
1*
#236000
0*
#236500
b10001100 q
b10001100 u
b10001100 y
1*
#237000
0*
#237500
b10001101 q
b10001101 u
b10001101 y
1*
#238000
0*
#238500
b10001110 q
b10001110 u
b10001110 y
1*
#239000
0*
#239500
b10001111 q
b10001111 u
b10001111 y
1*
#240000
0*
#240500
b10010000 q
b10010000 u
b10010000 y
1*
#241000
0*
#241500
b10010001 q
b10010001 u
b10010001 y
1*
#242000
0*
#242500
b10010010 q
b10010010 u
b10010010 y
1*
#243000
0*
#243500
b10010011 q
b10010011 u
b10010011 y
1*
#244000
0*
#244500
b10010100 q
b10010100 u
b10010100 y
1*
#245000
0*
#245500
b10010101 q
b10010101 u
b10010101 y
1*
#246000
0*
#246500
b10010110 q
b10010110 u
b10010110 y
1*
#247000
0*
#247500
b10010111 q
b10010111 u
b10010111 y
1*
#248000
0*
#248500
b10011000 q
b10011000 u
b10011000 y
1*
#249000
0*
#249500
b10011001 q
b10011001 u
b10011001 y
1*
#250000
0*
#250500
b10011010 q
b10011010 u
b10011010 y
1*
#251000
0*
#251500
b10011011 q
b10011011 u
b10011011 y
1*
#252000
0*
#252500
b10011100 q
b10011100 u
b10011100 y
1*
#253000
0*
#253500
b10011101 q
b10011101 u
b10011101 y
1*
#254000
0*
#254500
b10011110 q
b10011110 u
b10011110 y
1*
#255000
0*
#255500
b10011111 q
b10011111 u
b10011111 y
1*
#256000
0*
#256500
b10100000 q
b10100000 u
b10100000 y
1*
#257000
0*
#257500
b10100001 q
b10100001 u
b10100001 y
1*
#258000
0*
#258500
b10100010 q
b10100010 u
b10100010 y
1*
#259000
0*
#259500
b10100011 q
b10100011 u
b10100011 y
1*
#260000
0*
#260500
b10100100 q
b10100100 u
b10100100 y
1*
#261000
0*
#261500
b10100101 q
b10100101 u
b10100101 y
1*
#262000
0*
#262500
b10100110 q
b10100110 u
b10100110 y
1*
#263000
0*
#263500
b10100111 q
b10100111 u
b10100111 y
1*
#264000
0*
#264500
b10101000 q
b10101000 u
b10101000 y
1*
#265000
0*
#265500
b10101001 q
b10101001 u
b10101001 y
1*
#266000
0*
#266500
b10101010 q
b10101010 u
b10101010 y
1*
#267000
0*
#267500
b10101011 q
b10101011 u
b10101011 y
1*
#268000
0*
#268500
b10101100 q
b10101100 u
b10101100 y
1*
#269000
0*
#269500
b10101101 q
b10101101 u
b10101101 y
1*
#270000
0*
#270500
b10101110 q
b10101110 u
b10101110 y
1*
#271000
0*
#271500
b10101111 q
b10101111 u
b10101111 y
1*
#272000
0*
#272500
b10110000 q
b10110000 u
b10110000 y
1*
#273000
0*
#273500
b10110001 q
b10110001 u
b10110001 y
1*
#274000
0*
#274500
b10110010 q
b10110010 u
b10110010 y
1*
#275000
0*
#275500
b10110011 q
b10110011 u
b10110011 y
1*
#276000
0*
#276500
b10110100 q
b10110100 u
b10110100 y
1*
#277000
0*
#277500
b10110101 q
b10110101 u
b10110101 y
1*
#278000
0*
#278500
b10110110 q
b10110110 u
b10110110 y
1*
#279000
0*
#279500
b10110111 q
b10110111 u
b10110111 y
1*
#280000
0*
#280500
b10111000 q
b10111000 u
b10111000 y
1*
#281000
0*
#281500
b10111001 q
b10111001 u
b10111001 y
1*
#282000
0*
#282500
b10111010 q
b10111010 u
b10111010 y
1*
#283000
0*
#283500
b10111011 q
b10111011 u
b10111011 y
1*
#284000
0*
#284500
b10111100 q
b10111100 u
b10111100 y
1*
#285000
0*
#285500
b10111101 q
b10111101 u
b10111101 y
1*
#286000
0*
#286500
b10111110 q
b10111110 u
b10111110 y
1*
#287000
0*
#287500
b10111111 q
b10111111 u
b10111111 y
1*
#288000
0*
#288500
b11000000 q
b11000000 u
b11000000 y
1*
#289000
0*
#289500
b11000001 q
b11000001 u
b11000001 y
1*
#290000
0*
#290500
b11000010 q
b11000010 u
b11000010 y
1*
#291000
0*
#291500
b11000011 q
b11000011 u
b11000011 y
1*
#292000
0*
#292500
b11000100 q
b11000100 u
b11000100 y
1*
#293000
0*
#293500
b11000101 q
b11000101 u
b11000101 y
1*
#294000
0*
#294500
b11000110 q
b11000110 u
b11000110 y
1*
#295000
0*
#295500
b11000111 q
b11000111 u
b11000111 y
1*
#296000
0*
#296500
b11001000 q
b11001000 u
b11001000 y
1*
#297000
0*
#297500
b11001001 q
b11001001 u
b11001001 y
1*
#298000
0*
#298500
b11001010 q
b11001010 u
b11001010 y
1*
#299000
0*
#299500
b11001011 q
b11001011 u
b11001011 y
1*
#300000
0*
#300500
b11001100 q
b11001100 u
b11001100 y
1*
#301000
0*
#301500
b11001101 q
b11001101 u
b11001101 y
1*
#302000
0*
#302500
b11001110 q
b11001110 u
b11001110 y
1*
#303000
0*
#303500
b11001111 q
b11001111 u
b11001111 y
1*
#304000
0*
#304500
b11010000 q
b11010000 u
b11010000 y
1*
#305000
0*
#305500
b11010001 q
b11010001 u
b11010001 y
1*
#306000
0*
#306500
b11010010 q
b11010010 u
b11010010 y
1*
#307000
0*
#307500
b11010011 q
b11010011 u
b11010011 y
1*
#308000
0*
#308500
b11010100 q
b11010100 u
b11010100 y
1*
#309000
0*
#309500
b11010101 q
b11010101 u
b11010101 y
1*
#310000
0*
#310500
b11010110 q
b11010110 u
b11010110 y
1*
#311000
0*
#311500
b11010111 q
b11010111 u
b11010111 y
1*
#312000
0*
#312500
b11011000 q
b11011000 u
b11011000 y
1*
#313000
0*
#313500
b11011001 q
b11011001 u
b11011001 y
1*
#314000
0*
#314500
b11011010 q
b11011010 u
b11011010 y
1*
#315000
0*
#315500
b11011011 q
b11011011 u
b11011011 y
1*
#316000
0*
#316500
b11011100 q
b11011100 u
b11011100 y
1*
#317000
0*
#317500
b11011101 q
b11011101 u
b11011101 y
1*
#318000
0*
#318500
b11011110 q
b11011110 u
b11011110 y
1*
#319000
0*
#319500
b11011111 q
b11011111 u
b11011111 y
1*
#320000
0*
#320500
b11100000 q
b11100000 u
b11100000 y
1*
#321000
0*
#321500
b11100001 q
b11100001 u
b11100001 y
1*
#322000
0*
#322500
b11100010 q
b11100010 u
b11100010 y
1*
#323000
0*
#323500
b11100011 q
b11100011 u
b11100011 y
1*
#324000
0*
#324500
b11100100 q
b11100100 u
b11100100 y
1*
#325000
0*
#325500
b11100101 q
b11100101 u
b11100101 y
1*
#326000
0*
#326500
b11100110 q
b11100110 u
b11100110 y
1*
#327000
0*
#327500
b11100111 q
b11100111 u
b11100111 y
1*
#328000
0*
#328500
b11101000 q
b11101000 u
b11101000 y
1*
#329000
0*
#329500
b11101001 q
b11101001 u
b11101001 y
1*
#330000
0*
#330500
b11101010 q
b11101010 u
b11101010 y
1*
#331000
0*
#331500
b11101011 q
b11101011 u
b11101011 y
1*
#332000
0*
#332500
b11101100 q
b11101100 u
b11101100 y
1*
#333000
0*
#333500
b11101101 q
b11101101 u
b11101101 y
1*
#334000
0*
#334500
b11101110 q
b11101110 u
b11101110 y
1*
#335000
0*
#335500
b11101111 q
b11101111 u
b11101111 y
1*
#336000
0*
#336500
b11110000 q
b11110000 u
b11110000 y
1*
#337000
0*
#337500
b11110001 q
b11110001 u
b11110001 y
1*
#338000
0*
#338500
b11110010 q
b11110010 u
b11110010 y
1*
#339000
0*
#339500
b11110011 q
b11110011 u
b11110011 y
1*
#340000
0*
#340500
b11110100 q
b11110100 u
b11110100 y
1*
#341000
0*
#341500
b11110101 q
b11110101 u
b11110101 y
1*
#342000
0*
#342500
b11110110 q
b11110110 u
b11110110 y
1*
#343000
0*
#343500
b11110111 q
b11110111 u
b11110111 y
1*
#344000
0*
#344500
b11111000 q
b11111000 u
b11111000 y
1*
#345000
0*
#345500
1s
b11111001 q
b11111001 u
b11111001 y
1*
#346000
0*
#346500
0s
b11111010 q
b11111010 u
b11111010 y
1*
#347000
0*
#347500
b11111011 q
b11111011 u
b11111011 y
1*
#348000
0*
#348500
b11111100 q
b11111100 u
b11111100 y
1*
#349000
0*
#349500
b11111101 q
b11111101 u
b11111101 y
1*
#350000
0*
#350500
b11111110 q
b11111110 u
b11111110 y
1*
#351000
0*
#351500
b11111111 q
b11111111 u
b11111111 y
1*
#352000
0*
#352500
b100000000 q
b100000000 u
b100000000 y
1*
#353000
0*
#353500
b100000001 q
b100000001 u
b100000001 y
1*
#354000
0*
#354500
b100000010 q
b100000010 u
b100000010 y
1*
#355000
0*
#355500
b100000011 q
b100000011 u
b100000011 y
1*
#356000
0*
#356500
b100000100 q
b100000100 u
b100000100 y
1*
