experiencia-7/testbench.vcd
$date
	Thu Feb 22 16:32:41 2024
$end
$version
	Icarus Verilog
$end
$timescale
	1ns
$end
$scope module circuito_exp6_tb_certo $end
$var wire 1 ! pronto_out $end
$var wire 1 " perdeu_out $end
$var wire 4 # leds_out [3:0] $end
$var wire 1 $ ganhou_out $end
$var wire 1 % db_timeout_out $end
$var wire 1 & db_tem_jogada_out $end
$var wire 7 ' db_rodada_out [6:0] $end
$var wire 7 ( db_memoria_out [6:0] $end
$var wire 7 ) db_jogadafeita_out [6:0] $end
$var wire 1 * db_jogada_correta_out $end
$var wire 7 + db_estado_out [6:0] $end
$var wire 1 , db_enderecoIgualRodada_out $end
$var wire 7 - db_contagem_out [6:0] $end
$var wire 1 . db_clock_out $end
$var wire 13 / db_Q_out [12:0] $end
$var reg 32 0 caso [31:0] $end
$var reg 4 1 chaves_in [3:0] $end
$var reg 1 2 clock_in $end
$var reg 1 3 iniciar_in $end
$var reg 1 4 reset_in $end
$scope module dut $end
$var wire 4 5 chaves [3:0] $end
$var wire 1 2 clock $end
$var wire 1 . db_clock $end
$var wire 1 , db_enderecoIgualRodada $end
$var wire 1 6 db_grava $end
$var wire 1 * db_jogada_correta $end
$var wire 1 % db_timeout $end
$var wire 1 3 iniciar $end
$var wire 1 4 reset $end
$var wire 1 7 zeraTI $end
$var wire 1 8 zeraT $end
$var wire 1 9 zeraR $end
$var wire 1 : zeraCR $end
$var wire 1 ; zeraCE $end
$var wire 1 < timeout_jogada_inicial $end
$var wire 1 = timeout $end
$var wire 1 > registraR $end
$var wire 1 ! pronto $end
$var wire 1 " perdeu $end
$var wire 4 ? leds [3:0] $end
$var wire 1 @ jogada_correta $end
$var wire 1 A jogada $end
$var wire 1 B grava $end
$var wire 1 $ ganhou $end
$var wire 1 C fimCR $end
$var wire 1 D fimCE $end
$var wire 1 E exibe_jogada_inicial $end
$var wire 1 F enderecoIgualRodada $end
$var wire 1 & db_tem_jogada $end
$var wire 4 G db_rodada_hex [3:0] $end
$var wire 7 H db_rodada [6:0] $end
$var wire 4 I db_memoria_hex [3:0] $end
$var wire 7 J db_memoria [6:0] $end
$var wire 7 K db_jogadafeita [6:0] $end
$var wire 4 L db_jogada_hex [3:0] $end
$var wire 4 M db_estado_hex [3:0] $end
$var wire 7 N db_estado [6:0] $end
$var wire 4 O db_contagem_hex [3:0] $end
$var wire 7 P db_contagem [6:0] $end
$var wire 13 Q db_Q [12:0] $end
$var wire 1 R contaTI $end
$var wire 1 S contaT $end
$var wire 1 T contaCR $end
$var wire 1 U contaCE $end
$scope module fd $end
$var wire 4 V chaves [3:0] $end
$var wire 1 2 clock $end
$var wire 4 W db_contagem [3:0] $end
$var wire 4 X db_jogada [3:0] $end
$var wire 4 Y db_memoria [3:0] $end
$var wire 4 Z db_rodada [3:0] $end
$var wire 1 D fimCE $end
$var wire 1 [ zera_timeout $end
$var wire 1 7 zeraTI $end
$var wire 1 8 zeraT $end
$var wire 1 9 zeraR $end
$var wire 1 : zeraCR $end
$var wire 1 ; zeraCE $end
$var wire 1 < timeout_jogada_inicial $end
$var wire 1 = timeout $end
$var wire 4 \ s_rodada [3:0] $end
$var wire 4 ] s_jogada [3:0] $end
$var wire 4 ^ s_endereco_ram [3:0] $end
$var wire 4 _ s_endereco [3:0] $end
$var wire 4 ` s_dado [3:0] $end
$var wire 1 > registraR $end
$var wire 4 a leds [3:0] $end
$var wire 1 A jogada_feita $end
$var wire 1 @ jogada_correta $end
$var wire 1 B grava $end
$var wire 1 b fim_rodada $end
$var wire 1 C fimCR $end
$var wire 1 F enderecoIgualRodada $end
$var wire 1 & db_tem_jogada $end
$var wire 1 R contaTI $end
$var wire 1 S contaT $end
$var wire 1 T contaCR $end
$var wire 1 U contaCE $end
$var wire 13 c Q [12:0] $end
$scope module RAM $end
$var wire 4 d addr [3:0] $end
$var wire 1 2 clk $end
$var wire 4 e data [3:0] $end
$var wire 4 f q [3:0] $end
$var wire 1 B we $end
$var reg 4 g addr_reg [3:0] $end
$scope begin INICIA_RAM $end
$upscope $end
$upscope $end
$scope module comparador_endereco $end
$var wire 1 h AEBi $end
$var wire 1 F AEBo $end
$var wire 1 i AGBi $end
$var wire 1 j AGBo $end
$var wire 1 k ALBi $end
$var wire 1 l ALBo $end
$var wire 5 m CSL [4:0] $end
$var wire 5 n CSG [4:0] $end
$var wire 4 o B [3:0] $end
$var wire 4 p A [3:0] $end
$upscope $end
$scope module comparador_jogada $end
$var wire 4 q A [3:0] $end
$var wire 1 r AEBi $end
$var wire 1 @ AEBo $end
$var wire 1 s AGBi $end
$var wire 1 t AGBo $end
$var wire 1 u ALBi $end
$var wire 1 v ALBo $end
$var wire 5 w CSL [4:0] $end
$var wire 5 x CSG [4:0] $end
$var wire 4 y B [3:0] $end
$upscope $end
$scope module contador_endereco $end
$var wire 4 z D [3:0] $end
$var wire 1 2 clock $end
$var wire 1 { clr $end
$var wire 1 | ent $end
$var wire 1 } ld $end
$var wire 1 U enp $end
$var reg 4 ~ Q [3:0] $end
$var reg 1 b rco $end
$upscope $end
$scope module contador_rodada $end
$var wire 4 !" D [3:0] $end
$var wire 1 2 clock $end
$var wire 1 "" clr $end
$var wire 1 #" ent $end
$var wire 1 $" ld $end
$var wire 1 T enp $end
$var reg 4 %" Q [3:0] $end
$var reg 1 C rco $end
$upscope $end
$scope module contador_tempo_display_jogada_inicial $end
$var wire 1 2 clock $end
$var wire 1 &" zera_as $end
$var wire 1 7 zera_s $end
$var wire 1 R conta $end
$var reg 13 '" Q [12:0] $end
$var reg 1 < fim $end
$var reg 1 (" meio $end
$upscope $end
$scope module contador_timeout $end
$var wire 1 2 clock $end
$var wire 1 )" zera_as $end
$var wire 1 8 zera_s $end
$var wire 1 S conta $end
$var reg 13 *" Q [12:0] $end
$var reg 1 = fim $end
$var reg 1 +" meio $end
$upscope $end
$scope module edge_detect $end
$var wire 1 2 clock $end
$var wire 1 A pulso $end
$var wire 1 ," reset $end
$var wire 1 & sinal $end
$var reg 1 -" reg0 $end
$var reg 1 ." reg1 $end
$upscope $end
$scope module registrador $end
$var wire 4 /" D [3:0] $end
$var wire 4 0" Q [3:0] $end
$var wire 1 2 clock $end
$var wire 1 > enable $end
$var wire 1 9 clear $end
$var reg 4 1" IQ [3:0] $end
$upscope $end
$upscope $end
$scope module hexa7seg_CHAVES $end
$var wire 4 2" hexa [3:0] $end
$var reg 7 3" display [6:0] $end
$upscope $end
$scope module hexa7seg_CONT $end
$var wire 4 4" hexa [3:0] $end
$var reg 7 5" display [6:0] $end
$upscope $end
$scope module hexa7seg_EST $end
$var wire 4 6" hexa [3:0] $end
$var reg 7 7" display [6:0] $end
$upscope $end
$scope module hexa7seg_MEM $end
$var wire 4 8" hexa [3:0] $end
$var reg 7 9" display [6:0] $end
$upscope $end
$scope module hexa7seg_ROD $end
$var wire 4 :" hexa [3:0] $end
$var reg 7 ;" display [6:0] $end
$upscope $end
$scope module uc $end
$var wire 1 2 clock $end
$var wire 1 F enderecoIgualRodada $end
$var wire 1 D fimCE $end
$var wire 1 C fimCR $end
$var wire 1 3 iniciar $end
$var wire 1 A jogada $end
$var wire 1 @ jogada_correta $end
$var wire 1 4 reset $end
$var wire 1 = timeout $end
$var wire 1 < timeout_jogada_inicial $end
$var reg 4 <" Eatual [3:0] $end
$var reg 4 =" Eprox [3:0] $end
$var reg 1 $ acertou $end
$var reg 1 U contaCE $end
$var reg 1 T contaCR $end
$var reg 1 S contaT $end
$var reg 1 R contaTI $end
$var reg 4 >" db_estado [3:0] $end
$var reg 1 " errou $end
$var reg 1 E exibe_jogada_inicial $end
$var reg 1 B gravaRAM $end
$var reg 1 ! pronto $end
$var reg 1 > registraR $end
$var reg 1 ; zeraCE $end
$var reg 1 : zeraCR $end
$var reg 1 9 zeraR $end
$var reg 1 8 zeraT $end
$var reg 1 7 zeraTI $end
$upscope $end
$upscope $end
$upscope $end
$enddefinitions $end
#0
$dumpvars
bx >"
b0 ="
bx <"
bx ;"
bx :"
bx 9"
bx 8"
bx 7"
bx 6"
bx 5"
bx 4"
bx 3"
bx 2"
bx 1"
bx 0"
b0 /"
x."
0-"
0,"
x+"
bx *"
0)"
x("
bx '"
0&"
bx %"
1$"
1#"
x""
b0 !"
bx ~
1}
1|
x{
b0 z
bx y
bx x
bx w
xv
0u
xt
0s
1r
bx q
bx p
bx o
bx n
bx m
xl
0k
xj
0i
1h
bx g
bx f
b0 e
bx d
bx c
0b
bx a
bx `
bx _
bx ^
bx ]
bx \
x[
bx Z
bx Y
bx X
bx W
b0 V
xU
xT
xS
xR
bx Q
bx P
bx O
bx N
bx M
bx L
bx K
bx J
bx I
bx H
bx G
xF
xE
0D
0C
xB
0A
x@
bx ?
x>
x=
x<
x;
x:
x9
x8
x7
x6
b0 5
04
03
12
b0 1
b0 0
bx /
1.
bx -
x,
bx +
x*
bx )
bx (
bx '
0&
x%
x$
bx #
x"
x!
$end
#500
0.
02
#1000
b1000000 )
b1000000 K
b1000000 3"
b0 L
b0 X
b0 2"
b0 ]
b0 y
b0 0"
b0 1"
b1000000 +
b1000000 N
b1000000 7"
b0 #
b0 ?
b0 a
1[
0""
0{
b0 M
b0 6"
b0 >"
06
0B
0$
0"
0!
17
0R
18
0S
0>
19
0T
1:
0U
1;
0."
b0 <"
1.
12
b1 0
#1500
14
0.
02
#2000
0j
0l
1,
1F
b11111 n
b0 ^
b0 d
b1000000 -
b1000000 P
b1000000 5"
b11111 m
b1000000 '
b1000000 H
b1000000 ;"
0("
0<
0+"
0%
0=
b0 O
b0 W
b0 4"
b0 _
b0 o
b0 ~
b0 G
b0 Z
b0 :"
b0 \
b0 p
b0 %"
b0 '"
b0 /
b0 Q
b0 c
b0 *"
1.
12
#2500
0.
02
04
#3000
0v
1t
b11110 w
0*
0@
b1111001 (
b1111001 J
b1111001 9"
b0 x
b1 I
b1 Y
b1 8"
b1 `
b1 f
b1 q
b0 g
1.
12
#3500
0.
02
#4000
1.
12
#4500
0.
02
#5000
1.
12
#5500
0.
02
#6000
1.
12
#6500
0.
02
#7000
1.
12
#7500
b11 ="
0.
02
13
b10 0
#8000
b110000 +
b110000 N
b110000 7"
b1 #
b1 ?
b1 a
b11 M
b11 6"
b11 >"
07
1R
b11 <"
1.
12
#8500
0.
02
#9000
b1 '"
1.
12
#9500
0.
02
#10000
b10 '"
1.
12
#10500
0.
02
#11000
b11 '"
1.
12
#11500
0.
02
#12000
b100 '"
1.
12
#12500
0.
02
03
#13000
b101 '"
1.
12
#13500
0.
02
#14000
b110 '"
1.
12
#14500
0.
02
#15000
b111 '"
1.
12
#15500
0.
02
#16000
b1000 '"
1.
12
#16500
0.
02
#17000
b1001 '"
1.
12
#17500
1&
b1 1
b1 5
b1 V
b1 e
b1 /"
0.
02
b11 0
#18000
1A
b1010 '"
1-"
1.
12
#18500
0.
02
#19000
0A
b1011 '"
1."
1.
12
#19500
0.
02
#20000
b1100 '"
1.
12
#20500
0.
02
#21000
b1101 '"
1.
12
#21500
0.
02
#22000
b1110 '"
1.
12
#22500
0.
02
#23000
b1111 '"
1.
12
#23500
0.
02
#24000
b10000 '"
1.
12
#24500
0.
02
#25000
b10001 '"
1.
12
#25500
0.
02
#26000
b10010 '"
1.
12
#26500
0.
02
#27000
b10011 '"
1.
12
#27500
0.
02
0&
b0 1
b0 5
b0 V
b0 e
b0 /"
#28000
b10100 '"
0-"
1.
12
#28500
0.
02
#29000
b10101 '"
0."
1.
12
#29500
0.
02
#30000
b10110 '"
1.
12
#30500
0.
02
#31000
b10111 '"
1.
12
#31500
0.
02
#32000
b11000 '"
1.
12
#32500
0.
02
#33000
b11001 '"
1.
12
#33500
0.
02
#34000
b11010 '"
1.
12
#34500
0.
02
#35000
b11011 '"
1.
12
#35500
0.
02
#36000
b11100 '"
1.
12
#36500
0.
02
#37000
b11101 '"
1.
12
#37500
1&
b1 1
b1 5
b1 V
b1 e
b1 /"
0.
02
b100 0
#38000
1A
b11110 '"
1-"
1.
12
#38500
0.
02
#39000
0A
b11111 '"
1."
1.
12
#39500
0.
02
#40000
b100000 '"
1.
12
#40500
0.
02
#41000
b100001 '"
1.
12
#41500
0.
02
#42000
b100010 '"
1.
12
#42500
0.
02
#43000
b100011 '"
1.
12
#43500
0.
02
#44000
b100100 '"
1.
12
#44500
0.
02
#45000
b100101 '"
1.
12
#45500
0.
02
#46000
b100110 '"
1.
12
#46500
0.
02
#47000
b100111 '"
1.
12
#47500
0.
02
0&
b0 1
b0 5
b0 V
b0 e
b0 /"
#48000
b101000 '"
0-"
1.
12
#48500
0.
02
#49000
b101001 '"
0."
1.
12
#49500
0.
02
#50000
b101010 '"
1.
12
#50500
0.
02
#51000
b101011 '"
1.
12
#51500
0.
02
#52000
b101100 '"
1.
12
#52500
0.
02
#53000
b101101 '"
1.
12
#53500
0.
02
#54000
b101110 '"
1.
12
#54500
0.
02
#55000
b101111 '"
1.
12
#55500
0.
02
#56000
b110000 '"
1.
12
#56500
0.
02
#57000
b110001 '"
1.
12
#57500
1&
b10 1
b10 5
b10 V
b10 e
b10 /"
0.
02
b101 0
#58000
1A
b110010 '"
1-"
1.
12
#58500
0.
02
#59000
0A
b110011 '"
1."
1.
12
#59500
0.
02
#60000
b110100 '"
1.
12
#60500
0.
02
#61000
b110101 '"
1.
12
#61500
0.
02
#62000
b110110 '"
1.
12
#62500
0.
02
#63000
b110111 '"
1.
12
#63500
0.
02
#64000
b111000 '"
1.
12
#64500
0.
02
#65000
b111001 '"
1.
12
#65500
0.
02
#66000
b111010 '"
1.
12
#66500
0.
02
#67000
b111011 '"
1.
12
#67500
0.
02
0&
b0 1
b0 5
b0 V
b0 e
b0 /"
#68000
b111100 '"
0-"
1.
12
#68500
0.
02
#69000
b111101 '"
0."
1.
12
#69500
0.
02
#70000
b111110 '"
1.
12
#70500
0.
02
#71000
b111111 '"
1.
12
#71500
0.
02
#72000
b1000000 '"
1.
12
#72500
0.
02
#73000
b1000001 '"
1.
12
#73500
0.
02
#74000
b1000010 '"
1.
12
#74500
0.
02
#75000
b1000011 '"
1.
12
#75500
0.
02
#76000
b1000100 '"
1.
12
#76500
0.
02
#77000
b1000101 '"
1.
12
#77500
1&
b1 1
b1 5
b1 V
b1 e
b1 /"
0.
02
b110 0
#78000
1A
b1000110 '"
1-"
1.
12
#78500
0.
02
#79000
0A
b1000111 '"
1."
1.
12
#79500
0.
02
#80000
b1001000 '"
1.
12
#80500
0.
02
#81000
b1001001 '"
1.
12
#81500
0.
02
#82000
b1001010 '"
1.
12
#82500
0.
02
#83000
b1001011 '"
1.
12
#83500
0.
02
#84000
b1001100 '"
1.
12
#84500
0.
02
#85000
b1001101 '"
1.
12
#85500
0.
02
#86000
b1001110 '"
1.
12
#86500
0.
02
#87000
b1001111 '"
1.
12
#87500
0.
02
0&
b0 1
b0 5
b0 V
b0 e
b0 /"
#88000
b1010000 '"
0-"
1.
12
#88500
0.
02
#89000
b1010001 '"
0."
1.
12
#89500
0.
02
#90000
b1010010 '"
1.
12
#90500
0.
02
#91000
b1010011 '"
1.
12
#91500
0.
02
#92000
b1010100 '"
1.
12
#92500
0.
02
#93000
b1010101 '"
1.
12
#93500
0.
02
#94000
b1010110 '"
1.
12
#94500
0.
02
#95000
b1010111 '"
1.
12
#95500
0.
02
#96000
b1011000 '"
1.
12
#96500
0.
02
#97000
b1011001 '"
1.
12
#97500
1&
b10 1
b10 5
b10 V
b10 e
b10 /"
0.
02
b111 0
#98000
1A
b1011010 '"
1-"
1.
12
#98500
0.
02
#99000
0A
b1011011 '"
1."
1.
12
#99500
0.
02
#100000
b1011100 '"
1.
12
#100500
0.
02
#101000
b1011101 '"
1.
12
#101500
0.
02
#102000
b1011110 '"
1.
12
#102500
0.
02
#103000
b1011111 '"
1.
12
#103500
0.
02
#104000
b1100000 '"
1.
12
#104500
0.
02
#105000
b1100001 '"
1.
12
#105500
0.
02
#106000
b1100010 '"
1.
12
#106500
0.
02
#107000
b1100011 '"
1.
12
#107500
0.
02
0&
b0 1
b0 5
b0 V
b0 e
b0 /"
#108000
b1100100 '"
0-"
1.
12
#108500
0.
02
#109000
b1100101 '"
0."
1.
12
#109500
0.
02
#110000
b1100110 '"
1.
12
#110500
0.
02
#111000
b1100111 '"
1.
12
#111500
0.
02
#112000
b1101000 '"
1.
12
#112500
0.
02
#113000
b1101001 '"
1.
12
#113500
0.
02
#114000
b1101010 '"
1.
12
#114500
0.
02
#115000
b1101011 '"
1.
12
#115500
0.
02
#116000
b1101100 '"
1.
12
#116500
0.
02
#117000
b1101101 '"
1.
12
#117500
1&
b100 1
b100 5
b100 V
b100 e
b100 /"
0.
02
b1000 0
#118000
1A
b1101110 '"
1-"
1.
12
#118500
0.
02
#119000
0A
b1101111 '"
1."
1.
12
#119500
0.
02
#120000
b1110000 '"
1.
12
#120500
0.
02
#121000
b1110001 '"
1.
12
#121500
0.
02
#122000
b1110010 '"
1.
12
#122500
0.
02
#123000
b1110011 '"
1.
12
#123500
0.
02
#124000
b1110100 '"
1.
12
#124500
0.
02
#125000
b1110101 '"
1.
12
#125500
0.
02
#126000
b1110110 '"
1.
12
#126500
0.
02
#127000
b1110111 '"
1.
12
#127500
0.
02
0&
b0 1
b0 5
b0 V
b0 e
b0 /"
#128000
b1111000 '"
0-"
1.
12
#128500
0.
02
#129000
b1111001 '"
0."
1.
12
#129500
0.
02
#130000
b1111010 '"
1.
12
#130500
0.
02
#131000
b1111011 '"
1.
12
#131500
0.
02
#132000
b1111100 '"
1.
12
#132500
0.
02
#133000
b1111101 '"
1.
12
#133500
0.
02
#134000
b1111110 '"
1.
12
#134500
0.
02
#135000
b1111111 '"
1.
12
#135500
0.
02
#136000
b10000000 '"
1.
12
#136500
0.
02
#137000
b10000001 '"
1.
12
#137500
1&
b1 1
b1 5
b1 V
b1 e
b1 /"
0.
02
b1001 0
#138000
1A
b10000010 '"
1-"
1.
12
#138500
0.
02
#139000
0A
b10000011 '"
1."
1.
12
#139500
0.
02
#140000
b10000100 '"
1.
12
#140500
0.
02
#141000
b10000101 '"
1.
12
#141500
0.
02
#142000
b10000110 '"
1.
12
#142500
0.
02
#143000
b10000111 '"
1.
12
#143500
0.
02
#144000
b10001000 '"
1.
12
#144500
0.
02
#145000
b10001001 '"
1.
12
#145500
0.
02
#146000
b10001010 '"
1.
12
#146500
0.
02
#147000
b10001011 '"
1.
12
#147500
0.
02
0&
b0 1
b0 5
b0 V
b0 e
b0 /"
#148000
b10001100 '"
0-"
1.
12
#148500
0.
02
#149000
b10001101 '"
0."
1.
12
#149500
0.
02
#150000
b10001110 '"
1.
12
#150500
0.
02
#151000
b10001111 '"
1.
12
#151500
0.
02
#152000
b10010000 '"
1.
12
#152500
0.
02
#153000
b10010001 '"
1.
12
#153500
0.
02
#154000
b10010010 '"
1.
12
#154500
0.
02
#155000
b10010011 '"
1.
12
#155500
0.
02
#156000
b10010100 '"
1.
12
#156500
0.
02
#157000
b10010101 '"
1.
12
#157500
1&
b10 1
b10 5
b10 V
b10 e
b10 /"
0.
02
b1010 0
#158000
1A
b10010110 '"
1-"
1.
12
#158500
0.
02
#159000
0A
b10010111 '"
1."
1.
12
#159500
0.
02
#160000
b10011000 '"
1.
12
#160500
0.
02
#161000
b10011001 '"
1.
12
#161500
0.
02
#162000
b10011010 '"
1.
12
#162500
0.
02
#163000
b10011011 '"
1.
12
#163500
0.
02
#164000
b10011100 '"
1.
12
#164500
0.
02
#165000
b10011101 '"
1.
12
#165500
0.
02
#166000
b10011110 '"
1.
12
#166500
0.
02
#167000
b10011111 '"
1.
12
#167500
0.
02
0&
b0 1
b0 5
b0 V
b0 e
b0 /"
#168000
b10100000 '"
0-"
1.
12
#168500
0.
02
#169000
b10100001 '"
0."
1.
12
#169500
0.
02
#170000
b10100010 '"
1.
12
#170500
0.
02
#171000
b10100011 '"
1.
12
#171500
0.
02
#172000
b10100100 '"
1.
12
#172500
0.
02
#173000
b10100101 '"
1.
12
#173500
0.
02
#174000
b10100110 '"
1.
12
#174500
0.
02
#175000
b10100111 '"
1.
12
#175500
0.
02
#176000
b10101000 '"
1.
12
#176500
0.
02
#177000
b10101001 '"
1.
12
#177500
1&
b100 1
b100 5
b100 V
b100 e
b100 /"
0.
02
b1011 0
#178000
1A
b10101010 '"
1-"
1.
12
#178500
0.
02
#179000
0A
b10101011 '"
1."
1.
12
#179500
0.
02
#180000
b10101100 '"
1.
12
#180500
0.
02
#181000
b10101101 '"
1.
12
#181500
0.
02
#182000
b10101110 '"
1.
12
#182500
0.
02
#183000
b10101111 '"
1.
12
#183500
0.
02
#184000
b10110000 '"
1.
12
#184500
0.
02
#185000
b10110001 '"
1.
12
#185500
0.
02
#186000
b10110010 '"
1.
12
#186500
0.
02
#187000
b10110011 '"
1.
12
#187500
0.
02
0&
b0 1
b0 5
b0 V
b0 e
b0 /"
#188000
b10110100 '"
0-"
1.
12
#188500
0.
02
#189000
b10110101 '"
0."
1.
12
#189500
0.
02
#190000
b10110110 '"
1.
12
#190500
0.
02
#191000
b10110111 '"
1.
12
#191500
0.
02
#192000
b10111000 '"
1.
12
#192500
0.
02
#193000
b10111001 '"
1.
12
#193500
0.
02
#194000
b10111010 '"
1.
12
#194500
0.
02
#195000
b10111011 '"
1.
12
#195500
0.
02
#196000
b10111100 '"
1.
12
#196500
0.
02
#197000
b10111101 '"
1.
12
#197500
1&
b1000 1
b1000 5
b1000 V
b1000 e
b1000 /"
0.
02
b1100 0
#198000
1A
b10111110 '"
1-"
1.
12
#198500
0.
02
#199000
0A
b10111111 '"
1."
1.
12
#199500
0.
02
#200000
b11000000 '"
1.
12
#200500
0.
02
#201000
b11000001 '"
1.
12
#201500
0.
02
#202000
b11000010 '"
1.
12
#202500
0.
02
#203000
b11000011 '"
1.
12
#203500
0.
02
#204000
b11000100 '"
1.
12
#204500
0.
02
#205000
b11000101 '"
1.
12
#205500
0.
02
#206000
b11000110 '"
1.
12
#206500
0.
02
#207000
b11000111 '"
1.
12
#207500
0.
02
0&
b0 1
b0 5
b0 V
b0 e
b0 /"
#208000
b11001000 '"
0-"
1.
12
#208500
0.
02
#209000
b11001001 '"
0."
1.
12
#209500
0.
02
#210000
b11001010 '"
1.
12
#210500
0.
02
#211000
b11001011 '"
1.
12
#211500
0.
02
#212000
b11001100 '"
1.
12
#212500
0.
02
#213000
b11001101 '"
1.
12
#213500
0.
02
#214000
b11001110 '"
1.
12
#214500
0.
02
#215000
b11001111 '"
1.
12
#215500
0.
02
#216000
b11010000 '"
1.
12
#216500
0.
02
#217000
b11010001 '"
1.
12
#217500
1&
b1 1
b1 5
b1 V
b1 e
b1 /"
0.
02
b1101 0
#218000
1A
b11010010 '"
1-"
1.
12
#218500
0.
02
#219000
0A
b11010011 '"
1."
1.
12
#219500
0.
02
#220000
b11010100 '"
1.
12
#220500
0.
02
#221000
b11010101 '"
1.
12
#221500
0.
02
#222000
b11010110 '"
1.
12
#222500
0.
02
#223000
b11010111 '"
1.
12
#223500
0.
02
#224000
b11011000 '"
1.
12
#224500
0.
02
#225000
b11011001 '"
1.
12
#225500
0.
02
#226000
b11011010 '"
1.
12
#226500
0.
02
#227000
b11011011 '"
1.
12
#227500
0.
02
0&
b0 1
b0 5
b0 V
b0 e
b0 /"
#228000
b11011100 '"
0-"
1.
12
#228500
0.
02
#229000
b11011101 '"
0."
1.
12
#229500
0.
02
#230000
b11011110 '"
1.
12
#230500
0.
02
#231000
b11011111 '"
1.
12
#231500
0.
02
#232000
b11100000 '"
1.
12
#232500
0.
02
#233000
b11100001 '"
1.
12
#233500
0.
02
#234000
b11100010 '"
1.
12
#234500
0.
02
#235000
b11100011 '"
1.
12
#235500
0.
02
#236000
b11100100 '"
1.
12
#236500
0.
02
#237000
b11100101 '"
1.
12
#237500
1&
b10 1
b10 5
b10 V
b10 e
b10 /"
0.
02
b1110 0
#238000
1A
b11100110 '"
1-"
1.
12
#238500
0.
02
#239000
0A
b11100111 '"
1."
1.
12
#239500
0.
02
#240000
b11101000 '"
1.
12
#240500
0.
02
#241000
b11101001 '"
1.
12
#241500
0.
02
#242000
b11101010 '"
1.
12
#242500
0.
02
#243000
b11101011 '"
1.
12
#243500
0.
02
#244000
b11101100 '"
1.
12
#244500
0.
02
#245000
b11101101 '"
1.
12
#245500
0.
02
#246000
b11101110 '"
1.
12
#246500
0.
02
#247000
b11101111 '"
1.
12
#247500
0.
02
0&
b0 1
b0 5
b0 V
b0 e
b0 /"
#248000
b11110000 '"
0-"
1.
12
#248500
0.
02
#249000
b11110001 '"
0."
1.
12
#249500
0.
02
#250000
b11110010 '"
1.
12
#250500
0.
02
#251000
b11110011 '"
1.
12
#251500
0.
02
#252000
b11110100 '"
1.
12
#252500
0.
02
#253000
b11110101 '"
1.
12
#253500
0.
02
#254000
b11110110 '"
1.
12
#254500
0.
02
#255000
b11110111 '"
1.
12
#255500
0.
02
#256000
b11111000 '"
1.
12
#256500
0.
02
#257000
b11111001 '"
1.
12
#257500
1&
b100 1
b100 5
b100 V
b100 e
b100 /"
0.
02
b1111 0
#258000
1A
b11111010 '"
1-"
1.
12
#258500
0.
02
#259000
0A
b11111011 '"
1."
1.
12
#259500
0.
02
#260000
b11111100 '"
1.
12
#260500
0.
02
#261000
b11111101 '"
1.
12
#261500
0.
02
#262000
b11111110 '"
1.
12
#262500
0.
02
#263000
b11111111 '"
1.
12
#263500
0.
02
#264000
b100000000 '"
1.
12
#264500
0.
02
#265000
b100000001 '"
1.
12
#265500
0.
02
#266000
b100000010 '"
1.
12
#266500
0.
02
#267000
b100000011 '"
1.
12
#267500
0.
02
0&
b0 1
b0 5
b0 V
b0 e
b0 /"
#268000
b100000100 '"
0-"
1.
12
#268500
0.
02
#269000
b100000101 '"
0."
1.
12
#269500
0.
02
#270000
b100000110 '"
1.
12
#270500
0.
02
#271000
b100000111 '"
1.
12
#271500
0.
02
#272000
b100001000 '"
1.
12
#272500
0.
02
#273000
b100001001 '"
1.
12
#273500
0.
02
#274000
b100001010 '"
1.
12
#274500
0.
02
#275000
b100001011 '"
1.
12
#275500
0.
02
#276000
b100001100 '"
1.
12
#276500
0.
02
#277000
b100001101 '"
1.
12
#277500
1&
b1000 1
b1000 5
b1000 V
b1000 e
b1000 /"
0.
02
b10000 0
#278000
1A
b100001110 '"
1-"
1.
12
#278500
0.
02
#279000
0A
b100001111 '"
1."
1.
12
#279500
0.
02
#280000
b100010000 '"
1.
12
#280500
0.
02
#281000
b100010001 '"
1.
12
#281500
0.
02
#282000
b100010010 '"
1.
12
#282500
0.
02
#283000
b100010011 '"
1.
12
#283500
0.
02
#284000
b100010100 '"
1.
12
#284500
0.
02
#285000
b100010101 '"
1.
12
#285500
0.
02
#286000
b100010110 '"
1.
12
#286500
0.
02
#287000
b100010111 '"
1.
12
#287500
0.
02
0&
b0 1
b0 5
b0 V
b0 e
b0 /"
#288000
b100011000 '"
0-"
1.
12
#288500
0.
02
#289000
b100011001 '"
0."
1.
12
#289500
0.
02
#290000
b100011010 '"
1.
12
#290500
0.
02
#291000
b100011011 '"
1.
12
#291500
0.
02
#292000
b100011100 '"
1.
12
#292500
0.
02
#293000
b100011101 '"
1.
12
#293500
0.
02
#294000
b100011110 '"
1.
12
#294500
0.
02
#295000
b100011111 '"
1.
12
#295500
0.
02
#296000
b100100000 '"
1.
12
#296500
0.
02
#297000
b100100001 '"
1.
12
#297500
1&
b100 1
b100 5
b100 V
b100 e
b100 /"
0.
02
b10001 0
#298000
1A
b100100010 '"
1-"
1.
12
#298500
0.
02
#299000
0A
b100100011 '"
1."
1.
12
#299500
0.
02
#300000
b100100100 '"
1.
12
#300500
0.
02
#301000
b100100101 '"
1.
12
#301500
0.
02
#302000
b100100110 '"
1.
12
#302500
0.
02
#303000
b100100111 '"
1.
12
#303500
0.
02
#304000
b100101000 '"
1.
12
#304500
0.
02
#305000
b100101001 '"
1.
12
#305500
0.
02
#306000
b100101010 '"
1.
12
#306500
0.
02
#307000
b100101011 '"
1.
12
#307500
0.
02
0&
b0 1
b0 5
b0 V
b0 e
b0 /"
#308000
b100101100 '"
0-"
1.
12
#308500
0.
02
#309000
b100101101 '"
0."
1.
12
#309500
0.
02
#310000
b100101110 '"
1.
12
#310500
0.
02
#311000
b100101111 '"
1.
12
#311500
0.
02
#312000
b100110000 '"
1.
12
#312500
0.
02
#313000
b100110001 '"
1.
12
#313500
0.
02
#314000
b100110010 '"
1.
12
#314500
0.
02
#315000
b100110011 '"
1.
12
#315500
0.
02
#316000
b100110100 '"
1.
12
#316500
0.
02
#317000
b100110101 '"
1.
12
#317500
1&
b1 1
b1 5
b1 V
b1 e
b1 /"
0.
02
b10010 0
#318000
1A
b100110110 '"
1-"
1.
12
#318500
0.
02
#319000
0A
b100110111 '"
1."
1.
12
#319500
0.
02
#320000
b100111000 '"
1.
12
#320500
0.
02
#321000
b100111001 '"
1.
12
#321500
0.
02
#322000
b100111010 '"
1.
12
#322500
0.
02
#323000
b100111011 '"
1.
12
#323500
0.
02
#324000
b100111100 '"
1.
12
#324500
0.
02
#325000
b100111101 '"
1.
12
#325500
0.
02
#326000
b100111110 '"
1.
12
#326500
0.
02
#327000
b100111111 '"
1.
12
#327500
0.
02
0&
b0 1
b0 5
b0 V
b0 e
b0 /"
#328000
b101000000 '"
0-"
1.
12
#328500
0.
02
#329000
b101000001 '"
0."
1.
12
#329500
0.
02
#330000
b101000010 '"
1.
12
#330500
0.
02
#331000
b101000011 '"
1.
12
#331500
0.
02
#332000
b101000100 '"
1.
12
#332500
0.
02
#333000
b101000101 '"
1.
12
#333500
0.
02
#334000
b101000110 '"
1.
12
#334500
0.
02
#335000
b101000111 '"
1.
12
#335500
0.
02
#336000
b101001000 '"
1.
12
#336500
0.
02
