experiencia-7/Modelsim/testbench.vcd
$date
	Thu Feb 22 16:45:22 2024
$end
$version
	ModelSim Version 2020.1
$end
$timescale
	1ns
$end

$scope module circuito_exp6_tb_certo $end
$var parameter 32 ! clockPeriod $end
$var reg 1 " clock_in $end
$var reg 1 # reset_in $end
$var reg 1 $ iniciar_in $end
$var reg 4 % chaves_in [3:0] $end
$var wire 1 & ganhou_out $end
$var wire 1 ' perdeu_out $end
$var wire 1 ( pronto_out $end
$var wire 1 ) leds_out [3] $end
$var wire 1 * leds_out [2] $end
$var wire 1 + leds_out [1] $end
$var wire 1 , leds_out [0] $end
$var wire 1 - db_contagem_out [6] $end
$var wire 1 . db_contagem_out [5] $end
$var wire 1 / db_contagem_out [4] $end
$var wire 1 0 db_contagem_out [3] $end
$var wire 1 1 db_contagem_out [2] $end
$var wire 1 2 db_contagem_out [1] $end
$var wire 1 3 db_contagem_out [0] $end
$var wire 1 4 db_memoria_out [6] $end
$var wire 1 5 db_memoria_out [5] $end
$var wire 1 6 db_memoria_out [4] $end
$var wire 1 7 db_memoria_out [3] $end
$var wire 1 8 db_memoria_out [2] $end
$var wire 1 9 db_memoria_out [1] $end
$var wire 1 : db_memoria_out [0] $end
$var wire 1 ; db_estado_out [6] $end
$var wire 1 < db_estado_out [5] $end
$var wire 1 = db_estado_out [4] $end
$var wire 1 > db_estado_out [3] $end
$var wire 1 ? db_estado_out [2] $end
$var wire 1 @ db_estado_out [1] $end
$var wire 1 A db_estado_out [0] $end
$var wire 1 B db_timeout_out $end
$var wire 1 C db_jogadafeita_out [6] $end
$var wire 1 D db_jogadafeita_out [5] $end
$var wire 1 E db_jogadafeita_out [4] $end
$var wire 1 F db_jogadafeita_out [3] $end
$var wire 1 G db_jogadafeita_out [2] $end
$var wire 1 H db_jogadafeita_out [1] $end
$var wire 1 I db_jogadafeita_out [0] $end
$var wire 1 J db_rodada_out [6] $end
$var wire 1 K db_rodada_out [5] $end
$var wire 1 L db_rodada_out [4] $end
$var wire 1 M db_rodada_out [3] $end
$var wire 1 N db_rodada_out [2] $end
$var wire 1 O db_rodada_out [1] $end
$var wire 1 P db_rodada_out [0] $end
$var wire 1 Q db_clock_out $end
$var wire 1 R db_iniciar_out $end
$var wire 1 S db_tem_jogada_out $end
$var wire 1 T db_enderecoIgualRodada_out $end
$var wire 1 U db_jogada_correta_out $end
$var wire 1 V db_Q_out [12] $end
$var wire 1 W db_Q_out [11] $end
$var wire 1 X db_Q_out [10] $end
$var wire 1 Y db_Q_out [9] $end
$var wire 1 Z db_Q_out [8] $end
$var wire 1 [ db_Q_out [7] $end
$var wire 1 \ db_Q_out [6] $end
$var wire 1 ] db_Q_out [5] $end
$var wire 1 ^ db_Q_out [4] $end
$var wire 1 _ db_Q_out [3] $end
$var wire 1 ` db_Q_out [2] $end
$var wire 1 a db_Q_out [1] $end
$var wire 1 b db_Q_out [0] $end
$var reg 32 c caso [31:0] $end

$scope module dut $end
$var wire 1 d clock $end
$var wire 1 e reset $end
$var wire 1 f iniciar $end
$var wire 1 g chaves [3] $end
$var wire 1 h chaves [2] $end
$var wire 1 i chaves [1] $end
$var wire 1 j chaves [0] $end
$var wire 1 & ganhou $end
$var wire 1 ' perdeu $end
$var wire 1 ( pronto $end
$var wire 1 ) leds [3] $end
$var wire 1 * leds [2] $end
$var wire 1 + leds [1] $end
$var wire 1 , leds [0] $end
$var wire 1 - db_contagem [6] $end
$var wire 1 . db_contagem [5] $end
$var wire 1 / db_contagem [4] $end
$var wire 1 0 db_contagem [3] $end
$var wire 1 1 db_contagem [2] $end
$var wire 1 2 db_contagem [1] $end
$var wire 1 3 db_contagem [0] $end
$var wire 1 4 db_memoria [6] $end
$var wire 1 5 db_memoria [5] $end
$var wire 1 6 db_memoria [4] $end
$var wire 1 7 db_memoria [3] $end
$var wire 1 8 db_memoria [2] $end
$var wire 1 9 db_memoria [1] $end
$var wire 1 : db_memoria [0] $end
$var wire 1 ; db_estado [6] $end
$var wire 1 < db_estado [5] $end
$var wire 1 = db_estado [4] $end
$var wire 1 > db_estado [3] $end
$var wire 1 ? db_estado [2] $end
$var wire 1 @ db_estado [1] $end
$var wire 1 A db_estado [0] $end
$var wire 1 C db_jogadafeita [6] $end
$var wire 1 D db_jogadafeita [5] $end
$var wire 1 E db_jogadafeita [4] $end
$var wire 1 F db_jogadafeita [3] $end
$var wire 1 G db_jogadafeita [2] $end
$var wire 1 H db_jogadafeita [1] $end
$var wire 1 I db_jogadafeita [0] $end
$var wire 1 J db_rodada [6] $end
$var wire 1 K db_rodada [5] $end
$var wire 1 L db_rodada [4] $end
$var wire 1 M db_rodada [3] $end
$var wire 1 N db_rodada [2] $end
$var wire 1 O db_rodada [1] $end
$var wire 1 P db_rodada [0] $end
$var wire 1 Q db_clock $end
$var wire 1 S db_tem_jogada $end
$var wire 1 B db_timeout $end
$var wire 1 U db_jogada_correta $end
$var wire 1 T db_enderecoIgualRodada $end
$var wire 1 k db_grava $end
$var wire 1 V db_Q [12] $end
$var wire 1 W db_Q [11] $end
$var wire 1 X db_Q [10] $end
$var wire 1 Y db_Q [9] $end
$var wire 1 Z db_Q [8] $end
$var wire 1 [ db_Q [7] $end
$var wire 1 \ db_Q [6] $end
$var wire 1 ] db_Q [5] $end
$var wire 1 ^ db_Q [4] $end
$var wire 1 _ db_Q [3] $end
$var wire 1 ` db_Q [2] $end
$var wire 1 a db_Q [1] $end
$var wire 1 b db_Q [0] $end
$var wire 1 l zeraCE $end
$var wire 1 m contaCE $end
$var wire 1 n zeraCR $end
$var wire 1 o contaCR $end
$var wire 1 p zeraR $end
$var wire 1 q registraR $end
$var wire 1 r fimCE $end
$var wire 1 s fimCR $end
$var wire 1 t zeraT $end
$var wire 1 u contaT $end
$var wire 1 v contaTI $end
$var wire 1 w zeraTI $end
$var wire 1 x exibe_jogada_inicial $end
$var wire 1 y grava $end
$var wire 1 z db_contagem_hex [3] $end
$var wire 1 { db_contagem_hex [2] $end
$var wire 1 | db_contagem_hex [1] $end
$var wire 1 } db_contagem_hex [0] $end
$var wire 1 ~ db_memoria_hex [3] $end
$var wire 1 !! db_memoria_hex [2] $end
$var wire 1 "! db_memoria_hex [1] $end
$var wire 1 #! db_memoria_hex [0] $end
$var wire 1 $! db_jogada_hex [3] $end
$var wire 1 %! db_jogada_hex [2] $end
$var wire 1 &! db_jogada_hex [1] $end
$var wire 1 '! db_jogada_hex [0] $end
$var wire 1 (! db_estado_hex [3] $end
$var wire 1 )! db_estado_hex [2] $end
$var wire 1 *! db_estado_hex [1] $end
$var wire 1 +! db_estado_hex [0] $end
$var wire 1 ,! db_rodada_hex [3] $end
$var wire 1 -! db_rodada_hex [2] $end
$var wire 1 .! db_rodada_hex [1] $end
$var wire 1 /! db_rodada_hex [0] $end
$var wire 1 0! jogada $end
$var wire 1 1! jogada_correta $end
$var wire 1 2! enderecoIgualRodada $end
$var wire 1 3! timeout $end
$var wire 1 4! timeout_jogada_inicial $end

$scope module uc $end
$var parameter 4 5! inicial $end
$var parameter 4 6! preparacao $end
$var parameter 4 7! inicio_rodada $end
$var parameter 4 8! espera $end
$var parameter 4 9! registra $end
$var parameter 4 :! comparacao $end
$var parameter 4 ;! proxima_jogada $end
$var parameter 4 <! ultima_rodada $end
$var parameter 4 =! proxima_rodada $end
$var parameter 4 >! derrota $end
$var parameter 4 ?! vitoria $end
$var parameter 4 @! tout $end
$var parameter 4 A! espera_incremento $end
$var parameter 4 B! grava $end
$var wire 1 d clock $end
$var wire 1 e reset $end
$var wire 1 f iniciar $end
$var wire 1 r fimCE $end
$var wire 1 s fimCR $end
$var wire 1 0! jogada $end
$var wire 1 2! enderecoIgualRodada $end
$var wire 1 1! jogada_correta $end
$var wire 1 3! timeout $end
$var wire 1 4! timeout_jogada_inicial $end
$var reg 1 C! zeraCE $end
$var reg 1 D! contaCE $end
$var reg 1 E! zeraCR $end
$var reg 1 F! contaCR $end
$var reg 1 G! zeraR $end
$var reg 1 H! registraR $end
$var reg 1 I! zeraT $end
$var reg 1 J! contaT $end
$var reg 1 K! zeraTI $end
$var reg 1 L! contaTI $end
$var reg 1 M! pronto $end
$var reg 1 N! errou $end
$var reg 1 O! acertou $end
$var reg 1 P! exibe_jogada_inicial $end
$var reg 4 Q! db_estado [3:0] $end
$var reg 1 R! gravaRAM $end
$var reg 4 S! Eatual [3:0] $end
$var reg 4 T! Eprox [3:0] $end
$upscope $end

$scope module fd $end
$var wire 1 d clock $end
$var wire 1 p zeraR $end
$var wire 1 q registraR $end
$var wire 1 n zeraCR $end
$var wire 1 o contaCR $end
$var wire 1 l zeraCE $end
$var wire 1 m contaCE $end
$var wire 1 t zeraT $end
$var wire 1 u contaT $end
$var wire 1 w zeraTI $end
$var wire 1 v contaTI $end
$var wire 1 g chaves [3] $end
$var wire 1 h chaves [2] $end
$var wire 1 i chaves [1] $end
$var wire 1 j chaves [0] $end
$var wire 1 y grava $end
$var wire 1 1! jogada_correta $end
$var wire 1 2! enderecoIgualRodada $end
$var wire 1 r fimCE $end
$var wire 1 s fimCR $end
$var wire 1 0! jogada_feita $end
$var wire 1 ) leds [3] $end
$var wire 1 * leds [2] $end
$var wire 1 + leds [1] $end
$var wire 1 , leds [0] $end
$var wire 1 S db_tem_jogada $end
$var wire 1 z db_contagem [3] $end
$var wire 1 { db_contagem [2] $end
$var wire 1 | db_contagem [1] $end
$var wire 1 } db_contagem [0] $end
$var wire 1 $! db_jogada [3] $end
$var wire 1 %! db_jogada [2] $end
$var wire 1 &! db_jogada [1] $end
$var wire 1 '! db_jogada [0] $end
$var wire 1 ~ db_memoria [3] $end
$var wire 1 !! db_memoria [2] $end
$var wire 1 "! db_memoria [1] $end
$var wire 1 #! db_memoria [0] $end
$var wire 1 ,! db_rodada [3] $end
$var wire 1 -! db_rodada [2] $end
$var wire 1 .! db_rodada [1] $end
$var wire 1 /! db_rodada [0] $end
$var wire 1 V Q [12] $end
$var wire 1 W Q [11] $end
$var wire 1 X Q [10] $end
$var wire 1 Y Q [9] $end
$var wire 1 Z Q [8] $end
$var wire 1 [ Q [7] $end
$var wire 1 \ Q [6] $end
$var wire 1 ] Q [5] $end
$var wire 1 ^ Q [4] $end
$var wire 1 _ Q [3] $end
$var wire 1 ` Q [2] $end
$var wire 1 a Q [1] $end
$var wire 1 b Q [0] $end
$var wire 1 3! timeout $end
$var wire 1 4! timeout_jogada_inicial $end
$var wire 1 U! s_endereco [3] $end
$var wire 1 V! s_endereco [2] $end
$var wire 1 W! s_endereco [1] $end
$var wire 1 X! s_endereco [0] $end
$var wire 1 Y! s_jogada [3] $end
$var wire 1 Z! s_jogada [2] $end
$var wire 1 [! s_jogada [1] $end
$var wire 1 \! s_jogada [0] $end
$var wire 1 ]! s_dado [3] $end
$var wire 1 ^! s_dado [2] $end
$var wire 1 _! s_dado [1] $end
$var wire 1 `! s_dado [0] $end
$var wire 1 a! s_rodada [3] $end
$var wire 1 b! s_rodada [2] $end
$var wire 1 c! s_rodada [1] $end
$var wire 1 d! s_rodada [0] $end
$var wire 1 e! s_endereco_ram [3] $end
$var wire 1 f! s_endereco_ram [2] $end
$var wire 1 g! s_endereco_ram [1] $end
$var wire 1 h! s_endereco_ram [0] $end
$var wire 1 i! leds_reg [3] $end
$var wire 1 j! leds_reg [2] $end
$var wire 1 k! leds_reg [1] $end
$var wire 1 l! leds_reg [0] $end
$var wire 1 m! fim_rodada $end
$var wire 1 n! zera_timeout $end

$scope module RAM $end
$var parameter 96 o! BINFILE $end
$var wire 1 d clk $end
$var wire 1 y we $end
$var wire 1 g data [3] $end
$var wire 1 h data [2] $end
$var wire 1 i data [1] $end
$var wire 1 j data [0] $end
$var wire 1 e! addr [3] $end
$var wire 1 f! addr [2] $end
$var wire 1 g! addr [1] $end
$var wire 1 h! addr [0] $end
$var wire 1 ]! q [3] $end
$var wire 1 ^! q [2] $end
$var wire 1 _! q [1] $end
$var wire 1 `! q [0] $end
$var reg 4 p! addr_reg [3:0] $end

$scope begin INICIA_RAM $end
$upscope $end
$upscope $end

$scope module contador_endereco $end
$var wire 1 d clock $end
$var wire 1 q! clr $end
$var wire 1 r! ld $end
$var wire 1 s! ent $end
$var wire 1 m enp $end
$var wire 1 t! D [3] $end
$var wire 1 u! D [2] $end
$var wire 1 v! D [1] $end
$var wire 1 w! D [0] $end
$var reg 4 x! Q [3:0] $end
$var reg 1 y! rco $end
$upscope $end

$scope module contador_rodada $end
$var wire 1 d clock $end
$var wire 1 z! clr $end
$var wire 1 {! ld $end
$var wire 1 |! ent $end
$var wire 1 o enp $end
$var wire 1 }! D [3] $end
$var wire 1 ~! D [2] $end
$var wire 1 !" D [1] $end
$var wire 1 "" D [0] $end
$var reg 4 #" Q [3:0] $end
$var reg 1 $" rco $end
$upscope $end

$scope module registrador $end
$var wire 1 d clock $end
$var wire 1 p clear $end
$var wire 1 q enable $end
$var wire 1 g D [3] $end
$var wire 1 h D [2] $end
$var wire 1 i D [1] $end
$var wire 1 j D [0] $end
$var wire 1 Y! Q [3] $end
$var wire 1 Z! Q [2] $end
$var wire 1 [! Q [1] $end
$var wire 1 \! Q [0] $end
$var reg 4 %" IQ [3:0] $end
$upscope $end

$scope module comparador_jogada $end
$var wire 1 ]! A [3] $end
$var wire 1 ^! A [2] $end
$var wire 1 _! A [1] $end
$var wire 1 `! A [0] $end
$var wire 1 Y! B [3] $end
$var wire 1 Z! B [2] $end
$var wire 1 [! B [1] $end
$var wire 1 \! B [0] $end
$var wire 1 &" ALBi $end
$var wire 1 '" AGBi $end
$var wire 1 (" AEBi $end
$var wire 1 )" ALBo $end
$var wire 1 *" AGBo $end
$var wire 1 1! AEBo $end
$var wire 1 +" CSL [4] $end
$var wire 1 ," CSL [3] $end
$var wire 1 -" CSL [2] $end
$var wire 1 ." CSL [1] $end
$var wire 1 /" CSL [0] $end
$var wire 1 0" CSG [4] $end
$var wire 1 1" CSG [3] $end
$var wire 1 2" CSG [2] $end
$var wire 1 3" CSG [1] $end
$var wire 1 4" CSG [0] $end
$upscope $end

$scope module comparador_endereco $end
$var wire 1 a! A [3] $end
$var wire 1 b! A [2] $end
$var wire 1 c! A [1] $end
$var wire 1 d! A [0] $end
$var wire 1 U! B [3] $end
$var wire 1 V! B [2] $end
$var wire 1 W! B [1] $end
$var wire 1 X! B [0] $end
$var wire 1 5" ALBi $end
$var wire 1 6" AGBi $end
$var wire 1 7" AEBi $end
$var wire 1 8" ALBo $end
$var wire 1 9" AGBo $end
$var wire 1 2! AEBo $end
$var wire 1 :" CSL [4] $end
$var wire 1 ;" CSL [3] $end
$var wire 1 <" CSL [2] $end
$var wire 1 =" CSL [1] $end
$var wire 1 >" CSL [0] $end
$var wire 1 ?" CSG [4] $end
$var wire 1 @" CSG [3] $end
$var wire 1 A" CSG [2] $end
$var wire 1 B" CSG [1] $end
$var wire 1 C" CSG [0] $end
$upscope $end

$scope module edge_detect $end
$var wire 1 d clock $end
$var wire 1 D" reset $end
$var wire 1 S sinal $end
$var wire 1 0! pulso $end
$var reg 1 E" reg0 $end
$var reg 1 F" reg1 $end
$upscope $end

$scope module contador_timeout $end
$var parameter 32 G" M $end
$var parameter 32 H" N $end
$var wire 1 d clock $end
$var wire 1 I" zera_as $end
$var wire 1 t zera_s $end
$var wire 1 u conta $end
$var reg 13 J" Q [12:0] $end
$var reg 1 K" fim $end
$var reg 1 L" meio $end
$upscope $end

$scope module contador_tempo_display_jogada_inicial $end
$var parameter 32 M" M $end
$var parameter 32 N" N $end
$var wire 1 d clock $end
$var wire 1 O" zera_as $end
$var wire 1 w zera_s $end
$var wire 1 v conta $end
$var reg 13 P" Q [12:0] $end
$var reg 1 Q" fim $end
$var reg 1 R" meio $end
$upscope $end
$upscope $end

$scope module hexa7seg_CHAVES $end
$var wire 1 $! hexa [3] $end
$var wire 1 %! hexa [2] $end
$var wire 1 &! hexa [1] $end
$var wire 1 '! hexa [0] $end
$var reg 7 S" display [6:0] $end
$upscope $end

$scope module hexa7seg_CONT $end
$var wire 1 z hexa [3] $end
$var wire 1 { hexa [2] $end
$var wire 1 | hexa [1] $end
$var wire 1 } hexa [0] $end
$var reg 7 T" display [6:0] $end
$upscope $end

$scope module hexa7seg_MEM $end
$var wire 1 ~ hexa [3] $end
$var wire 1 !! hexa [2] $end
$var wire 1 "! hexa [1] $end
$var wire 1 #! hexa [0] $end
$var reg 7 U" display [6:0] $end
$upscope $end

$scope module hexa7seg_EST $end
$var wire 1 (! hexa [3] $end
$var wire 1 )! hexa [2] $end
$var wire 1 *! hexa [1] $end
$var wire 1 +! hexa [0] $end
$var reg 7 V" display [6:0] $end
$upscope $end

$scope module hexa7seg_ROD $end
$var wire 1 ,! hexa [3] $end
$var wire 1 -! hexa [2] $end
$var wire 1 .! hexa [1] $end
$var wire 1 /! hexa [0] $end
$var reg 7 W" display [6:0] $end
$upscope $end
$upscope $end
$upscope $end
$enddefinitions $end
#0
$dumpvars
1"
0#
0$
b0 %
b0 c
1C!
0D!
1E!
0F!
1G!
0H!
1I!
0J!
1K!
0L!
0M!
0N!
0O!
xP!
b0 Q!
0R!
b0 S!
b0 T!
bx p!
bx x!
0y!
bx #"
0$"
b0 %"
0E"
xF"
bx J"
xK"
xL"
bx P"
xQ"
xR"
b1000000 S"
bx T"
bx U"
b1000000 V"
bx W"
b1111101000 !
b0 5!
b11 6!
b10 7!
b1 8!
b100 9!
b101 :!
b110 ;!
b111 <!
b1000 =!
b1110 >!
b1101 ?!
b1011 @!
b1001 A!
b1100 B!
b1001110001000 G"
b1101 H"
b11111010000 M"
b1101 N"
b11100100110000101101101010111110110100101101110011010010111010000101110011101000111100001110100 o!
0&
0'
0(
0,
0+
0*
0)
x3
x2
x1
x0
x/
x.
x-
x:
x9
x8
x7
x6
x5
x4
0A
0@
0?
0>
0=
0<
1;
xB
0I
0H
0G
0F
0E
0D
1C
xP
xO
xN
xM
xL
xK
xJ
1Q
zR
0S
xT
xU
xb
xa
x`
x_
x^
x]
x\
x[
xZ
xY
xX
xW
xV
1l
0m
1n
0o
1p
0q
0r
0s
1t
0u
0v
1w
xx
0y
x}
x|
x{
xz
x#!
x"!
x!!
x~
0'!
0&!
0%!
0$!
0+!
0*!
0)!
0(!
x/!
x.!
x-!
x,!
00!
x1!
x2!
x3!
x4!
xX!
xW!
xV!
xU!
0\!
0[!
0Z!
0Y!
x`!
x_!
x^!
x]!
xd!
xc!
xb!
xa!
xh!
xg!
xf!
xe!
zl!
zk!
zj!
zi!
0m!
x/"
x."
x-"
x,"
x+"
x4"
x3"
x2"
x1"
x0"
x>"
x="
x<"
x;"
x:"
xC"
xB"
xA"
x@"
x?"
1n!
0j
0i
0h
0g
0f
0e
1d
0k
0O"
0I"
0D"
17"
06"
05"
1("
0'"
0&"
0""
0!"
0~!
0}!
1|!
1{!
0z!
0w!
0v!
0u!
0t!
1s!
1r!
0q!
x)"
x*"
x8"
x9"
$end
#500
0"
0d
0Q
#1000
b1 c
1"
1d
1Q
b0 x!
b0 #"
0F"
b0 J"
b0 P"
0b
0a
0`
0_
0^
0]
0\
0[
0Z
0Y
0X
0W
0V
0d!
0c!
0b!
0a!
0X!
0W!
0V!
0U!
1>"
1="
1<"
1;"
1:"
1C"
1B"
1A"
1@"
1?"
0h!
0g!
0f!
0e!
09"
08"
12!
0}
0|
0{
0z
0/!
0.!
0-!
0,!
1T
b1000000 W"
b1000000 T"
0Q"
0R"
0K"
0L"
03
02
01
00
0/
0.
1-
0P
0O
0N
0M
0L
0K
1J
04!
03!
0B
#1500
0"
0d
0Q
1#
1e
#2000
1"
1d
1Q
b0 p!
#2500
0#
0"
0e
0d
0Q
#3000
1"
1d
1Q
#3500
0"
0d
0Q
#4000
1"
1d
1Q
#4500
0"
0d
0Q
#5000
1"
1d
1Q
#5500
0"
0d
0Q
#6000
1"
1d
1Q
#6500
0"
0d
0Q
#7000
1"
1d
1Q
#7500
b10 c
1$
0"
1f
0d
0Q
b11 T!
#8000
1"
1d
1Q
b11 S!
1L!
0K!
b11 Q!
1v
0w
x,
x+
x*
x)
1+!
1*!
b110000 V"
1=
1<
0;
#8500
0"
0d
0Q
#9000
1"
1d
1Q
b1 P"
#9500
0"
0d
0Q
#10000
1"
1d
1Q
b10 P"
#10500
0"
0d
0Q
#11000
1"
1d
1Q
b11 P"
#11500
0"
0d
0Q
#12000
1"
1d
1Q
b100 P"
#12500
0$
0"
0f
0d
0Q
#13000
1"
1d
1Q
b101 P"
#13500
0"
0d
0Q
#14000
1"
1d
1Q
b110 P"
#14500
0"
0d
0Q
#15000
1"
1d
1Q
b111 P"
#15500
0"
0d
0Q
#16000
1"
1d
1Q
b1000 P"
#16500
0"
0d
0Q
#17000
1"
1d
1Q
b1001 P"
#17500
b11 c
0"
0d
0Q
b1 %
1j
1S
#18000
1"
1d
1Q
1E"
b1010 P"
10!
#18500
0"
0d
0Q
#19000
1"
1d
1Q
1F"
b1011 P"
00!
#19500
0"
0d
0Q
#20000
1"
1d
1Q
b1100 P"
#20500
0"
0d
0Q
#21000
1"
1d
1Q
b1101 P"
#21500
0"
0d
0Q
#22000
1"
1d
1Q
b1110 P"
#22500
0"
0d
0Q
#23000
1"
1d
1Q
b1111 P"
#23500
0"
0d
0Q
#24000
1"
1d
1Q
b10000 P"
#24500
0"
0d
0Q
#25000
1"
1d
1Q
b10001 P"
#25500
0"
0d
0Q
#26000
1"
1d
1Q
b10010 P"
#26500
0"
0d
0Q
#27000
1"
1d
1Q
b10011 P"
#27500
b0 %
0"
0j
0S
0d
0Q
#28000
1"
1d
1Q
0E"
b10100 P"
#28500
0"
0d
0Q
#29000
1"
1d
1Q
0F"
b10101 P"
#29500
0"
0d
0Q
#30000
1"
1d
1Q
b10110 P"
#30500
0"
0d
0Q
#31000
1"
1d
1Q
b10111 P"
#31500
0"
0d
0Q
#32000
1"
1d
1Q
b11000 P"
#32500
0"
0d
0Q
#33000
1"
1d
1Q
b11001 P"
#33500
0"
0d
0Q
#34000
1"
1d
1Q
b11010 P"
#34500
0"
0d
0Q
#35000
1"
1d
1Q
b11011 P"
#35500
0"
0d
0Q
#36000
1"
1d
1Q
b11100 P"
#36500
0"
0d
0Q
#37000
1"
1d
1Q
b11101 P"
#37500
b100 c
0"
0d
0Q
b1 %
1j
1S
#38000
1"
1d
1Q
1E"
b11110 P"
10!
#38500
0"
0d
0Q
#39000
1"
1d
1Q
1F"
b11111 P"
00!
#39500
0"
0d
0Q
#40000
1"
1d
1Q
b100000 P"
#40500
0"
0d
0Q
#41000
1"
1d
1Q
b100001 P"
#41500
0"
0d
0Q
#42000
1"
1d
1Q
b100010 P"
#42500
0"
0d
0Q
#43000
1"
1d
1Q
b100011 P"
#43500
0"
0d
0Q
#44000
1"
1d
1Q
b100100 P"
#44500
0"
0d
0Q
#45000
1"
1d
1Q
b100101 P"
#45500
0"
0d
0Q
#46000
1"
1d
1Q
b100110 P"
#46500
0"
0d
0Q
#47000
1"
1d
1Q
b100111 P"
#47500
b0 %
0"
0j
0S
0d
0Q
#48000
1"
1d
1Q
0E"
b101000 P"
#48500
0"
0d
0Q
#49000
1"
1d
1Q
0F"
b101001 P"
#49500
0"
0d
0Q
#50000
1"
1d
1Q
b101010 P"
#50500
0"
0d
0Q
#51000
1"
1d
1Q
b101011 P"
#51500
0"
0d
0Q
#52000
1"
1d
1Q
b101100 P"
#52500
0"
0d
0Q
#53000
1"
1d
1Q
b101101 P"
#53500
0"
0d
0Q
#54000
1"
1d
1Q
b101110 P"
#54500
0"
0d
0Q
#55000
1"
1d
1Q
b101111 P"
#55500
0"
0d
0Q
#56000
1"
1d
1Q
b110000 P"
#56500
0"
0d
0Q
#57000
1"
1d
1Q
b110001 P"
#57500
b101 c
0"
0d
0Q
b10 %
1i
1S
#58000
1"
1d
1Q
1E"
b110010 P"
10!
#58500
0"
0d
0Q
#59000
1"
1d
1Q
1F"
b110011 P"
00!
#59500
0"
0d
0Q
#60000
1"
1d
1Q
b110100 P"
#60500
0"
0d
0Q
#61000
1"
1d
1Q
b110101 P"
#61500
0"
0d
0Q
#62000
1"
1d
1Q
b110110 P"
#62500
0"
0d
0Q
#63000
1"
1d
1Q
b110111 P"
#63500
0"
0d
0Q
#64000
1"
1d
1Q
b111000 P"
#64500
0"
0d
0Q
#65000
1"
1d
1Q
b111001 P"
#65500
0"
0d
0Q
#66000
1"
1d
1Q
b111010 P"
#66500
0"
0d
0Q
#67000
1"
1d
1Q
b111011 P"
#67500
b0 %
0"
0i
0S
0d
0Q
#68000
1"
1d
1Q
0E"
b111100 P"
#68500
0"
0d
0Q
#69000
1"
1d
1Q
0F"
b111101 P"
#69500
0"
0d
0Q
#70000
1"
1d
1Q
b111110 P"
#70500
0"
0d
0Q
#71000
1"
1d
1Q
b111111 P"
#71500
0"
0d
0Q
#72000
1"
1d
1Q
b1000000 P"
#72500
0"
0d
0Q
#73000
1"
1d
1Q
b1000001 P"
#73500
0"
0d
0Q
#74000
1"
1d
1Q
b1000010 P"
#74500
0"
0d
0Q
#75000
1"
1d
1Q
b1000011 P"
#75500
0"
0d
0Q
#76000
1"
1d
1Q
b1000100 P"
#76500
0"
0d
0Q
#77000
1"
1d
1Q
b1000101 P"
#77500
b110 c
0"
0d
0Q
b1 %
1j
1S
#78000
1"
1d
1Q
1E"
b1000110 P"
10!
#78500
0"
0d
0Q
#79000
1"
1d
1Q
1F"
b1000111 P"
00!
#79500
0"
0d
0Q
#80000
1"
1d
1Q
b1001000 P"
#80500
0"
0d
0Q
#81000
1"
1d
1Q
b1001001 P"
#81500
0"
0d
0Q
#82000
1"
1d
1Q
b1001010 P"
#82500
0"
0d
0Q
#83000
1"
1d
1Q
b1001011 P"
#83500
0"
0d
0Q
#84000
1"
1d
1Q
b1001100 P"
#84500
0"
0d
0Q
#85000
1"
1d
1Q
b1001101 P"
#85500
0"
0d
0Q
#86000
1"
1d
1Q
b1001110 P"
#86500
0"
0d
0Q
#87000
1"
1d
1Q
b1001111 P"
#87500
b0 %
0"
0j
0S
0d
0Q
#88000
1"
1d
1Q
0E"
b1010000 P"
#88500
0"
0d
0Q
#89000
1"
1d
1Q
0F"
b1010001 P"
#89500
0"
0d
0Q
#90000
1"
1d
1Q
b1010010 P"
#90500
0"
0d
0Q
#91000
1"
1d
1Q
b1010011 P"
#91500
0"
0d
0Q
#92000
1"
1d
1Q
b1010100 P"
#92500
0"
0d
0Q
#93000
1"
1d
1Q
b1010101 P"
#93500
0"
0d
0Q
#94000
1"
1d
1Q
b1010110 P"
#94500
0"
0d
0Q
#95000
1"
1d
1Q
b1010111 P"
#95500
0"
0d
0Q
#96000
1"
1d
1Q
b1011000 P"
#96500
0"
0d
0Q
#97000
1"
1d
1Q
b1011001 P"
#97500
b111 c
0"
0d
0Q
b10 %
1i
1S
#98000
1"
1d
1Q
1E"
b1011010 P"
10!
#98500
0"
0d
0Q
#99000
1"
1d
1Q
1F"
b1011011 P"
00!
#99500
0"
0d
0Q
#100000
1"
1d
1Q
b1011100 P"
#100500
0"
0d
0Q
#101000
1"
1d
1Q
b1011101 P"
#101500
0"
0d
0Q
#102000
1"
1d
1Q
b1011110 P"
#102500
0"
0d
0Q
#103000
1"
1d
1Q
b1011111 P"
#103500
0"
0d
0Q
#104000
1"
1d
1Q
b1100000 P"
#104500
0"
0d
0Q
#105000
1"
1d
1Q
b1100001 P"
#105500
0"
0d
0Q
#106000
1"
1d
1Q
b1100010 P"
#106500
0"
0d
0Q
#107000
1"
1d
1Q
b1100011 P"
#107500
b0 %
0"
0i
0S
0d
0Q
#108000
1"
1d
1Q
0E"
b1100100 P"
#108500
0"
0d
0Q
#109000
1"
1d
1Q
0F"
b1100101 P"
#109500
0"
0d
0Q
#110000
1"
1d
1Q
b1100110 P"
#110500
0"
0d
0Q
#111000
1"
1d
1Q
b1100111 P"
#111500
0"
0d
0Q
#112000
1"
1d
1Q
b1101000 P"
#112500
0"
0d
0Q
#113000
1"
1d
1Q
b1101001 P"
#113500
0"
0d
0Q
#114000
1"
1d
1Q
b1101010 P"
#114500
0"
0d
0Q
#115000
1"
1d
1Q
b1101011 P"
#115500
0"
0d
0Q
#116000
1"
1d
1Q
b1101100 P"
#116500
0"
0d
0Q
#117000
1"
1d
1Q
b1101101 P"
#117500
b1000 c
0"
0d
0Q
b100 %
1h
1S
#118000
1"
1d
1Q
1E"
b1101110 P"
10!
#118500
0"
0d
0Q
#119000
1"
1d
1Q
1F"
b1101111 P"
00!
#119500
0"
0d
0Q
#120000
1"
1d
1Q
b1110000 P"
#120500
0"
0d
0Q
#121000
1"
1d
1Q
b1110001 P"
#121500
0"
0d
0Q
#122000
1"
1d
1Q
b1110010 P"
#122500
0"
0d
0Q
#123000
1"
1d
1Q
b1110011 P"
#123500
0"
0d
0Q
#124000
1"
1d
1Q
b1110100 P"
#124500
0"
0d
0Q
#125000
1"
1d
1Q
b1110101 P"
#125500
0"
0d
0Q
#126000
1"
1d
1Q
b1110110 P"
#126500
0"
0d
0Q
#127000
1"
1d
1Q
b1110111 P"
#127500
b0 %
0"
0h
0S
0d
0Q
#128000
1"
1d
1Q
0E"
b1111000 P"
#128500
0"
0d
0Q
#129000
1"
1d
1Q
0F"
b1111001 P"
#129500
0"
0d
0Q
#130000
1"
1d
1Q
b1111010 P"
#130500
0"
0d
0Q
#131000
1"
1d
1Q
b1111011 P"
#131500
0"
0d
0Q
#132000
1"
1d
1Q
b1111100 P"
#132500
0"
0d
0Q
#133000
1"
1d
1Q
b1111101 P"
#133500
0"
0d
0Q
#134000
1"
1d
1Q
b1111110 P"
#134500
0"
0d
0Q
#135000
1"
1d
1Q
b1111111 P"
#135500
0"
0d
0Q
#136000
1"
1d
1Q
b10000000 P"
#136500
0"
0d
0Q
