PROJETO_DRONE/Verilog/testbench_drone.vcd
$date
	Fri Mar 22 16:20:55 2024
$end
$version
	Icarus Verilog
$end
$timescale
	1s
$end
$scope module simulador_drone_tb $end
$var wire 1 ! venceu $end
$var wire 1 " perdeu $end
$var wire 7 # db_vidas [6:0] $end
$var wire 7 $ db_posicao_vertical [6:0] $end
$var wire 7 % db_posicao_horizontal [6:0] $end
$var wire 7 & db_obstaculos [6:0] $end
$var wire 2 ' db_modo [1:0] $end
$var wire 7 ( db_estado [6:0] $end
$var wire 7 ) colisao_counter_out [6:0] $end
$var reg 21 * caso [20:0] $end
$var reg 1 + clock $end
$var reg 1 , confirma $end
$var reg 2 - controle_horizontal [1:0] $end
$var reg 2 . controle_vertical [1:0] $end
$var reg 1 / iniciar $end
$var reg 1 0 reset $end
$var integer 32 1 i [31:0] $end
$scope module dut $end
$var wire 1 + clock $end
$var wire 1 , confirma $end
$var wire 2 2 controle_horizontal [1:0] $end
$var wire 2 3 controle_vertical [1:0] $end
$var wire 1 / iniciar $end
$var wire 1 0 reset $end
$var wire 1 4 zeraT $end
$var wire 1 5 zeraPosicoes $end
$var wire 3 6 vidas [2:0] $end
$var wire 1 ! venceu $end
$var wire 1 7 timeout_out $end
$var wire 1 8 timeout $end
$var wire 1 9 resetaVidas $end
$var wire 4 : posicao_vertical [3:0] $end
$var wire 4 ; posicao_horizontal [3:0] $end
$var wire 1 " perdeu $end
$var wire 4 < obstaculos [3:0] $end
$var wire 1 = fim_mapa $end
$var wire 4 > estado [3:0] $end
$var wire 1 ? escolhe_vida $end
$var wire 1 @ escolhe_modo $end
$var wire 1 A escolhe_mapa $end
$var wire 1 B desloca $end
$var wire 7 C db_vidas [6:0] $end
$var wire 7 D db_posicao_vertical [6:0] $end
$var wire 7 E db_posicao_horizontal [6:0] $end
$var wire 7 F db_obstaculos [6:0] $end
$var wire 2 G db_modo [1:0] $end
$var wire 7 H db_estado [6:0] $end
$var wire 1 I contaT $end
$var wire 1 J confirma_pulso $end
$var wire 7 K colisao_counter_out [6:0] $end
$var wire 3 L colisao_counter [2:0] $end
$var wire 1 M colisao $end
$var wire 1 N checa_colisao $end
$var wire 1 O borda_movimento $end
$var wire 1 P atualiza $end
$scope module confirma_edge $end
$var wire 1 + clock $end
$var wire 1 J pulso $end
$var wire 1 Q reset $end
$var wire 1 , sinal $end
$var reg 1 R reg0 $end
$var reg 1 S reg1 $end
$upscope $end
$scope module display_colisao_counter $end
$var wire 4 T hexa [3:0] $end
$var reg 7 U display [6:0] $end
$upscope $end
$scope module display_estado $end
$var wire 4 V hexa [3:0] $end
$var reg 7 W display [6:0] $end
$upscope $end
$scope module display_obstaculos $end
$var wire 4 X hexa [3:0] $end
$var reg 7 Y display [6:0] $end
$upscope $end
$scope module display_posicao_horizontal $end
$var wire 4 Z hexa [3:0] $end
$var reg 7 [ display [6:0] $end
$upscope $end
$scope module display_posicao_vertical $end
$var wire 4 \ hexa [3:0] $end
$var reg 7 ] display [6:0] $end
$upscope $end
$scope module display_vidas $end
$var wire 4 ^ hexa [3:0] $end
$var reg 7 _ display [6:0] $end
$upscope $end
$scope module fd $end
$var wire 1 O borda_movimento $end
$var wire 1 + clock $end
$var wire 3 ` colisao_counter_out [2:0] $end
$var wire 1 J confirma $end
$var wire 2 a controle_horizontal [1:0] $end
$var wire 2 b controle_vertical [1:0] $end
$var wire 4 c db_obstaculos [3:0] $end
$var wire 4 d db_posicao_horizontal [3:0] $end
$var wire 1 / iniciar $end
$var wire 2 e modo [1:0] $end
$var wire 1 0 reset $end
$var wire 3 f vidas_out [2:0] $end
$var wire 1 4 zeraT $end
$var wire 1 5 zeraPosicoes $end
$var wire 3 g vidas [2:0] $end
$var wire 3 h timeout_interno [2:0] $end
$var wire 1 8 timeout $end
$var wire 1 9 resetaVidas $end
$var wire 2 i posicao_vertical [1:0] $end
$var wire 4 j posicao_horizontal [3:0] $end
$var wire 2 k modo_interno [1:0] $end
$var wire 3 l mapa [2:0] $end
$var wire 1 = fim_mapa $end
$var wire 1 ? escolhe_vida $end
$var wire 1 @ escolhe_modo $end
$var wire 1 A escolhe_mapa $end
$var wire 1 B desloca $end
$var wire 4 m db_posicao_vertical [3:0] $end
$var wire 1 I contaT $end
$var wire 1 n colisao_interno_pulso $end
$var wire 1 o colisao_interno $end
$var wire 3 p colisao_counter [2:0] $end
$var wire 1 M colisao $end
$var wire 1 N checa_colisao $end
$var wire 1 q borda_vertical $end
$var wire 1 r borda_horizontal $end
$var wire 2 s borda_controle_vertical [1:0] $end
$var wire 2 t borda_controle_horizontal [1:0] $end
$var wire 1 u borda $end
$var wire 1 P atualiza $end
$scope module contador_colisao $end
$var wire 3 v D [2:0] $end
$var wire 1 + clock $end
$var wire 1 w clr $end
$var wire 1 x ld $end
$var wire 1 n ent $end
$var wire 1 N enp $end
$var reg 3 y Q [2:0] $end
$var reg 1 z rco $end
$upscope $end
$scope module contador_mapas $end
$var wire 3 { D [2:0] $end
$var wire 1 + clock $end
$var wire 1 | clr $end
$var wire 1 } enp $end
$var wire 1 ~ ld $end
$var wire 1 !" soma $end
$var wire 1 "" sub $end
$var reg 3 #" Q [2:0] $end
$var reg 1 $" rco $end
$upscope $end
$scope module contador_modo $end
$var wire 2 %" D [1:0] $end
$var wire 1 + clock $end
$var wire 1 &" clr $end
$var wire 1 '" enp $end
$var wire 1 (" ld $end
$var wire 1 )" soma $end
$var wire 1 *" sub $end
$var reg 2 +" Q [1:0] $end
$var reg 1 ," rco $end
$upscope $end
$scope module contador_posicao_horizontal $end
$var wire 4 -" D [3:0] $end
$var wire 1 + clock $end
$var wire 1 ." clr $end
$var wire 1 /" enp $end
$var wire 1 0" ld $end
$var wire 1 1" soma $end
$var wire 1 2" sub $end
$var reg 4 3" Q [3:0] $end
$var reg 1 4" rco $end
$upscope $end
$scope module contador_posicao_vertical $end
$var wire 2 5" D [1:0] $end
$var wire 1 + clock $end
$var wire 1 6" clr $end
$var wire 1 7" enp $end
$var wire 1 8" ld $end
$var wire 1 9" soma $end
$var wire 1 :" sub $end
$var reg 2 ;" Q [1:0] $end
$var reg 1 <" rco $end
$upscope $end
$scope module contador_tempo_jogada_dificl $end
$var wire 1 + clock $end
$var wire 1 =" zera_as $end
$var wire 1 4 zera_s $end
$var wire 1 I conta $end
$var reg 15 >" Q [14:0] $end
$var reg 1 ?" fim $end
$var reg 1 @" meio $end
$upscope $end
$scope module contador_tempo_jogada_facil $end
$var wire 1 + clock $end
$var wire 1 A" zera_as $end
$var wire 1 4 zera_s $end
$var wire 1 I conta $end
$var reg 16 B" Q [15:0] $end
$var reg 1 C" fim $end
$var reg 1 D" meio $end
$upscope $end
$scope module contador_tempo_jogada_medio $end
$var wire 1 + clock $end
$var wire 1 E" zera_as $end
$var wire 1 4 zera_s $end
$var wire 1 I conta $end
$var reg 16 F" Q [15:0] $end
$var reg 1 G" fim $end
$var reg 1 H" meio $end
$upscope $end
$scope module contador_vidas $end
$var wire 3 I" D [2:0] $end
$var wire 1 + clock $end
$var wire 1 J" clr $end
$var wire 1 K" enp $end
$var wire 1 L" ld $end
$var wire 1 M" soma $end
$var wire 1 N" sub $end
$var reg 3 O" Q [2:0] $end
$var reg 1 P" rco $end
$upscope $end
$scope module conversor_posicao $end
$var wire 2 Q" posicao_2b [1:0] $end
$var wire 4 R" posicao_4b [3:0] $end
$upscope $end
$scope module detector_borda_horizontal_0 $end
$var wire 1 + clock $end
$var wire 1 S" pulso $end
$var wire 1 T" reset $end
$var wire 1 U" sinal $end
$var reg 1 V" reg0 $end
$var reg 1 W" reg1 $end
$upscope $end
$scope module detector_borda_horizontal_1 $end
$var wire 1 + clock $end
$var wire 1 X" pulso $end
$var wire 1 Y" reset $end
$var wire 1 Z" sinal $end
$var reg 1 [" reg0 $end
$var reg 1 \" reg1 $end
$upscope $end
$scope module detector_borda_vertical_0 $end
$var wire 1 + clock $end
$var wire 1 ]" pulso $end
$var wire 1 ^" reset $end
$var wire 1 _" sinal $end
$var reg 1 `" reg0 $end
$var reg 1 a" reg1 $end
$upscope $end
$scope module detector_borda_vertical_1 $end
$var wire 1 + clock $end
$var wire 1 b" pulso $end
$var wire 1 c" reset $end
$var wire 1 d" sinal $end
$var reg 1 e" reg0 $end
$var reg 1 f" reg1 $end
$upscope $end
$scope module detector_colisao_pulso $end
$var wire 1 + clock $end
$var wire 1 n pulso $end
$var wire 1 g" reset $end
$var wire 1 h" sinal $end
$var reg 1 i" reg0 $end
$var reg 1 j" reg1 $end
$upscope $end
$scope module mapa_0_jogo $end
$var wire 4 k" addr [3:0] $end
$var wire 1 + clk $end
$var wire 4 l" data [3:0] $end
$var wire 4 m" q [3:0] $end
$var wire 1 n" we $end
$var reg 4 o" addr_reg [3:0] $end
$scope begin INICIA_RAM $end
$upscope $end
$upscope $end
$scope module mapa_1_jogo $end
$var wire 4 p" addr [3:0] $end
$var wire 1 + clk $end
$var wire 4 q" data [3:0] $end
$var wire 4 r" q [3:0] $end
$var wire 1 s" we $end
$var reg 4 t" addr_reg [3:0] $end
$scope begin INICIA_RAM $end
$upscope $end
$upscope $end
$upscope $end
$scope module uc $end
$var wire 1 O borda_movimento $end
$var wire 1 + clock $end
$var wire 1 M colisao $end
$var wire 1 J confirma $end
$var wire 1 = fim_mapa $end
$var wire 1 / iniciar $end
$var wire 1 0 reset $end
$var wire 1 8 timeout $end
$var reg 4 u" Eatual [3:0] $end
$var reg 4 v" Eprox [3:0] $end
$var reg 1 P atualiza_out $end
$var reg 1 N checa_colisao_out $end
$var reg 1 I contaT $end
$var reg 4 w" db_estado [3:0] $end
$var reg 1 B desloca $end
$var reg 1 A escolhe_mapa $end
$var reg 1 @ escolhe_modo $end
$var reg 1 ? escolhe_vida $end
$var reg 1 " perdeu $end
$var reg 1 9 resetaVidas $end
$var reg 1 7 timeout_out $end
$var reg 1 ! venceu $end
$var reg 1 5 zeraPosicoes $end
$var reg 1 4 zeraT $end
$upscope $end
$upscope $end
$upscope $end
$enddefinitions $end
#0
$dumpvars
bx w"
b0 v"
bx u"
bx t"
0s"
bx r"
b0 q"
bx p"
bx o"
0n"
bx m"
b0 l"
bx k"
xj"
xi"
xh"
0g"
xf"
xe"
0d"
0c"
xb"
xa"
x`"
0_"
0^"
x]"
x\"
x["
0Z"
0Y"
xX"
xW"
xV"
0U"
0T"
xS"
bx R"
bx Q"
xP"
bx O"
0N"
0M"
xL"
xK"
1J"
b1 I"
xH"
xG"
bx F"
0E"
xD"
xC"
bx B"
0A"
x@"
x?"
bx >"
0="
x<"
bx ;"
0:"
09"
x8"
x7"
16"
b10 5"
x4"
bx 3"
02"
01"
10"
x/"
x."
bz -"
x,"
bx +"
0*"
0)"
1("
x'"
1&"
bz %"
x$"
bx #"
0""
0!"
x~
x}
1|
b0 {
xz
bx y
1x
xw
bz v
xu
bx t
bx s
xr
xq
bx p
xo
xn
bx m
bx l
bx k
bx j
bx i
bx h
bx g
bx f
bx e
bx d
bx c
b0 b
b0 a
bx `
b1111111 _
b0xxx ^
b1111111 ]
bx \
bx [
bx Z
bx Y
bx X
bx W
bx V
b1111111 U
b0xxx T
xS
xR
zQ
xP
xO
xN
xM
bx L
b1111111 K
xJ
xI
bx H
bx G
bx F
bx E
b1111111 D
b1111111 C
xB
xA
x@
x?
bx >
x=
bx <
bx ;
bx :
x9
x8
x7
bx 6
x5
x4
b0 3
b0 2
bx 1
00
0/
b0 .
b0 -
0,
0+
b1 *
b1111111 )
bx (
bx '
bx &
bx %
b1111111 $
b1111111 #
x"
x!
$end
#500
0O
0u
0r
0q
0$"
0P"
0,"
0<"
04"
b1000000 (
b1000000 H
b1000000 W
0}
0h"
0K"
0'"
07"
0/"
0~
0L"
0w
08"
0."
0J
0S"
b0 t
0X"
0]"
b0 s
0b"
b0 >
b0 V
b0 w"
0A
07
0P
0N
0?
0@
0"
0!
0B
14
0I
19
15
0R
0V"
0["
0`"
0e"
b0 u"
1+
#1000
0+
#1500
b11001 $
b11001 D
b11001 ]
0z
0M
b1000000 )
b1000000 K
b1000000 U
b1111001 #
b1111001 C
b1111001 _
b100 :
b100 \
b100 m
b100 R"
0=
b1000000 %
b1000000 E
b1000000 [
0@"
0?"
0D"
0C"
0H"
b0 h
0G"
0n
0S
b0 T
b0 L
b0 `
b0 p
b0 y
b0 l
b0 #"
b1 ^
b1 6
b1 f
b1 g
b1 O"
b10 i
b10 ;"
b10 Q"
b0 ;
b0 Z
b0 d
b0 j
b0 3"
b0 k"
b0 p"
b0 >"
b0 B"
b0 F"
0W"
0\"
0a"
0f"
0i"
1+
#2000
0+
#2500
b1000000 &
b1000000 F
b1000000 Y
0o
b0 m"
b0 <
b0 X
b0 c
b0 o"
b0 r"
b0 t"
0j"
1+
#3000
0+
#3500
1+
#4000
0+
#4500
1+
#5000
0+
#5500
1+
#6000
0+
#6500
1+
#7000
0+
#7500
1+
#8000
0+
#8500
1+
#9000
0+
#9500
1+
#10000
10
0+
#10500
1+
#11000
0+
#11500
1+
#12000
0+
#12500
1+
#13000
0+
#13500
1+
#14000
0+
#14500
1+
#15000
0+
#15500
1+
#16000
0+
#16500
1+
#17000
0+
#17500
1+
#18000
0+
#18500
1+
#19000
0+
#19500
1+
#20000
0+
00
#20500
1+
#21000
0+
#21500
1+
#22000
0+
#22500
1+
#23000
0+
#23500
1+
#24000
0+
#24500
1+
#25000
0+
#25500
1+
#26000
0+
#26500
1+
#27000
0+
#27500
1+
#28000
0+
#28500
1+
#29000
0+
#29500
1+
#30000
0&"
b10 v"
0+
1/
b10 *
#30500
b100100 (
b100100 H
b100100 W
1w
18"
1."
b10 >
b10 V
b10 w"
1@
04
05
08
b0 '
b0 G
b0 e
b0 k
b0 +"
b10 u"
1+
#31000
0+
#31500
1+
#32000
0+
#32500
1+
#33000
0+
#33500
1+
#34000
0+
#34500
1+
#35000
1&"
0+
0/
#35500
1+
#36000
0+
#36500
1+
#37000
0+
#37500
1+
#38000
0+
#38500
1+
#39000
0+
#39500
1+
#40000
0+
#40500
1+
#41000
0+
#41500
1+
#42000
0+
#42500
1+
#43000
0+
#43500
1+
#44000
0+
#44500
1+
#45000
0+
b101 *
#45500
1+
#46000
0+
#46500
1+
#47000
0+
#47500
1+
#48000
0+
#48500
1+
#49000
0+
#49500
1+
#50000
0+
#50500
1+
#51000
0+
#51500
1+
#52000
0+
#52500
1+
#53000
0+
#53500
1+
#54000
0+
#54500
1+
#55000
19"
1)"
1M"
1!"
1_"
0+
b1 .
b1 3
b1 b
#55500
1,"
1O
1u
1'"
1q
b1 s
1]"
1`"
1+
#56000
0+
#56500
0O
0u
0'"
0q
b0 s
0]"
0,"
b1 '
b1 G
b1 e
b1 k
b1 +"
1a"
1+
#57000
0+
#57500
1+
#58000
0+
#58500
1+
#59000
0+
#59500
1+
#60000
0+
#60500
1+
#61000
0+
#61500
1+
#62000
0+
#62500
1+
#63000
0+
#63500
1+
#64000
0+
#64500
1+
#65000
09"
0)"
0M"
0!"
0_"
0+
b0 .
b0 3
b0 b
#65500
0`"
1+
#66000
0+
#66500
0a"
1+
#67000
0+
#67500
1+
#68000
0+
#68500
1+
#69000
0+
#69500
1+
#70000
0+
#70500
1+
#71000
0+
#71500
1+
#72000
0+
#72500
1+
#73000
0+
#73500
1+
#74000
0+
#74500
1+
#75000
0+
1,
#75500
b1001 v"
1J
1R
1+
#76000
0+
#76500
0J
b10000 (
b10000 H
b10000 W
1~
1L"
b1001 >
b1001 V
b1001 w"
1?
0@
09
b1001 v"
1S
b1001 u"
1+
#77000
0+
#77500
1+
#78000
0+
#78500
1+
#79000
0+
#79500
1+
#80000
0+
#80500
1+
#81000
0+
#81500
1+
#82000
0+
#82500
1+
#83000
0+
#83500
1+
#84000
0+
#84500
1+
#85000
0+
0,
#85500
0R
1+
#86000
0+
#86500
0S
1+
#87000
0+
#87500
1+
#88000
0+
#88500
1+
#89000
0+
#89500
1+
#90000
0+
#90500
1+
#91000
0+
#91500
1+
#92000
0+
#92500
1+
#93000
0+
#93500
1+
#94000
0+
#94500
1+
#95000
19"
1)"
1M"
1!"
1_"
0+
b1 .
b1 3
b1 b
#95500
1O
1u
1K"
1q
b1 s
1]"
1`"
1+
#96000
0+
#96500
0O
0u
0K"
0q
b0 s
0]"
b100100 #
b100100 C
b100100 _
b10 ^
b10 6
b10 f
b10 g
b10 O"
1a"
1+
#97000
0+
#97500
1+
#98000
0+
#98500
1+
#99000
0+
#99500
1+
#100000
0+
#100500
1+
#101000
0+
#101500
1+
#102000
0+
#102500
1+
#103000
0+
#103500
1+
#104000
0+
#104500
1+
#105000
09"
0)"
0M"
0!"
0_"
0+
b0 .
b0 3
b0 b
#105500
0`"
1+
#106000
0+
#106500
0a"
1+
#107000
0+
#107500
1+
#108000
0+
#108500
1+
#109000
0+
#109500
1+
#110000
0+
#110500
1+
#111000
0+
#111500
1+
#112000
0+
#112500
1+
#113000
0+
#113500
1+
#114000
0+
#114500
1+
#115000
19"
1)"
1M"
1!"
1_"
0+
b1 .
b1 3
b1 b
#115500
1O
1u
1K"
1q
b1 s
1]"
1`"
1+
#116000
0+
#116500
0O
0u
0K"
0q
b0 s
0]"
b110000 #
b110000 C
b110000 _
b11 ^
b11 6
b11 f
b11 g
b11 O"
1a"
1+
#117000
0+
#117500
1+
#118000
0+
#118500
1+
#119000
0+
#119500
1+
#120000
0+
#120500
1+
#121000
0+
#121500
1+
#122000
0+
#122500
1+
#123000
0+
#123500
1+
#124000
0+
#124500
1+
#125000
09"
0)"
0M"
0!"
0_"
0+
b0 .
b0 3
b0 b
#125500
0`"
1+
#126000
0+
#126500
0a"
1+
#127000
0+
#127500
1+
#128000
0+
#128500
1+
#129000
0+
#129500
1+
#130000
0+
#130500
1+
#131000
0+
#131500
1+
#132000
0+
#132500
1+
#133000
0+
#133500
1+
#134000
0+
#134500
1+
#135000
0+
1,
#135500
b1100 v"
1J
1R
1+
#136000
0+
#136500
0J
b1000110 (
b1000110 H
b1000110 W
b1100 >
b1100 V
b1100 w"
1A
0?
b1100 v"
1S
b1100 u"
1+
#137000
0+
#137500
1+
#138000
0+
#138500
1+
#139000
0+
#139500
1+
#140000
0+
#140500
1+
#141000
0+
#141500
1+
#142000
0+
#142500
1+
#143000
0+
#143500
1+
#144000
0+
#144500
1+
#145000
0+
0,
#145500
0R
1+
#146000
0+
#146500
0S
1+
#147000
0+
#147500
1+
#148000
0+
#148500
1+
#149000
0+
#149500
1+
#150000
0+
#150500
1+
#151000
0+
#151500
1+
#152000
0+
#152500
1+
#153000
0+
#153500
1+
#154000
0+
#154500
1+
#155000
19"
1)"
1M"
1!"
1_"
0+
b1 .
b1 3
b1 b
b1000 *
#155500
1$"
1O
1u
1}
1q
b1 s
1]"
1`"
1+
#156000
0+
#156500
0O
0u
0}
0q
b0 s
0]"
0$"
b1 l
b1 #"
1a"
1+
#157000
0+
#157500
1+
#158000
0+
#158500
1+
#159000
0+
#159500
1+
#160000
0+
#160500
1+
#161000
0+
#161500
1+
#162000
0+
#162500
1+
#163000
0+
#163500
1+
#164000
0+
#164500
1+
#165000
09"
0)"
0M"
0!"
0_"
0+
b0 .
b0 3
b0 b
#165500
0`"
1+
#166000
0+
#166500
0a"
1+
#167000
0+
#167500
1+
#168000
0+
#168500
1+
#169000
0+
#169500
1+
#170000
0+
#170500
1+
#171000
0+
#171500
1+
#172000
0+
#172500
1+
#173000
0+
#173500
1+
#174000
0+
#174500
1+
#175000
0+
1,
#175500
b1 v"
1J
1R
1+
#176000
0+
#176500
0J
b1111001 (
b1111001 H
b1111001 W
0w
08"
0."
b1 >
b1 V
b1 w"
0A
14
15
b11 v"
1S
b1 u"
1+
#177000
0+
#177500
b110000 (
b110000 H
b110000 W
1w
18"
1."
b11 >
b11 V
b11 w"
1B
04
1I
05
b11 u"
1+
#178000
0+
#178500
b1 >"
b1 B"
b1 F"
1+
#179000
0+
#179500
b10 >"
b10 B"
b10 F"
1+
#180000
0+
#180500
b11 >"
b11 B"
b11 F"
1+
#181000
0+
#181500
b100 >"
b100 B"
b100 F"
1+
#182000
0+
#182500
b101 >"
b101 B"
b101 F"
1+
#183000
0+
#183500
b110 >"
b110 B"
b110 F"
1+
#184000
0+
#184500
b111 >"
b111 B"
b111 F"
1+
#185000
0+
0,
#185500
0R
b1000 >"
b1000 B"
b1000 F"
1+
#186000
0+
#186500
0S
b1001 >"
b1001 B"
b1001 F"
1+
#187000
0+
#187500
b1010 >"
b1010 B"
b1010 F"
1+
#188000
0+
#188500
b1011 >"
b1011 B"
b1011 F"
1+
#189000
0+
#189500
b1100 >"
b1100 B"
b1100 F"
1+
#190000
0+
#190500
b1101 >"
b1101 B"
b1101 F"
1+
#191000
0+
#191500
b1110 >"
b1110 B"
b1110 F"
1+
#192000
0+
#192500
b1111 >"
b1111 B"
b1111 F"
1+
#193000
0+
#193500
b10000 >"
b10000 B"
b10000 F"
1+
#194000
0+
#194500
b10001 >"
b10001 B"
b10001 F"
1+
#195000
11"
1U"
0+
b1 -
b1 2
b1 a
b111 *
#195500
b100 v"
14"
1O
1u
1/"
1r
b1 t
1S"
b10010 >"
b10010 B"
b10010 F"
1V"
1+
#196000
0+
#196500
0O
0u
0r
b0 t
0S"
b11001 (
b11001 H
b11001 W
0/"
04"
b1111001 %
b1111001 E
b1111001 [
b100 >
b100 V
b100 w"
0B
0I
b1010 v"
b1 ;
b1 Z
b1 d
b1 j
b1 3"
b1 k"
b1 p"
b10011 >"
b10011 B"
b10011 F"
1W"
b100 u"
1+
#197000
0+
#197500
b1110 (
b1110 H
b1110 W
b1000 &
b1000 F
b1000 Y
b1111 >
b1111 V
b1111 w"
1P
b101 v"
b1010 r"
b1010 <
b1010 X
b1010 c
b1 t"
b10 m"
b1 o"
b1010 u"
1+
#198000
0+
#198500
0P
1N
b110 v"
b101 u"
1+
#199000
0+
#199500
b10 (
b10 H
b10 W
b110 >
b110 V
b110 w"
0N
b11 v"
b110 u"
1+
#200000
0+
#200500
b110000 (
b110000 H
b110000 W
b11 >
b11 V
b11 w"
1B
1I
b11 u"
1+
#201000
0+
#201500
b10100 >"
b10100 B"
b10100 F"
1+
#202000
0+
#202500
b10101 >"
b10101 B"
b10101 F"
1+
#203000
0+
#203500
b10110 >"
b10110 B"
b10110 F"
1+
#204000
0+
#204500
b10111 >"
b10111 B"
b10111 F"
1+
#205000
0+
#205500
b11000 >"
b11000 B"
b11000 F"
1+
#206000
0+
#206500
b11001 >"
b11001 B"
b11001 F"
1+
#207000
0+
#207500
b11010 >"
b11010 B"
b11010 F"
1+
#208000
0+
#208500
b11011 >"
b11011 B"
b11011 F"
1+
#209000
0+
#209500
b11100 >"
b11100 B"
b11100 F"
1+
#210000
0+
#210500
b11101 >"
b11101 B"
b11101 F"
1+
#211000
0+
#211500
b11110 >"
b11110 B"
b11110 F"
1+
#212000
0+
#212500
b11111 >"
b11111 B"
b11111 F"
1+
#213000
0+
#213500
b100000 >"
b100000 B"
b100000 F"
1+
#214000
0+
#214500
b100001 >"
b100001 B"
b100001 F"
1+
#215000
0+
#215500
b100010 >"
b100010 B"
b100010 F"
1+
#216000
0+
#216500
b100011 >"
b100011 B"
b100011 F"
1+
#217000
0+
#217500
b100100 >"
b100100 B"
b100100 F"
1+
#218000
0+
#218500
b100101 >"
b100101 B"
b100101 F"
1+
#219000
0+
#219500
b100110 >"
b100110 B"
b100110 F"
1+
#220000
0+
#220500
b100111 >"
b100111 B"
b100111 F"
1+
#221000
0+
#221500
b101000 >"
b101000 B"
b101000 F"
1+
#222000
0+
#222500
b101001 >"
b101001 B"
b101001 F"
1+
#223000
0+
#223500
b101010 >"
b101010 B"
b101010 F"
1+
#224000
0+
#224500
b101011 >"
b101011 B"
b101011 F"
1+
#225000
0+
#225500
b101100 >"
b101100 B"
b101100 F"
1+
#226000
0+
#226500
b101101 >"
b101101 B"
b101101 F"
1+
#227000
0+
#227500
b101110 >"
b101110 B"
b101110 F"
1+
#228000
0+
#228500
b101111 >"
b101111 B"
b101111 F"
1+
#229000
0+
#229500
b110000 >"
b110000 B"
b110000 F"
1+
#230000
0+
#230500
b110001 >"
b110001 B"
b110001 F"
1+
#231000
0+
#231500
b110010 >"
b110010 B"
b110010 F"
1+
#232000
0+
#232500
b110011 >"
b110011 B"
b110011 F"
1+
#233000
0+
#233500
b110100 >"
b110100 B"
b110100 F"
1+
#234000
0+
#234500
b110101 >"
b110101 B"
b110101 F"
1+
#235000
0+
#235500
b110110 >"
b110110 B"
b110110 F"
1+
#236000
0+
#236500
b110111 >"
b110111 B"
b110111 F"
1+
#237000
0+
#237500
b111000 >"
b111000 B"
b111000 F"
1+
#238000
0+
#238500
b111001 >"
b111001 B"
b111001 F"
1+
#239000
0+
#239500
b111010 >"
b111010 B"
b111010 F"
1+
#240000
0+
#240500
b111011 >"
b111011 B"
b111011 F"
1+
#241000
0+
#241500
b111100 >"
b111100 B"
b111100 F"
1+
#242000
0+
#242500
b111101 >"
b111101 B"
b111101 F"
1+
#243000
0+
#243500
b111110 >"
b111110 B"
b111110 F"
1+
#244000
0+
#244500
b111111 >"
b111111 B"
b111111 F"
1+
#245000
0+
#245500
b1000000 >"
b1000000 B"
b1000000 F"
1+
#246000
0+
#246500
b1000001 >"
b1000001 B"
b1000001 F"
1+
#247000
0+
#247500
b1000010 >"
b1000010 B"
b1000010 F"
1+
#248000
0+
#248500
b1000011 >"
b1000011 B"
b1000011 F"
1+
#249000
0+
#249500
b1000100 >"
b1000100 B"
b1000100 F"
1+
#250000
0+
#250500
b1000101 >"
b1000101 B"
b1000101 F"
1+
#251000
0+
#251500
b1000110 >"
b1000110 B"
b1000110 F"
1+
#252000
0+
#252500
b1000111 >"
b1000111 B"
b1000111 F"
1+
#253000
0+
#253500
b1001000 >"
b1001000 B"
b1001000 F"
1+
#254000
0+
#254500
b1001001 >"
b1001001 B"
b1001001 F"
1+
#255000
0+
#255500
b1001010 >"
b1001010 B"
b1001010 F"
1+
#256000
0+
#256500
b1001011 >"
b1001011 B"
b1001011 F"
1+
#257000
0+
#257500
b1001100 >"
b1001100 B"
b1001100 F"
1+
#258000
0+
#258500
b1001101 >"
b1001101 B"
b1001101 F"
1+
#259000
0+
#259500
b1001110 >"
b1001110 B"
b1001110 F"
1+
#260000
0+
#260500
b1001111 >"
b1001111 B"
b1001111 F"
1+
#261000
0+
#261500
b1010000 >"
b1010000 B"
b1010000 F"
1+
#262000
0+
#262500
b1010001 >"
b1010001 B"
b1010001 F"
1+
#263000
0+
#263500
b1010010 >"
b1010010 B"
b1010010 F"
1+
#264000
0+
#264500
b1010011 >"
b1010011 B"
b1010011 F"
1+
#265000
0+
#265500
b1010100 >"
b1010100 B"
b1010100 F"
1+
#266000
0+
#266500
b1010101 >"
b1010101 B"
b1010101 F"
1+
#267000
0+
#267500
b1010110 >"
b1010110 B"
b1010110 F"
1+
#268000
0+
#268500
b1010111 >"
b1010111 B"
b1010111 F"
1+
#269000
0+
#269500
b1011000 >"
b1011000 B"
b1011000 F"
1+
#270000
0+
#270500
b1011001 >"
b1011001 B"
b1011001 F"
1+
#271000
0+
#271500
b1011010 >"
b1011010 B"
b1011010 F"
1+
#272000
0+
#272500
b1011011 >"
b1011011 B"
b1011011 F"
1+
#273000
0+
#273500
b1011100 >"
b1011100 B"
b1011100 F"
1+
#274000
0+
#274500
b1011101 >"
b1011101 B"
b1011101 F"
1+
#275000
0+
#275500
b1011110 >"
b1011110 B"
b1011110 F"
1+
#276000
0+
#276500
b1011111 >"
b1011111 B"
b1011111 F"
1+
#277000
0+
#277500
b1100000 >"
b1100000 B"
b1100000 F"
1+
#278000
0+
#278500
b1100001 >"
b1100001 B"
b1100001 F"
1+
#279000
0+
#279500
b1100010 >"
b1100010 B"
b1100010 F"
1+
#280000
0+
#280500
b1100011 >"
b1100011 B"
b1100011 F"
1+
#281000
0+
#281500
b1100100 >"
b1100100 B"
b1100100 F"
1+
#282000
0+
#282500
b1100101 >"
b1100101 B"
b1100101 F"
1+
#283000
0+
#283500
b1100110 >"
b1100110 B"
b1100110 F"
1+
#284000
0+
#284500
b1100111 >"
b1100111 B"
b1100111 F"
1+
#285000
0+
#285500
b1101000 >"
b1101000 B"
b1101000 F"
1+
#286000
0+
#286500
b1101001 >"
b1101001 B"
b1101001 F"
1+
#287000
0+
#287500
b1101010 >"
b1101010 B"
b1101010 F"
1+
#288000
0+
#288500
b1101011 >"
b1101011 B"
b1101011 F"
1+
#289000
0+
#289500
b1101100 >"
b1101100 B"
b1101100 F"
1+
#290000
0+
#290500
b1101101 >"
b1101101 B"
b1101101 F"
1+
#291000
0+
#291500
b1101110 >"
b1101110 B"
b1101110 F"
1+
#292000
0+
#292500
b1101111 >"
b1101111 B"
b1101111 F"
1+
#293000
0+
#293500
b1110000 >"
b1110000 B"
b1110000 F"
1+
#294000
0+
#294500
b1110001 >"
b1110001 B"
b1110001 F"
1+
#295000
0+
#295500
b1110010 >"
b1110010 B"
b1110010 F"
1+
#296000
0+
#296500
b1110011 >"
b1110011 B"
b1110011 F"
1+
#297000
0+
#297500
b1110100 >"
b1110100 B"
b1110100 F"
1+
#298000
0+
#298500
b1110101 >"
b1110101 B"
b1110101 F"
1+
#299000
0+
#299500
b1110110 >"
b1110110 B"
b1110110 F"
1+
#300000
0+
#300500
b1110111 >"
b1110111 B"
b1110111 F"
1+
#301000
0+
#301500
b1111000 >"
b1111000 B"
b1111000 F"
1+
#302000
0+
#302500
b1111001 >"
b1111001 B"
b1111001 F"
1+
#303000
0+
#303500
b1111010 >"
b1111010 B"
b1111010 F"
1+
#304000
0+
#304500
b1111011 >"
b1111011 B"
b1111011 F"
1+
#305000
0+
#305500
b1111100 >"
b1111100 B"
b1111100 F"
1+
#306000
0+
