PROJETO_DRONE/Verilog/testbench_drone.vcd
$date
	Thu Mar 28 13:52:32 2024
$end
$version
	Icarus Verilog
$end
$timescale
	1s
$end
$scope module simulador_drone_tb $end
$var wire 1 ! venceu $end
$var wire 1 " perdeu $end
$var wire 7 # db_vidas [6:0] $end
$var wire 7 $ db_posicao_vertical [6:0] $end
$var wire 7 % db_posicao_horizontal [6:0] $end
$var wire 7 & db_obstaculos [6:0] $end
$var wire 2 ' db_modo [1:0] $end
$var wire 7 ( db_estado [6:0] $end
$var wire 7 ) colisao_counter_out [6:0] $end
$var reg 21 * caso [20:0] $end
$var reg 1 + clock $end
$var reg 1 , confirma $end
$var reg 2 - controle_horizontal [1:0] $end
$var reg 2 . controle_vertical [1:0] $end
$var reg 1 / iniciar $end
$var reg 1 0 reset $end
$var integer 32 1 i [31:0] $end
$scope module dut $end
$var wire 1 + clock $end
$var wire 1 , confirma $end
$var wire 2 2 controle_horizontal [1:0] $end
$var wire 2 3 controle_horizontal_interno [1:0] $end
$var wire 2 4 controle_vertical [1:0] $end
$var wire 2 5 controle_vertical_interno [1:0] $end
$var wire 2 6 db_controle_horizontal [1:0] $end
$var wire 2 7 db_controle_vertical [1:0] $end
$var wire 1 / iniciar $end
$var wire 1 0 reset $end
$var wire 1 8 zeraT $end
$var wire 1 9 zeraPosicoes $end
$var wire 3 : vidas [2:0] $end
$var wire 1 ! venceu $end
$var wire 1 ; timeout_out $end
$var wire 1 < timeout $end
$var wire 1 = restore $end
$var wire 1 > resetaVidas $end
$var wire 4 ? posicao_vertical [3:0] $end
$var wire 4 @ posicao_horizontal [3:0] $end
$var wire 1 " perdeu $end
$var wire 4 A obstaculos [3:0] $end
$var wire 1 B fim_restore $end
$var wire 1 C fim_mapa $end
$var wire 4 D estado [3:0] $end
$var wire 1 E escolhe_vida $end
$var wire 1 F escolhe_modo $end
$var wire 1 G escolhe_mapa $end
$var wire 1 H desloca $end
$var wire 7 I db_vidas [6:0] $end
$var wire 7 J db_posicao_vertical [6:0] $end
$var wire 7 K db_posicao_horizontal [6:0] $end
$var wire 7 L db_obstaculos [6:0] $end
$var wire 2 M db_modo [1:0] $end
$var wire 7 N db_estado [6:0] $end
$var wire 1 O contaT $end
$var wire 1 P confirma_pulso $end
$var wire 7 Q colisao_counter_out [6:0] $end
$var wire 3 R colisao_counter [2:0] $end
$var wire 1 S colisao $end
$var wire 1 T checa_colisao $end
$var wire 1 U borda_movimento $end
$var wire 1 V atualiza $end
$scope module confirma_edge $end
$var wire 1 + clock $end
$var wire 1 P pulso $end
$var wire 1 W reset $end
$var wire 1 , sinal $end
$var reg 1 X reg0 $end
$var reg 1 Y reg1 $end
$upscope $end
$scope module display_colisao_counter $end
$var wire 4 Z hexa [3:0] $end
$var reg 7 [ display [6:0] $end
$upscope $end
$scope module display_estado $end
$var wire 4 \ hexa [3:0] $end
$var reg 7 ] display [6:0] $end
$upscope $end
$scope module display_obstaculos $end
$var wire 4 ^ hexa [3:0] $end
$var reg 7 _ display [6:0] $end
$upscope $end
$scope module display_posicao_horizontal $end
$var wire 4 ` hexa [3:0] $end
$var reg 7 a display [6:0] $end
$upscope $end
$scope module display_posicao_vertical $end
$var wire 4 b hexa [3:0] $end
$var reg 7 c display [6:0] $end
$upscope $end
$scope module display_vidas $end
$var wire 4 d hexa [3:0] $end
$var reg 7 e display [6:0] $end
$upscope $end
$scope module fd $end
$var wire 1 U borda_movimento $end
$var wire 1 + clock $end
$var wire 3 f colisao_counter_out [2:0] $end
$var wire 1 P confirma $end
$var wire 2 g controle_horizontal [1:0] $end
$var wire 2 h controle_vertical [1:0] $end
$var wire 4 i db_obstaculos [3:0] $end
$var wire 4 j db_posicao_horizontal [3:0] $end
$var wire 1 / iniciar $end
$var wire 2 k modo [1:0] $end
$var wire 1 0 reset $end
$var wire 3 l vidas_out [2:0] $end
$var wire 1 m write_ram $end
$var wire 1 8 zeraT $end
$var wire 1 9 zeraPosicoes $end
$var wire 3 n vidas [2:0] $end
$var wire 3 o timeout_interno [2:0] $end
$var wire 1 < timeout $end
$var wire 1 = restore $end
$var wire 1 > resetaVidas $end
$var wire 2 p posicao_vertical [1:0] $end
$var wire 4 q posicao_horizontal [3:0] $end
$var wire 2 r modo_interno [1:0] $end
$var wire 3 s mapa [2:0] $end
$var wire 4 t index_restore [3:0] $end
$var wire 1 B fim_restore $end
$var wire 1 C fim_mapa $end
$var wire 1 E escolhe_vida $end
$var wire 1 F escolhe_modo $end
$var wire 1 G escolhe_mapa $end
$var wire 1 H desloca $end
$var wire 4 u db_posicao_vertical [3:0] $end
$var wire 4 v data_ram [3:0] $end
$var wire 1 O contaT $end
$var wire 1 w colisao_interno_pulso $end
$var wire 1 x colisao_interno $end
$var wire 3 y colisao_counter [2:0] $end
$var wire 1 S colisao $end
$var wire 1 T checa_colisao $end
$var wire 1 z borda_vertical $end
$var wire 1 { borda_horizontal $end
$var wire 2 | borda_controle_vertical [1:0] $end
$var wire 2 } borda_controle_horizontal [1:0] $end
$var wire 1 ~ borda $end
$var wire 1 V atualiza $end
$var wire 4 !" addr_ram [3:0] $end
$scope module contador_colisao $end
$var wire 3 "" D [2:0] $end
$var wire 1 + clock $end
$var wire 1 #" clr $end
$var wire 1 $" ld $end
$var wire 1 w ent $end
$var wire 1 T enp $end
$var reg 3 %" Q [2:0] $end
$var reg 1 &" rco $end
$upscope $end
$scope module contador_mapas $end
$var wire 3 '" D [2:0] $end
$var wire 1 + clock $end
$var wire 1 (" clr $end
$var wire 1 )" enp $end
$var wire 1 *" ld $end
$var wire 1 +" soma $end
$var wire 1 ," sub $end
$var reg 3 -" Q [2:0] $end
$var reg 1 ." rco $end
$upscope $end
$scope module contador_modo $end
$var wire 2 /" D [1:0] $end
$var wire 1 + clock $end
$var wire 1 0" clr $end
$var wire 1 1" enp $end
$var wire 1 2" ld $end
$var wire 1 3" soma $end
$var wire 1 4" sub $end
$var reg 2 5" Q [1:0] $end
$var reg 1 6" rco $end
$upscope $end
$scope module contador_posicao_horizontal $end
$var wire 4 7" D [3:0] $end
$var wire 1 + clock $end
$var wire 1 8" clr $end
$var wire 1 9" enp $end
$var wire 1 :" ld $end
$var wire 1 ;" soma $end
$var wire 1 <" sub $end
$var reg 4 =" Q [3:0] $end
$var reg 1 >" rco $end
$upscope $end
$scope module contador_posicao_vertical $end
$var wire 2 ?" D [1:0] $end
$var wire 1 + clock $end
$var wire 1 @" clr $end
$var wire 1 A" enp $end
$var wire 1 B" ld $end
$var wire 1 C" soma $end
$var wire 1 D" sub $end
$var reg 2 E" Q [1:0] $end
$var reg 1 F" rco $end
$upscope $end
$scope module contador_restore $end
$var wire 4 G" D [3:0] $end
$var wire 1 + clock $end
$var wire 1 H" clr $end
$var wire 1 I" enp $end
$var wire 1 J" ld $end
$var wire 1 = ent $end
$var reg 4 K" Q [3:0] $end
$var reg 1 B rco $end
$upscope $end
$scope module contador_tempo_jogada_dificl $end
$var wire 1 + clock $end
$var wire 1 L" zera_as $end
$var wire 1 8 zera_s $end
$var wire 1 O conta $end
$var reg 15 M" Q [14:0] $end
$var reg 1 N" fim $end
$var reg 1 O" meio $end
$upscope $end
$scope module contador_tempo_jogada_facil $end
$var wire 1 + clock $end
$var wire 1 P" zera_as $end
$var wire 1 8 zera_s $end
$var wire 1 O conta $end
$var reg 16 Q" Q [15:0] $end
$var reg 1 R" fim $end
$var reg 1 S" meio $end
$upscope $end
$scope module contador_tempo_jogada_medio $end
$var wire 1 + clock $end
$var wire 1 T" zera_as $end
$var wire 1 8 zera_s $end
$var wire 1 O conta $end
$var reg 16 U" Q [15:0] $end
$var reg 1 V" fim $end
$var reg 1 W" meio $end
$upscope $end
$scope module contador_vidas $end
$var wire 3 X" D [2:0] $end
$var wire 1 + clock $end
$var wire 1 Y" clr $end
$var wire 1 Z" enp $end
$var wire 1 [" ld $end
$var wire 1 \" soma $end
$var wire 1 ]" sub $end
$var reg 3 ^" Q [2:0] $end
$var reg 1 _" rco $end
$upscope $end
$scope module conversor_posicao $end
$var wire 2 `" posicao_2b [1:0] $end
$var wire 4 a" posicao_4b [3:0] $end
$upscope $end
$scope module detector_borda_horizontal_0 $end
$var wire 1 + clock $end
$var wire 1 b" pulso $end
$var wire 1 c" reset $end
$var wire 1 d" sinal $end
$var reg 1 e" reg0 $end
$var reg 1 f" reg1 $end
$upscope $end
$scope module detector_borda_horizontal_1 $end
$var wire 1 + clock $end
$var wire 1 g" pulso $end
$var wire 1 h" reset $end
$var wire 1 i" sinal $end
$var reg 1 j" reg0 $end
$var reg 1 k" reg1 $end
$upscope $end
$scope module detector_borda_vertical_0 $end
$var wire 1 + clock $end
$var wire 1 l" pulso $end
$var wire 1 m" reset $end
$var wire 1 n" sinal $end
$var reg 1 o" reg0 $end
$var reg 1 p" reg1 $end
$upscope $end
$scope module detector_borda_vertical_1 $end
$var wire 1 + clock $end
$var wire 1 q" pulso $end
$var wire 1 r" reset $end
$var wire 1 s" sinal $end
$var reg 1 t" reg0 $end
$var reg 1 u" reg1 $end
$upscope $end
$scope module detector_colisao_pulso $end
$var wire 1 + clock $end
$var wire 1 w pulso $end
$var wire 1 v" reset $end
$var wire 1 w" sinal $end
$var reg 1 x" reg0 $end
$var reg 1 y" reg1 $end
$upscope $end
$scope module mapa_0 $end
$var wire 4 z" address [3:0] $end
$var wire 1 + clock $end
$var reg 4 {" data_out [3:0] $end
$upscope $end
$scope module mapa_0_jogo $end
$var wire 4 |" addr [3:0] $end
$var wire 1 + clk $end
$var wire 4 }" data [3:0] $end
$var wire 4 ~" q [3:0] $end
$var wire 1 m we $end
$var reg 4 !# addr_reg [3:0] $end
$scope begin INICIA_RAM $end
$upscope $end
$upscope $end
$scope module mapa_1 $end
$var wire 4 "# address [3:0] $end
$var wire 1 + clock $end
$var reg 4 ## data_out [3:0] $end
$upscope $end
$scope module mapa_1_jogo $end
$var wire 4 $# addr [3:0] $end
$var wire 1 + clk $end
$var wire 4 %# data [3:0] $end
$var wire 4 &# q [3:0] $end
$var wire 1 m we $end
$var reg 4 '# addr_reg [3:0] $end
$scope begin INICIA_RAM $end
$upscope $end
$upscope $end
$upscope $end
$scope module uc $end
$var wire 1 U borda_movimento $end
$var wire 1 + clock $end
$var wire 1 S colisao $end
$var wire 1 P confirma $end
$var wire 1 C fim_mapa $end
$var wire 1 B fim_restore $end
$var wire 1 / iniciar $end
$var wire 1 0 reset $end
$var wire 1 < timeout $end
$var reg 4 (# Eatual [3:0] $end
$var reg 4 )# Eprox [3:0] $end
$var reg 1 V atualiza_out $end
$var reg 1 T checa_colisao_out $end
$var reg 1 O contaT $end
$var reg 4 *# db_estado [3:0] $end
$var reg 1 H desloca $end
$var reg 1 G escolhe_mapa $end
$var reg 1 F escolhe_modo $end
$var reg 1 E escolhe_vida $end
$var reg 1 " perdeu $end
$var reg 1 > resetaVidas $end
$var reg 1 = restore $end
$var reg 1 ; timeout_out $end
$var reg 1 ! venceu $end
$var reg 1 9 zeraPosicoes $end
$var reg 1 8 zeraT $end
$upscope $end
$upscope $end
$upscope $end
$enddefinitions $end
#0
$dumpvars
bx *#
b0 )#
bx (#
bx '#
bx &#
bx %#
bx $#
bx ##
bx "#
bx !#
bx ~"
bx }"
bx |"
bx {"
bx z"
xy"
xx"
xw"
0v"
xu"
xt"
0s"
0r"
xq"
xp"
xo"
0n"
0m"
xl"
xk"
xj"
0i"
0h"
xg"
xf"
xe"
0d"
0c"
xb"
bx a"
bx `"
x_"
bx ^"
0]"
0\"
x["
xZ"
1Y"
b1 X"
xW"
xV"
bx U"
0T"
xS"
xR"
bx Q"
0P"
xO"
xN"
bx M"
0L"
bx K"
1J"
1I"
1H"
bz G"
xF"
bx E"
0D"
0C"
xB"
xA"
1@"
b10 ?"
x>"
bx ="
0<"
0;"
1:"
x9"
x8"
bz 7"
x6"
bx 5"
04"
03"
12"
x1"
10"
bz /"
x."
bx -"
0,"
0+"
x*"
x)"
1("
b0 '"
x&"
bx %"
1$"
x#"
bz ""
bx !"
x~
bx }
bx |
x{
xz
bx y
xx
xw
bx v
bx u
bx t
bx s
bx r
bx q
bx p
bx o
bx n
xm
bx l
bx k
bx j
bx i
b0 h
b0 g
bx f
b1111111 e
b0xxx d
b1111111 c
bx b
bx a
bx `
bx _
bx ^
bx ]
bx \
b1111111 [
b0xxx Z
xY
xX
zW
xV
xU
xT
xS
bx R
b1111111 Q
xP
xO
bx N
bx M
bx L
bx K
b1111111 J
b1111111 I
xH
xG
xF
xE
bx D
xC
xB
bx A
bx @
bx ?
x>
x=
x<
x;
bx :
x9
x8
b0 7
b0 6
b0 5
b0 4
b0 3
b0 2
bx 1
00
0/
b0 .
b0 -
0,
0+
b1 *
b1111111 )
bx (
bx '
bx &
bx %
b1111111 $
b1111111 #
x"
x!
$end
#500
0U
0~
0{
0z
0."
0_"
06"
0F"
0>"
b1000000 (
b1000000 N
b1000000 ]
0m
0B
0)"
0w"
0Z"
01"
0A"
09"
0*"
0["
0#"
0B"
08"
0P
0b"
b0 }
0g"
0l"
b0 |
0q"
b0 D
b0 \
b0 *#
0=
0G
0;
0V
0T
0E
0F
0"
0!
0H
18
0O
1>
19
0X
0e"
0j"
0o"
0t"
b0 (#
1+
#1000
0+
#1500
b11001 $
b11001 J
b11001 c
0&"
0S
b1000000 )
b1000000 Q
b1000000 [
b1111001 #
b1111001 I
b1111001 e
b100 ?
b100 b
b100 u
b100 a"
b0 !"
b0 |"
b0 $#
0C
b1000000 %
b1000000 K
b1000000 a
0O"
0N"
0S"
0R"
0W"
b0 o
0V"
0w
0Y
b0 Z
b0 R
b0 f
b0 y
b0 %"
b0 s
b0 -"
b1 d
b1 :
b1 l
b1 n
b1 ^"
b10 p
b10 E"
b10 `"
b0 @
b0 `
b0 j
b0 q
b0 ="
b0 M"
b0 Q"
b0 U"
0f"
0k"
0p"
0u"
0x"
1+
#2000
0+
#2500
b1000000 &
b1000000 L
b1000000 _
0x
b1100 v
b1100 }"
b1100 %#
b0 ~"
b0 A
b0 ^
b0 i
b0 !#
b0 &#
b0 '#
0y"
1+
#3000
0+
#3500
1+
#4000
0+
#4500
1+
#5000
0+
#5500
1+
#6000
0+
#6500
1+
#7000
0+
#7500
1+
#8000
0+
#8500
1+
#9000
0+
#9500
1+
#10000
0H"
10
0+
#10500
b0 t
b0 K"
b0 z"
b0 "#
1+
#11000
0+
#11500
b0 ##
b0 {"
1+
#12000
0+
#12500
1+
#13000
0+
#13500
1+
#14000
0+
#14500
1+
#15000
0+
#15500
1+
#16000
0+
#16500
1+
#17000
0+
#17500
1+
#18000
0+
#18500
1+
#19000
0+
#19500
1+
#20000
1H"
0+
00
#20500
1+
#21000
0+
#21500
1+
#22000
0+
#22500
1+
#23000
0+
#23500
1+
#24000
0+
#24500
1+
#25000
0+
#25500
1+
#26000
0+
#26500
1+
#27000
0+
#27500
1+
#28000
0+
#28500
1+
#29000
0+
#29500
1+
#30000
0H"
00"
b10 )#
0+
1/
b10 *
#30500
b100100 (
b100100 N
b100100 ]
1#"
1B"
18"
b10 D
b10 \
b10 *#
1F
08
09
0<
b0 '
b0 M
b0 k
b0 r
b0 5"
b10 (#
1+
#31000
0+
#31500
1+
#32000
0+
#32500
1+
#33000
0+
#33500
1+
#34000
0+
#34500
1+
#35000
1H"
10"
0+
0/
#35500
1+
#36000
0+
#36500
1+
#37000
0+
#37500
1+
#38000
0+
#38500
1+
#39000
0+
#39500
1+
#40000
0+
#40500
1+
#41000
0+
#41500
1+
#42000
0+
#42500
1+
#43000
0+
#43500
1+
#44000
0+
#44500
1+
#45000
0+
b101 *
#45500
1+
#46000
0+
#46500
1+
#47000
0+
#47500
1+
#48000
0+
#48500
1+
#49000
0+
#49500
1+
#50000
0+
#50500
1+
#51000
0+
#51500
1+
#52000
0+
#52500
1+
#53000
0+
#53500
1+
#54000
0+
#54500
1+
#55000
1C"
13"
1\"
1+"
1n"
0+
b1 7
b1 5
b1 .
b1 4
b1 h
#55500
16"
1U
1~
11"
1z
b1 |
1l"
1o"
1+
#56000
0+
#56500
0U
0~
01"
0z
b0 |
0l"
06"
b1 '
b1 M
b1 k
b1 r
b1 5"
1p"
1+
#57000
0+
#57500
1+
#58000
0+
#58500
1+
#59000
0+
#59500
1+
#60000
0+
#60500
1+
#61000
0+
#61500
1+
#62000
0+
#62500
1+
#63000
0+
#63500
1+
#64000
0+
#64500
1+
#65000
0C"
03"
0\"
0+"
0n"
0+
b0 7
b0 5
b0 .
b0 4
b0 h
#65500
0o"
1+
#66000
0+
#66500
0p"
1+
#67000
0+
#67500
1+
#68000
0+
#68500
1+
#69000
0+
#69500
1+
#70000
0+
#70500
1+
#71000
0+
#71500
1+
#72000
0+
#72500
1+
#73000
0+
#73500
1+
#74000
0+
#74500
1+
#75000
0+
1,
#75500
b1001 )#
1P
1X
1+
#76000
0+
#76500
0P
b10000 (
b10000 N
b10000 ]
1*"
1["
b1001 D
b1001 \
b1001 *#
1E
0F
0>
b1001 )#
1Y
b1001 (#
1+
#77000
0+
#77500
1+
#78000
0+
#78500
1+
#79000
0+
#79500
1+
#80000
0+
#80500
1+
#81000
0+
#81500
1+
#82000
0+
#82500
1+
#83000
0+
#83500
1+
#84000
0+
#84500
1+
#85000
0+
0,
#85500
0X
1+
#86000
0+
#86500
0Y
1+
#87000
0+
#87500
1+
#88000
0+
#88500
1+
#89000
0+
#89500
1+
#90000
0+
#90500
1+
#91000
0+
#91500
1+
#92000
0+
#92500
1+
#93000
0+
#93500
1+
#94000
0+
#94500
1+
#95000
1C"
13"
1\"
1+"
1n"
0+
b1 7
b1 5
b1 .
b1 4
b1 h
#95500
1U
1~
1Z"
1z
b1 |
1l"
1o"
1+
#96000
0+
#96500
0U
0~
0Z"
0z
b0 |
0l"
b100100 #
b100100 I
b100100 e
b10 d
b10 :
b10 l
b10 n
b10 ^"
1p"
1+
#97000
0+
#97500
1+
#98000
0+
#98500
1+
#99000
0+
#99500
1+
#100000
0+
#100500
1+
#101000
0+
#101500
1+
#102000
0+
#102500
1+
#103000
0+
#103500
1+
#104000
0+
#104500
1+
#105000
0C"
03"
0\"
0+"
0n"
0+
b0 7
b0 5
b0 .
b0 4
b0 h
#105500
0o"
1+
#106000
0+
#106500
0p"
1+
#107000
0+
#107500
1+
#108000
0+
#108500
1+
#109000
0+
#109500
1+
#110000
0+
#110500
1+
#111000
0+
#111500
1+
#112000
0+
#112500
1+
#113000
0+
#113500
1+
#114000
0+
#114500
1+
#115000
1C"
13"
1\"
1+"
1n"
0+
b1 7
b1 5
b1 .
b1 4
b1 h
#115500
1U
1~
1Z"
1z
b1 |
1l"
1o"
1+
#116000
0+
#116500
0U
0~
0Z"
0z
b0 |
0l"
b110000 #
b110000 I
b110000 e
b11 d
b11 :
b11 l
b11 n
b11 ^"
1p"
1+
#117000
0+
#117500
1+
#118000
0+
#118500
1+
#119000
0+
#119500
1+
#120000
0+
#120500
1+
#121000
0+
#121500
1+
#122000
0+
#122500
1+
#123000
0+
#123500
1+
#124000
0+
#124500
1+
#125000
0C"
03"
0\"
0+"
0n"
0+
b0 7
b0 5
b0 .
b0 4
b0 h
#125500
0o"
1+
#126000
0+
#126500
0p"
1+
#127000
0+
#127500
1+
#128000
0+
#128500
1+
#129000
0+
#129500
1+
#130000
0+
#130500
1+
#131000
0+
#131500
1+
#132000
0+
#132500
1+
#133000
0+
#133500
1+
#134000
0+
#134500
1+
#135000
0+
1,
#135500
b1100 )#
1P
1X
1+
#136000
0+
#136500
0P
b1000110 (
b1000110 N
b1000110 ]
b1100 D
b1100 \
b1100 *#
1G
0E
b1100 )#
1Y
b1100 (#
1+
#137000
0+
#137500
1+
#138000
0+
#138500
1+
#139000
0+
#139500
1+
#140000
0+
#140500
1+
#141000
0+
#141500
1+
#142000
0+
#142500
1+
#143000
0+
#143500
1+
#144000
0+
#144500
1+
#145000
0+
0,
#145500
0X
1+
#146000
0+
#146500
0Y
1+
#147000
0+
#147500
1+
#148000
0+
#148500
1+
#149000
0+
#149500
1+
#150000
0+
#150500
1+
#151000
0+
#151500
1+
#152000
0+
#152500
1+
#153000
0+
#153500
1+
#154000
0+
#154500
1+
#155000
1C"
13"
1\"
1+"
1n"
0+
b1 7
b1 5
b1 .
b1 4
b1 h
b1000 *
#155500
1."
1U
1~
1)"
1z
b1 |
1l"
1o"
1+
#156000
0+
#156500
0U
0~
0)"
0z
b0 |
0l"
0."
b1 s
b1 -"
1p"
1+
#157000
0+
#157500
1+
#158000
0+
#158500
1+
#159000
0+
#159500
1+
#160000
0+
#160500
1+
#161000
0+
#161500
1+
#162000
0+
#162500
1+
#163000
0+
#163500
1+
#164000
0+
#164500
1+
#165000
0C"
03"
0\"
0+"
0n"
0+
b0 7
b0 5
b0 .
b0 4
b0 h
#165500
0o"
1+
#166000
0+
#166500
0p"
1+
#167000
0+
#167500
1+
#168000
0+
#168500
1+
#169000
0+
#169500
1+
#170000
0+
#170500
1+
#171000
0+
#171500
1+
#172000
0+
#172500
1+
#173000
0+
#173500
1+
#174000
0+
#174500
1+
#175000
0+
b1001 *
1,
#175500
b1101 )#
1P
1X
1+
#176000
0+
#176500
0P
b100001 (
b100001 N
b100001 ]
b0 v
b0 }"
b0 %#
1m
b1101 D
b1101 \
b1101 *#
1=
0G
1Y
b1101 (#
1+
#177000
0+
#177500
b1 !"
b1 |"
b1 $#
b1 t
b1 K"
b1 z"
b1 "#
1+
#178000
0+
#178500
b10 !"
b10 |"
b10 $#
b10 t
b10 K"
b10 z"
b10 "#
b1 !#
b1 '#
b1010 v
b1010 }"
b1010 %#
b10 {"
b1010 ##
1+
#179000
0+
#179500
b1000 &
b1000 L
b1000 _
b11 !"
b11 |"
b11 $#
b1010 &#
b1010 A
b1010 ^
b1010 i
b10 '#
b1010 ~"
b10 !#
b11 t
b11 K"
b11 z"
b11 "#
b10 v
b10 }"
b10 %#
b10 ##
b100 {"
1+
#180000
0+
#180500
b100 !"
b100 |"
b100 $#
b100100 &
b100100 L
b100100 _
b100 t
b100 K"
b100 z"
b100 "#
b10 ~"
b11 !#
b10 &#
b10 A
b10 ^
b10 i
b11 '#
b100 v
b100 }"
b100 %#
b1000 {"
b100 ##
1+
#181000
0+
#181500
b11001 &
b11001 L
b11001 _
1x
b101 !"
b101 |"
b101 $#
b100 &#
b100 A
b100 ^
b100 i
b100 '#
b100 ~"
b100 !#
b101 t
b101 K"
b101 z"
b101 "#
b101 v
b101 }"
b101 %#
b101 ##
b100 {"
1+
#182000
0+
#182500
b110 !"
b110 |"
b110 $#
b10010 &
b10010 L
b10010 _
b110 t
b110 K"
b110 z"
b110 "#
b101 ~"
b101 !#
b101 &#
b101 A
b101 ^
b101 i
b101 '#
b1 v
b1 }"
b1 %#
b10 {"
b1 ##
1+
#183000
0+
#183500
b1111001 &
b1111001 L
b1111001 _
0x
b111 !"
b111 |"
b111 $#
b1 &#
b1 A
b1 ^
b1 i
b110 '#
b1 ~"
b110 !#
b111 t
b111 K"
b111 z"
b111 "#
b1010 v
b1010 }"
b1010 %#
b1010 ##
b1 {"
1+
#184000
0+
#184500
b1000 !"
b1000 |"
b1000 $#
b1000 &
b1000 L
b1000 _
b1000 t
b1000 K"
b1000 z"
b1000 "#
b1010 ~"
b111 !#
b1010 &#
b1010 A
b1010 ^
b1010 i
b111 '#
b1001 v
b1001 }"
b1001 %#
b1001 ##
1+
#185000
0+
0,
#185500
b10000 &
b10000 L
b10000 _
b1001 !"
b1001 |"
b1001 $#
0X
b1001 &#
b1001 A
b1001 ^
b1001 i
b1000 '#
b1001 ~"
b1000 !#
b1001 t
b1001 K"
b1001 z"
b1001 "#
b10 v
b10 }"
b10 %#
b10 ##
b10 {"
1+
#186000
0+
#186500
b1010 !"
b1010 |"
b1010 $#
b100100 &
b100100 L
b100100 _
0Y
b1010 t
b1010 K"
b1010 z"
b1010 "#
b10 ~"
b1001 !#
b10 &#
b10 A
b10 ^
b10 i
b1001 '#
b1000 v
b1000 }"
b1000 %#
b1000 ##
1+
#187000
0+
#187500
b0 &
b0 L
b0 _
b1011 !"
b1011 |"
b1011 $#
b1000 &#
b1000 A
b1000 ^
b1000 i
b1010 '#
b1000 ~"
b1010 !#
b1011 t
b1011 K"
b1011 z"
b1011 "#
b100 v
b100 }"
b100 %#
b100 ##
b100 {"
1+
#188000
0+
#188500
b1100 !"
b1100 |"
b1100 $#
b11001 &
b11001 L
b11001 _
1x
b1100 t
b1100 K"
b1100 z"
b1100 "#
b100 ~"
b1011 !#
b100 &#
b100 A
b100 ^
b100 i
b1011 '#
b101 v
b101 }"
b101 %#
b101 ##
1+
#189000
0+
#189500
b10010 &
b10010 L
b10010 _
b1101 !"
b1101 |"
b1101 $#
b101 &#
b101 A
b101 ^
b101 i
b1100 '#
b101 ~"
b1100 !#
b1101 t
b1101 K"
b1101 z"
b1101 "#
b1100 v
b1100 }"
b1100 %#
b1100 ##
b1000 {"
1+
#190000
0+
#190500
b1110 !"
b1110 |"
b1110 $#
b1000110 &
b1000110 L
b1000110 _
b1110 t
b1110 K"
b1110 z"
b1110 "#
b1100 ~"
b1101 !#
b1100 &#
b1100 A
b1100 ^
b1100 i
b1101 '#
b10 v
b10 }"
b10 %#
b10 ##
1+
#191000
0+
#191500
b1 )#
b100100 &
b100100 L
b100100 _
0x
1B
b1111 !"
b1111 |"
b1111 $#
b10 &#
b10 A
b10 ^
b10 i
b1110 '#
b10 ~"
b1110 !#
b1111 t
b1111 K"
b1111 z"
b1111 "#
b100 v
b100 }"
b100 %#
b100 ##
b1 {"
1+
#192000
0+
#192500
b1111001 (
b1111001 N
b1111001 ]
0#"
0B"
08"
0B
b0 !"
b0 |"
b0 $#
b11001 &
b11001 L
b11001 _
1x
b1 D
b1 \
b1 *#
18
19
b11 )#
b0 t
b0 K"
b0 z"
b0 "#
b100 ~"
b1111 !#
b100 &#
b100 A
b100 ^
b100 i
b1111 '#
b1 (#
b101 v
b101 }"
b101 %#
b100 {"
b101 ##
1+
#193000
0+
#193500
b110000 (
b110000 N
b110000 ]
0m
1#"
1B"
18"
b10010 &
b10010 L
b10010 _
b11 D
b11 \
b11 *#
0=
1H
08
1O
09
b101 &#
b101 A
b101 ^
b101 i
b0 '#
b101 ~"
b0 !#
b1 t
b1 K"
b1 z"
b1 "#
b11 (#
b1 v
b1 }"
b1 %#
b0 ##
b0 {"
1+
#194000
0+
#194500
b1 M"
b1 Q"
b1 U"
b10 {"
b1010 ##
1+
#195000
0+
#195500
b10 M"
b10 Q"
b10 U"
1+
#196000
0+
#196500
b11 M"
b11 Q"
b11 U"
1+
#197000
0+
#197500
b100 M"
b100 Q"
b100 U"
1+
#198000
0+
#198500
b101 M"
b101 Q"
b101 U"
1+
#199000
0+
#199500
b110 M"
b110 Q"
b110 U"
1+
#200000
0+
#200500
b111 M"
b111 Q"
b111 U"
1+
#201000
0+
#201500
b1000 M"
b1000 Q"
b1000 U"
1+
#202000
0+
#202500
b1001 M"
b1001 Q"
b1001 U"
1+
#203000
0+
#203500
b1010 M"
b1010 Q"
b1010 U"
1+
#204000
0+
#204500
b1011 M"
b1011 Q"
b1011 U"
1+
#205000
0+
#205500
b1100 M"
b1100 Q"
b1100 U"
1+
#206000
0+
#206500
b1101 M"
b1101 Q"
b1101 U"
1+
#207000
0+
#207500
b1110 M"
b1110 Q"
b1110 U"
1+
#208000
0+
#208500
b1111 M"
b1111 Q"
b1111 U"
1+
#209000
0+
#209500
b10000 M"
b10000 Q"
b10000 U"
1+
#210000
0+
#210500
b10001 M"
b10001 Q"
b10001 U"
1+
#211000
0+
#211500
b10010 M"
b10010 Q"
b10010 U"
1+
#212000
0+
#212500
b10011 M"
b10011 Q"
b10011 U"
1+
#213000
0+
#213500
b10100 M"
b10100 Q"
b10100 U"
1+
#214000
0+
#214500
b10101 M"
b10101 Q"
b10101 U"
1+
#215000
0+
#215500
b10110 M"
b10110 Q"
b10110 U"
1+
#216000
0+
#216500
b10111 M"
b10111 Q"
b10111 U"
1+
#217000
0+
#217500
b11000 M"
b11000 Q"
b11000 U"
1+
#218000
0+
#218500
b11001 M"
b11001 Q"
b11001 U"
1+
#219000
0+
#219500
b11010 M"
b11010 Q"
b11010 U"
1+
#220000
0+
#220500
b11011 M"
b11011 Q"
b11011 U"
1+
#221000
0+
#221500
b11100 M"
b11100 Q"
b11100 U"
1+
#222000
0+
#222500
b11101 M"
b11101 Q"
b11101 U"
1+
#223000
0+
#223500
b11110 M"
b11110 Q"
b11110 U"
1+
#224000
0+
#224500
b11111 M"
b11111 Q"
b11111 U"
1+
#225000
0+
#225500
b100000 M"
b100000 Q"
b100000 U"
1+
#226000
0+
#226500
b100001 M"
b100001 Q"
b100001 U"
1+
#227000
0+
#227500
b100010 M"
b100010 Q"
b100010 U"
1+
#228000
0+
#228500
b100011 M"
b100011 Q"
b100011 U"
1+
#229000
0+
#229500
b100100 M"
b100100 Q"
b100100 U"
1+
#230000
0+
#230500
b100101 M"
b100101 Q"
b100101 U"
1+
#231000
0+
#231500
b100110 M"
b100110 Q"
b100110 U"
1+
#232000
0+
#232500
b100111 M"
b100111 Q"
b100111 U"
1+
#233000
0+
#233500
b101000 M"
b101000 Q"
b101000 U"
1+
#234000
0+
#234500
b101001 M"
b101001 Q"
b101001 U"
1+
#235000
0+
#235500
b101010 M"
b101010 Q"
b101010 U"
1+
#236000
0+
#236500
b101011 M"
b101011 Q"
b101011 U"
1+
#237000
0+
#237500
b101100 M"
b101100 Q"
b101100 U"
1+
#238000
0+
#238500
b101101 M"
b101101 Q"
b101101 U"
1+
#239000
0+
#239500
b101110 M"
b101110 Q"
b101110 U"
1+
#240000
0+
#240500
b101111 M"
b101111 Q"
b101111 U"
1+
#241000
0+
