experiencia-5/testbench_acertou.vcd
$date
	Sat Feb  3 15:33:20 2024
$end
$version
	Icarus Verilog
$end
$timescale
	1ns
$end
$scope module circuito_exp5_tb_acertou $end
$var wire 1 ! pronto_out $end
$var wire 4 " leds_out [3:0] $end
$var wire 1 # errou_out $end
$var wire 1 $ db_tem_jogada_out $end
$var wire 7 % db_memoria_out [6:0] $end
$var wire 7 & db_jogadafeita_out [6:0] $end
$var wire 1 ' db_iniciar_out $end
$var wire 1 ( db_igual_out $end
$var wire 7 ) db_estado_out [6:0] $end
$var wire 7 * db_contagem_out [6:0] $end
$var wire 1 + db_clock_out $end
$var wire 1 , acertou_out $end
$var reg 32 - caso [31:0] $end
$var reg 4 . chaves_in [3:0] $end
$var reg 1 / clock_in $end
$var reg 1 0 iniciar_in $end
$var reg 1 1 reset_in $end
$scope module dut $end
$var wire 4 2 chaves [3:0] $end
$var wire 1 / clock $end
$var wire 1 + db_clock $end
$var wire 1 ( db_igual $end
$var wire 1 ' db_iniciar $end
$var wire 1 0 iniciar $end
$var wire 4 3 leds [3:0] $end
$var wire 1 1 reset $end
$var wire 1 4 zeraR $end
$var wire 1 5 zeraC $end
$var wire 1 6 registraR $end
$var wire 1 ! pronto $end
$var wire 1 7 jogada $end
$var wire 1 8 igual $end
$var wire 1 9 fimC $end
$var wire 1 # errou $end
$var wire 1 $ db_tem_jogada $end
$var wire 4 : db_memoria_hex [3:0] $end
$var wire 7 ; db_memoria [6:0] $end
$var wire 7 < db_jogadafeita [6:0] $end
$var wire 4 = db_jogada_hex [3:0] $end
$var wire 4 > db_estado_hex [3:0] $end
$var wire 7 ? db_estado [6:0] $end
$var wire 4 @ db_contagem_hex [3:0] $end
$var wire 7 A db_contagem [6:0] $end
$var wire 1 B contaC $end
$var wire 1 , acertou $end
$scope module fd $end
$var wire 4 C chaves [3:0] $end
$var wire 1 / clock $end
$var wire 4 D db_contagem [3:0] $end
$var wire 4 E db_jogada [3:0] $end
$var wire 4 F db_memoria [3:0] $end
$var wire 1 $ db_tem_jogada $end
$var wire 1 4 zeraR $end
$var wire 1 5 zeraC $end
$var wire 4 G s_endereco [3:0] $end
$var wire 4 H s_dado [3:0] $end
$var wire 4 I s_chaves [3:0] $end
$var wire 1 6 registraR $end
$var wire 1 7 jogada_feita $end
$var wire 1 9 fimC $end
$var wire 1 B contaC $end
$var wire 1 8 chavesIgualMemoria $end
$scope module comparador $end
$var wire 1 J AEBi $end
$var wire 1 8 AEBo $end
$var wire 1 K AGBi $end
$var wire 1 L AGBo $end
$var wire 1 M ALBi $end
$var wire 1 N ALBo $end
$var wire 5 O CSL [4:0] $end
$var wire 5 P CSG [4:0] $end
$var wire 4 Q B [3:0] $end
$var wire 4 R A [3:0] $end
$upscope $end
$scope module contador $end
$var wire 4 S D [3:0] $end
$var wire 1 / clock $end
$var wire 1 T clr $end
$var wire 1 U ent $end
$var wire 1 V ld $end
$var wire 1 B enp $end
$var reg 4 W Q [3:0] $end
$var reg 1 9 rco $end
$upscope $end
$scope module edge_detect $end
$var wire 1 / clock $end
$var wire 1 7 pulso $end
$var wire 1 $ sinal $end
$var wire 1 6 reset $end
$var reg 1 X reg0 $end
$var reg 1 Y reg1 $end
$upscope $end
$scope module memoria $end
$var wire 4 Z address [3:0] $end
$var wire 1 / clock $end
$var reg 4 [ data_out [3:0] $end
$upscope $end
$scope module registrador $end
$var wire 4 \ D [3:0] $end
$var wire 4 ] Q [3:0] $end
$var wire 1 / clock $end
$var wire 1 6 enable $end
$var wire 1 4 clear $end
$var reg 4 ^ IQ [3:0] $end
$upscope $end
$upscope $end
$scope module hexa7seg_CHAVES $end
$var wire 4 _ hexa [3:0] $end
$var reg 7 ` display [6:0] $end
$upscope $end
$scope module hexa7seg_CONT $end
$var wire 4 a hexa [3:0] $end
$var reg 7 b display [6:0] $end
$upscope $end
$scope module hexa7seg_EST $end
$var wire 4 c hexa [3:0] $end
$var reg 7 d display [6:0] $end
$upscope $end
$scope module hexa7seg_MEM $end
$var wire 4 e hexa [3:0] $end
$var reg 7 f display [6:0] $end
$upscope $end
$scope module uc $end
$var wire 1 / clock $end
$var wire 1 9 fimC $end
$var wire 1 8 igual $end
$var wire 1 0 iniciar $end
$var wire 1 7 jogada $end
$var wire 1 1 reset $end
$var reg 4 g Eatual [3:0] $end
$var reg 4 h Eprox [3:0] $end
$var reg 1 , acertou $end
$var reg 1 B contaC $end
$var reg 4 i db_estado [3:0] $end
$var reg 1 # errou $end
$var reg 1 ! pronto $end
$var reg 1 6 registraR $end
$var reg 1 5 zeraC $end
$var reg 1 4 zeraR $end
$upscope $end
$upscope $end
$upscope $end
$enddefinitions $end
#0
$dumpvars
bx i
b0 h
bx g
bx f
bx e
bx d
bx c
bx b
bx a
bx `
bx _
bx ^
bx ]
b0 \
bx [
bx Z
xY
xX
bx W
1V
1U
xT
b0 S
bx R
bx Q
bx P
bx O
xN
0M
xL
0K
1J
bx I
bx H
bx G
bx F
bx E
bx D
b0 C
xB
bx A
bx @
bx ?
bx >
bx =
bx <
bx ;
bx :
09
x8
x7
x6
x5
x4
bx 3
b0 2
01
00
1/
b0 .
b0 -
x,
1+
bx *
bx )
x(
0'
bx &
bx %
0$
x#
bx "
x!
$end
#10
0+
0/
#20
b1000000 &
b1000000 <
b1000000 `
b0 "
b0 3
b0 =
b0 E
b0 _
b0 I
b0 Q
b0 ]
b0 ^
b1000000 )
b1000000 ?
b1000000 d
0T
07
b0 >
b0 c
b0 i
0,
0#
0!
0B
06
14
15
0X
b0 g
1+
1/
b1 -
#30
11
0+
0/
#40
b1000000 *
b1000000 A
b1000000 b
b0 @
b0 D
b0 a
b0 G
b0 W
b0 Z
0Y
1+
1/
#50
0+
0/
01
#60
0N
1L
0(
08
b11110 O
b1111001 %
b1111001 ;
b1111001 f
b0 P
b1 :
b1 F
b1 e
b1 H
b1 R
b1 [
1+
1/
#70
0+
0/
#80
1+
1/
#90
0+
0/
#100
1+
1/
#110
0+
0/
#120
1+
1/
#130
0+
0/
#140
1+
1/
#150
0+
0/
#160
1+
1/
#170
0+
0/
#180
1+
1/
#190
0+
0/
#200
1+
1/
#210
0+
0/
#220
1+
1/
#230
0+
0/
#240
1+
1/
#250
b11 h
0+
0/
1'
10
b10 -
#260
b110000 )
b110000 ?
b110000 d
b11 >
b11 c
b11 i
b1 h
b11 g
1+
1/
#270
0+
0/
#280
b1111001 )
b1111001 ?
b1111001 d
1T
b1 >
b1 c
b1 i
04
05
b1 g
1+
1/
#290
0+
0/
#300
1+
1/
#310
0+
0/
#320
1+
1/
#330
0+
0/
#340
1+
1/
#350
0+
0/
0'
00
#360
1+
1/
#370
0+
0/
#380
1+
1/
#390
0+
0/
#400
1+
1/
#410
0+
0/
#420
1+
1/
#430
0+
0/
#440
1+
1/
#450
0+
0/
#460
1+
1/
#470
0+
0/
#480
1+
1/
#490
0+
0/
#500
1+
1/
#510
0+
0/
#520
1+
1/
#530
0+
0/
#540
1+
1/
#550
1$
b1 .
b1 2
b1 C
b1 \
0+
0/
b11 -
#560
b100 h
17
1X
1+
1/
#570
0+
0/
#580
0X
07
b11001 )
b11001 ?
b11001 d
b100 >
b100 c
b100 i
16
b101 h
0Y
b100 g
1+
1/
#590
0+
0/
#600
0L
b10010 )
b10010 ?
b10010 d
1(
18
b11111 P
b1111001 &
b1111001 <
b1111001 `
b101 >
b101 c
b101 i
06
b110 h
b11111 O
b1 "
b1 3
b1 =
b1 E
b1 _
b1 I
b1 Q
b1 ]
b1 ^
b101 g
1+
1/
#610
0+
0/
#620
b10 )
b10 ?
b10 d
17
b110 >
b110 c
b110 i
1B
b1 h
1X
b110 g
1+
1/
#630
0+
0/
#640
07
b1111001 )
b1111001 ?
b1111001 d
b1111001 *
b1111001 A
b1111001 b
b1 >
b1 c
b1 i
0B
b1 h
b1 @
b1 D
b1 a
b1 G
b1 W
b1 Z
1Y
b1 g
1+
1/
#650
0+
0/
#660
1L
0(
08
b11110 O
b100100 %
b100100 ;
b100100 f
b0 P
b10 :
b10 F
b10 e
b10 H
b10 R
b10 [
1+
1/
#670
0+
0/
#680
1+
1/
#690
0+
0/
#700
1+
1/
#710
0+
0/
#720
1+
1/
#730
0+
0/
#740
1+
1/
#750
0$
0+
0/
b0 .
b0 2
b0 C
b0 \
#760
0X
1+
1/
#770
0+
0/
#780
0Y
1+
1/
#790
0+
0/
#800
1+
1/
#810
0+
0/
#820
1+
1/
#830
0+
0/
#840
1+
1/
#850
0+
0/
#860
1+
1/
#870
0+
0/
#880
1+
1/
#890
0+
0/
#900
1+
1/
#910
0+
0/
#920
1+
1/
#930
0+
0/
#940
1+
1/
#950
1$
b10 .
b10 2
b10 C
b10 \
0+
0/
b100 -
#960
b100 h
17
1X
1+
1/
#970
0+
0/
#980
0X
07
b11001 )
b11001 ?
b11001 d
b100 >
b100 c
b100 i
16
b101 h
0Y
b100 g
1+
1/
#990
0+
0/
#1000
0L
b10010 )
b10010 ?
b10010 d
1(
18
b11111 P
b100100 &
b100100 <
b100100 `
b101 >
b101 c
b101 i
06
b110 h
b11111 O
b10 "
b10 3
b10 =
b10 E
b10 _
b10 I
b10 Q
b10 ]
b10 ^
b101 g
1+
1/
#1010
0+
0/
#1020
b10 )
b10 ?
b10 d
17
b110 >
b110 c
b110 i
1B
b1 h
1X
b110 g
1+
1/
#1030
0+
0/
#1040
07
b1111001 )
b1111001 ?
b1111001 d
b100100 *
b100100 A
b100100 b
b1 >
b1 c
b1 i
0B
b1 h
b10 @
b10 D
b10 a
b10 G
b10 W
b10 Z
1Y
b1 g
1+
1/
#1050
0+
0/
#1060
1L
0(
08
b11101 O
b11001 %
b11001 ;
b11001 f
b1 P
b100 :
b100 F
b100 e
b100 H
b100 R
b100 [
1+
1/
#1070
0+
0/
#1080
1+
1/
#1090
0+
0/
#1100
1+
1/
#1110
0+
0/
#1120
1+
1/
#1130
0+
0/
#1140
1+
1/
#1150
0$
0+
0/
b0 .
b0 2
b0 C
b0 \
#1160
0X
1+
1/
#1170
0+
0/
#1180
0Y
1+
1/
#1190
0+
0/
#1200
1+
1/
#1210
0+
0/
#1220
1+
1/
#1230
0+
0/
#1240
1+
1/
#1250
0+
0/
#1260
1+
1/
#1270
0+
0/
#1280
1+
1/
#1290
0+
0/
#1300
1+
1/
#1310
0+
0/
#1320
1+
1/
#1330
0+
0/
#1340
1+
1/
#1350
1$
b100 .
b100 2
b100 C
b100 \
0+
0/
b101 -
#1360
b100 h
17
1X
1+
1/
#1370
0+
0/
#1380
0X
07
b11001 )
b11001 ?
b11001 d
b100 >
b100 c
b100 i
16
b101 h
0Y
b100 g
1+
1/
#1390
0+
0/
#1400
0L
b10010 )
b10010 ?
b10010 d
1(
18
b11111 P
b11001 &
b11001 <
b11001 `
b101 >
b101 c
b101 i
06
b110 h
b11111 O
b100 "
b100 3
b100 =
b100 E
b100 _
b100 I
b100 Q
b100 ]
b100 ^
b101 g
1+
1/
#1410
0+
0/
#1420
b10 )
b10 ?
b10 d
17
b110 >
b110 c
b110 i
1B
b1 h
1X
b110 g
1+
1/
#1430
0+
0/
#1440
07
b1111001 )
b1111001 ?
b1111001 d
b110000 *
b110000 A
b110000 b
b1 >
b1 c
b1 i
0B
b1 h
b11 @
b11 D
b11 a
b11 G
b11 W
b11 Z
1Y
b1 g
1+
1/
#1450
0+
0/
#1460
1L
0(
08
b11011 O
b0 %
b0 ;
b0 f
b11 P
b1000 :
b1000 F
b1000 e
b1000 H
b1000 R
b1000 [
1+
1/
#1470
0+
0/
#1480
1+
1/
#1490
0+
0/
#1500
1+
1/
#1510
0+
0/
#1520
1+
1/
#1530
0+
0/
#1540
1+
1/
#1550
0$
0+
0/
b0 .
b0 2
b0 C
b0 \
#1560
0X
1+
1/
#1570
0+
0/
#1580
0Y
1+
1/
#1590
0+
0/
#1600
1+
1/
#1610
0+
0/
#1620
1+
1/
#1630
0+
0/
#1640
1+
1/
#1650
0+
0/
#1660
1+
1/
#1670
0+
0/
#1680
1+
1/
#1690
0+
0/
#1700
1+
1/
#1710
0+
0/
#1720
1+
1/
#1730
0+
0/
#1740
1+
1/
#1750
1$
b1000 .
b1000 2
b1000 C
b1000 \
0+
0/
b110 -
#1760
b100 h
17
1X
1+
1/
#1770
0+
0/
#1780
0X
07
b11001 )
b11001 ?
b11001 d
b100 >
b100 c
b100 i
16
b101 h
0Y
b100 g
1+
1/
#1790
0+
0/
#1800
0L
b10010 )
b10010 ?
b10010 d
1(
18
b11111 P
b0 &
b0 <
b0 `
b101 >
b101 c
b101 i
06
b110 h
b11111 O
b1000 "
b1000 3
b1000 =
b1000 E
b1000 _
b1000 I
b1000 Q
b1000 ]
b1000 ^
b101 g
1+
1/
#1810
0+
0/
#1820
b10 )
b10 ?
b10 d
17
b110 >
b110 c
b110 i
1B
b1 h
1X
b110 g
1+
1/
#1830
0+
0/
#1840
07
b1111001 )
b1111001 ?
b1111001 d
b11001 *
b11001 A
b11001 b
b1 >
b1 c
b1 i
0B
b1 h
b100 @
b100 D
b100 a
b100 G
b100 W
b100 Z
1Y
b1 g
1+
1/
#1850
0+
0/
#1860
1N
0(
08
b11 O
b11001 %
b11001 ;
b11001 f
b11011 P
b100 :
b100 F
b100 e
b100 H
b100 R
b100 [
1+
1/
#1870
0+
0/
#1880
1+
1/
#1890
0+
0/
#1900
1+
1/
#1910
0+
0/
#1920
1+
1/
#1930
0+
0/
#1940
1+
1/
#1950
0$
0+
0/
b0 .
b0 2
b0 C
b0 \
#1960
0X
1+
1/
#1970
0+
0/
#1980
0Y
1+
1/
#1990
0+
0/
#2000
1+
1/
#2010
0+
0/
#2020
1+
1/
#2030
0+
0/
#2040
1+
1/
#2050
0+
0/
#2060
1+
1/
#2070
0+
0/
#2080
1+
1/
#2090
0+
0/
#2100
1+
1/
#2110
0+
0/
#2120
1+
1/
#2130
0+
0/
#2140
1+
1/
#2150
1$
b100 .
b100 2
b100 C
b100 \
0+
0/
b111 -
#2160
b100 h
17
1X
1+
1/
#2170
0+
0/
#2180
0X
07
b11001 )
b11001 ?
b11001 d
b100 >
b100 c
b100 i
16
b101 h
0Y
b100 g
1+
1/
#2190
0+
0/
#2200
0N
b10010 )
b10010 ?
b10010 d
1(
18
b11111 P
b11001 &
b11001 <
b11001 `
b101 >
b101 c
b101 i
06
b110 h
b11111 O
b100 "
b100 3
b100 =
b100 E
b100 _
b100 I
b100 Q
b100 ]
b100 ^
b101 g
1+
1/
#2210
0+
0/
#2220
b10 )
b10 ?
b10 d
17
b110 >
b110 c
b110 i
1B
b1 h
1X
b110 g
1+
1/
#2230
0+
0/
#2240
07
b1111001 )
b1111001 ?
b1111001 d
b10010 *
b10010 A
b10010 b
b1 >
b1 c
b1 i
0B
b1 h
b101 @
b101 D
b101 a
b101 G
b101 W
b101 Z
1Y
b1 g
1+
1/
#2250
0$
0+
0/
b0 .
b0 2
b0 C
b0 \
#2260
0X
1N
0(
08
b1 O
b100100 %
b100100 ;
b100100 f
b11101 P
b10 :
b10 F
b10 e
b10 H
b10 R
b10 [
1+
1/
#2270
0+
0/
#2280
0Y
1+
1/
#2290
0+
0/
#2300
1+
1/
#2310
0+
0/
#2320
1+
1/
#2330
0+
0/
#2340
1+
1/
#2350
0+
0/
#2360
1+
1/
#2370
0+
0/
#2380
1+
1/
#2390
0+
0/
#2400
1+
1/
#2410
0+
0/
#2420
1+
1/
#2430
0+
0/
#2440
1+
1/
#2450
1$
b10 .
b10 2
b10 C
b10 \
0+
0/
b1000 -
#2460
b100 h
17
1X
1+
1/
#2470
0+
0/
#2480
0X
07
b11001 )
b11001 ?
b11001 d
b100 >
b100 c
b100 i
16
b101 h
0Y
b100 g
1+
1/
#2490
0+
0/
#2500
0N
b10010 )
b10010 ?
b10010 d
1(
18
b11111 P
b100100 &
b100100 <
b100100 `
b101 >
b101 c
b101 i
06
b110 h
b11111 O
b10 "
b10 3
b10 =
b10 E
b10 _
b10 I
b10 Q
b10 ]
b10 ^
b101 g
1+
1/
#2510
0+
0/
#2520
b10 )
b10 ?
b10 d
17
b110 >
b110 c
b110 i
1B
b1 h
1X
b110 g
1+
1/
#2530
0+
0/
#2540
07
b1111001 )
b1111001 ?
b1111001 d
b10 *
b10 A
b10 b
b1 >
b1 c
b1 i
0B
b1 h
b110 @
b110 D
b110 a
b110 G
b110 W
b110 Z
1Y
b1 g
1+
1/
#2550
0+
0/
#2560
1N
0(
08
b0 O
b1111001 %
b1111001 ;
b1111001 f
b11110 P
b1 :
b1 F
b1 e
b1 H
b1 R
b1 [
1+
1/
#2570
0+
0/
#2580
1+
1/
#2590
0+
0/
#2600
1+
1/
#2610
0+
0/
#2620
1+
1/
#2630
0+
0/
#2640
1+
1/
#2650
0$
0+
0/
b0 .
b0 2
b0 C
b0 \
#2660
0X
1+
1/
#2670
0+
0/
#2680
0Y
1+
1/
#2690
0+
0/
#2700
1+
1/
#2710
0+
0/
#2720
1+
1/
#2730
0+
0/
#2740
1+
1/
#2750
0+
0/
#2760
1+
1/
#2770
0+
0/
#2780
1+
1/
#2790
0+
0/
#2800
1+
1/
#2810
0+
0/
#2820
1+
1/
#2830
0+
0/
#2840
1+
1/
#2850
1$
b1 .
b1 2
b1 C
b1 \
0+
0/
b1001 -
#2860
b100 h
17
1X
1+
1/
#2870
0+
0/
#2880
0X
07
b11001 )
b11001 ?
b11001 d
b100 >
b100 c
b100 i
16
b101 h
0Y
b100 g
1+
1/
#2890
0+
0/
#2900
0N
b10010 )
b10010 ?
b10010 d
1(
18
b11111 P
b1111001 &
b1111001 <
b1111001 `
b101 >
b101 c
b101 i
06
b110 h
b11111 O
b1 "
b1 3
b1 =
b1 E
b1 _
b1 I
b1 Q
b1 ]
b1 ^
b101 g
1+
1/
#2910
0+
0/
#2920
b10 )
b10 ?
b10 d
17
b110 >
b110 c
b110 i
1B
b1 h
1X
b110 g
1+
1/
#2930
0+
0/
#2940
07
b1111001 )
b1111001 ?
b1111001 d
b1111000 *
b1111000 A
b1111000 b
b1 >
b1 c
b1 i
0B
b1 h
b111 @
b111 D
b111 a
b111 G
b111 W
b111 Z
1Y
b1 g
1+
1/
#2950
0+
0/
#2960
1+
1/
#2970
0+
0/
#2980
1+
1/
#2990
0+
0/
#3000
1+
1/
#3010
0+
0/
#3020
1+
1/
#3030
0+
0/
#3040
1+
1/
#3050
0$
0+
0/
b0 .
b0 2
b0 C
b0 \
#3060
0X
1+
1/
#3070
0+
0/
#3080
0Y
1+
1/
#3090
0+
0/
#3100
1+
1/
#3110
0+
0/
#3120
1+
1/
#3130
0+
0/
#3140
1+
1/
#3150
0+
0/
#3160
1+
1/
#3170
0+
0/
#3180
1+
1/
#3190
0+
0/
#3200
1+
1/
#3210
0+
0/
#3220
1+
1/
#3230
0+
0/
#3240
1+
1/
#3250
1$
b1 .
b1 2
b1 C
b1 \
0+
0/
b1010 -
#3260
b100 h
17
1X
1+
1/
#3270
0+
0/
#3280
0X
07
b11001 )
b11001 ?
b11001 d
b100 >
b100 c
b100 i
16
b101 h
0Y
b100 g
1+
1/
#3290
0+
0/
#3300
b10010 )
b10010 ?
b10010 d
b101 >
b101 c
b101 i
06
b110 h
b101 g
1+
1/
#3310
0+
0/
#3320
b10 )
b10 ?
b10 d
17
b110 >
b110 c
b110 i
1B
b1 h
1X
b110 g
1+
1/
#3330
0+
0/
#3340
07
b1111001 )
b1111001 ?
b1111001 d
b0 *
b0 A
b0 b
b1 >
b1 c
b1 i
0B
b1 h
b1000 @
b1000 D
b1000 a
b1000 G
b1000 W
b1000 Z
1Y
b1 g
1+
1/
#3350
0+
0/
#3360
1L
0(
08
b11110 O
b100100 %
b100100 ;
b100100 f
b0 P
b10 :
b10 F
b10 e
b10 H
b10 R
b10 [
1+
1/
#3370
0+
0/
#3380
1+
1/
#3390
0+
0/
#3400
1+
1/
#3410
0+
0/
#3420
1+
1/
#3430
0+
0/
#3440
1+
1/
#3450
0$
0+
0/
b0 .
b0 2
b0 C
b0 \
#3460
0X
1+
1/
#3470
0+
0/
#3480
0Y
1+
1/
#3490
0+
0/
#3500
1+
1/
#3510
0+
0/
#3520
1+
1/
#3530
0+
0/
#3540
1+
1/
#3550
0+
0/
#3560
1+
1/
#3570
0+
0/
#3580
1+
1/
#3590
0+
0/
#3600
1+
1/
#3610
0+
0/
#3620
1+
1/
#3630
0+
0/
#3640
1+
1/
#3650
1$
b10 .
b10 2
b10 C
b10 \
0+
0/
b1011 -
#3660
b100 h
17
1X
1+
1/
#3670
0+
0/
#3680
0X
07
b11001 )
b11001 ?
b11001 d
b100 >
b100 c
b100 i
16
b101 h
0Y
b100 g
1+
1/
#3690
0+
0/
#3700
0L
b10010 )
b10010 ?
b10010 d
1(
18
b11111 P
b100100 &
b100100 <
b100100 `
b101 >
b101 c
b101 i
06
b110 h
b11111 O
b10 "
b10 3
b10 =
b10 E
b10 _
b10 I
b10 Q
b10 ]
b10 ^
b101 g
1+
1/
#3710
0+
0/
#3720
b10 )
b10 ?
b10 d
17
b110 >
b110 c
b110 i
1B
b1 h
1X
b110 g
1+
1/
#3730
0+
0/
#3740
07
b1111001 )
b1111001 ?
b1111001 d
b10000 *
b10000 A
b10000 b
b1 >
b1 c
b1 i
0B
b1 h
b1001 @
b1001 D
b1001 a
b1001 G
b1001 W
b1001 Z
1Y
b1 g
1+
1/
#3750
0+
0/
#3760
1+
1/
#3770
0+
0/
#3780
1+
1/
#3790
0+
0/
#3800
1+
1/
#3810
0+
0/
#3820
1+
1/
#3830
0+
0/
#3840
1+
1/
#3850
0$
0+
0/
b0 .
b0 2
b0 C
b0 \
#3860
0X
1+
1/
#3870
0+
0/
#3880
0Y
1+
1/
#3890
0+
0/
#3900
1+
1/
#3910
0+
0/
#3920
1+
1/
#3930
0+
0/
#3940
1+
1/
#3950
0+
0/
#3960
1+
1/
#3970
0+
0/
#3980
1+
1/
#3990
0+
0/
#4000
1+
1/
#4010
0+
0/
#4020
1+
1/
#4030
0+
0/
#4040
1+
1/
#4050
1$
b10 .
b10 2
b10 C
b10 \
0+
0/
b1100 -
#4060
b100 h
17
1X
1+
1/
#4070
0+
0/
#4080
0X
07
b11001 )
b11001 ?
b11001 d
b100 >
b100 c
b100 i
16
b101 h
0Y
b100 g
1+
1/
#4090
0+
0/
#4100
b10010 )
b10010 ?
b10010 d
b101 >
b101 c
b101 i
06
b110 h
b101 g
1+
1/
#4110
0+
0/
#4120
b10 )
b10 ?
b10 d
17
b110 >
b110 c
b110 i
1B
b1 h
1X
b110 g
1+
1/
#4130
0+
0/
#4140
07
b1111001 )
b1111001 ?
b1111001 d
b1000 *
b1000 A
b1000 b
b1 >
b1 c
b1 i
0B
b1 h
b1010 @
b1010 D
b1010 a
b1010 G
b1010 W
b1010 Z
1Y
b1 g
1+
1/
#4150
0+
0/
#4160
1L
0(
08
b11101 O
b11001 %
b11001 ;
b11001 f
b1 P
b100 :
b100 F
b100 e
b100 H
b100 R
b100 [
1+
1/
#4170
0+
0/
#4180
1+
1/
#4190
0+
0/
#4200
1+
1/
#4210
0+
0/
#4220
1+
1/
#4230
0+
0/
#4240
1+
1/
#4250
0$
0+
0/
b0 .
b0 2
b0 C
b0 \
#4260
0X
1+
1/
#4270
0+
0/
#4280
0Y
1+
1/
#4290
0+
0/
#4300
1+
1/
#4310
0+
0/
#4320
1+
1/
#4330
0+
0/
#4340
1+
1/
#4350
0+
0/
#4360
1+
1/
#4370
0+
0/
#4380
1+
1/
#4390
0+
0/
#4400
1+
1/
#4410
0+
0/
#4420
1+
1/
#4430
0+
0/
#4440
1+
1/
#4450
1$
b100 .
b100 2
b100 C
b100 \
0+
0/
b1101 -
#4460
b100 h
17
1X
1+
1/
#4470
0+
0/
#4480
0X
07
b11001 )
b11001 ?
b11001 d
b100 >
b100 c
b100 i
16
b101 h
0Y
b100 g
1+
1/
#4490
0+
0/
#4500
0L
b10010 )
b10010 ?
b10010 d
1(
18
b11111 P
b11001 &
b11001 <
b11001 `
b101 >
b101 c
b101 i
06
b110 h
b11111 O
b100 "
b100 3
b100 =
b100 E
b100 _
b100 I
b100 Q
b100 ]
b100 ^
b101 g
1+
1/
#4510
0+
0/
#4520
b10 )
b10 ?
b10 d
17
b110 >
b110 c
b110 i
1B
b1 h
1X
b110 g
1+
1/
#4530
0+
0/
#4540
07
b1111001 )
b1111001 ?
b1111001 d
b11 *
b11 A
b11 b
b1 >
b1 c
b1 i
0B
b1 h
b1011 @
b1011 D
b1011 a
b1011 G
b1011 W
b1011 Z
1Y
b1 g
1+
1/
#4550
0+
0/
#4560
1+
1/
#4570
0+
0/
#4580
1+
1/
#4590
0+
0/
#4600
1+
1/
#4610
0+
0/
#4620
1+
1/
#4630
0+
0/
#4640
1+
1/
#4650
0$
0+
0/
b0 .
b0 2
b0 C
b0 \
#4660
0X
1+
1/
#4670
0+
0/
#4680
0Y
1+
1/
#4690
0+
0/
#4700
1+
1/
#4710
0+
0/
#4720
1+
1/
#4730
0+
0/
#4740
1+
1/
#4750
0+
0/
#4760
1+
1/
#4770
0+
0/
#4780
1+
1/
#4790
0+
0/
#4800
1+
1/
#4810
0+
0/
#4820
1+
1/
#4830
0+
0/
#4840
1+
1/
#4850
1$
b100 .
b100 2
b100 C
b100 \
0+
0/
b1110 -
#4860
b100 h
17
1X
1+
1/
#4870
0+
0/
#4880
0X
07
b11001 )
b11001 ?
b11001 d
b100 >
b100 c
b100 i
16
b101 h
0Y
b100 g
1+
1/
#4890
0+
0/
#4900
b10010 )
b10010 ?
b10010 d
b101 >
b101 c
b101 i
06
b110 h
b101 g
1+
1/
#4910
0+
0/
#4920
b10 )
b10 ?
b10 d
17
b110 >
b110 c
b110 i
1B
b1 h
1X
b110 g
1+
1/
#4930
0+
0/
#4940
07
b1111001 )
b1111001 ?
b1111001 d
b1000110 *
b1000110 A
b1000110 b
b1 >
b1 c
b1 i
0B
b1 h
b1100 @
b1100 D
b1100 a
b1100 G
b1100 W
b1100 Z
1Y
b1 g
1+
1/
#4950
0+
0/
#4960
1L
0(
08
b11011 O
b0 %
b0 ;
b0 f
b11 P
b1000 :
b1000 F
b1000 e
b1000 H
b1000 R
b1000 [
1+
1/
#4970
0+
0/
#4980
1+
1/
#4990
0+
0/
#5000
1+
1/
#5010
0+
0/
#5020
1+
1/
#5030
0+
0/
#5040
1+
1/
#5050
0$
0+
0/
b0 .
b0 2
b0 C
b0 \
#5060
0X
1+
1/
#5070
0+
0/
#5080
0Y
1+
1/
#5090
0+
0/
#5100
1+
1/
#5110
0+
0/
#5120
1+
1/
#5130
0+
0/
#5140
1+
1/
#5150
0+
0/
#5160
1+
1/
#5170
0+
0/
#5180
1+
1/
#5190
0+
0/
#5200
1+
1/
#5210
0+
0/
#5220
1+
1/
#5230
0+
0/
#5240
1+
1/
#5250
1$
b1000 .
b1000 2
b1000 C
b1000 \
0+
0/
b1111 -
#5260
b100 h
17
1X
1+
1/
#5270
0+
0/
#5280
0X
07
b11001 )
b11001 ?
b11001 d
b100 >
b100 c
b100 i
16
b101 h
0Y
b100 g
1+
1/
#5290
0+
0/
#5300
0L
b10010 )
b10010 ?
b10010 d
1(
18
b11111 P
b0 &
b0 <
b0 `
b101 >
b101 c
b101 i
06
b110 h
b11111 O
b1000 "
b1000 3
b1000 =
b1000 E
b1000 _
b1000 I
b1000 Q
b1000 ]
b1000 ^
b101 g
1+
1/
#5310
0+
0/
#5320
b10 )
b10 ?
b10 d
17
b110 >
b110 c
b110 i
1B
b1 h
1X
b110 g
1+
1/
#5330
0+
0/
#5340
07
b1111001 )
b1111001 ?
b1111001 d
b100001 *
b100001 A
b100001 b
b1 >
b1 c
b1 i
0B
b1 h
b1101 @
b1101 D
b1101 a
b1101 G
b1101 W
b1101 Z
1Y
b1 g
1+
1/
#5350
0+
0/
#5360
1+
1/
#5370
0+
0/
#5380
1+
1/
#5390
0+
0/
#5400
1+
1/
#5410
0+
0/
#5420
1+
1/
#5430
0+
0/
#5440
1+
1/
#5450
0$
0+
0/
b0 .
b0 2
b0 C
b0 \
#5460
0X
1+
1/
#5470
0+
0/
#5480
0Y
1+
1/
#5490
0+
0/
#5500
1+
1/
#5510
0+
0/
#5520
1+
1/
#5530
0+
0/
#5540
1+
1/
#5550
0+
0/
#5560
1+
1/
#5570
0+
0/
#5580
1+
1/
#5590
0+
0/
#5600
1+
1/
#5610
0+
0/
#5620
1+
1/
#5630
0+
0/
#5640
1+
1/
#5650
1$
b1000 .
b1000 2
b1000 C
b1000 \
0+
0/
#5660
b100 h
17
1X
1+
1/
#5670
0+
0/
#5680
0X
07
b11001 )
b11001 ?
b11001 d
b100 >
b100 c
b100 i
16
b101 h
0Y
b100 g
1+
1/
#5690
0+
0/
#5700
b10010 )
b10010 ?
b10010 d
b101 >
b101 c
b101 i
06
b110 h
b101 g
1+
1/
#5710
0+
0/
#5720
b10 )
b10 ?
b10 d
17
b110 >
b110 c
b110 i
1B
b1 h
1X
b110 g
1+
1/
#5730
0+
0/
#5740
07
b1111001 )
b1111001 ?
b1111001 d
b110 *
b110 A
b110 b
b1 >
b1 c
b1 i
0B
b1 h
b1110 @
b1110 D
b1110 a
b1110 G
b1110 W
b1110 Z
1Y
b1 g
1+
1/
#5750
0+
0/
#5760
1N
0(
08
b110 O
b1111001 %
b1111001 ;
b1111001 f
b11000 P
b1 :
b1 F
b1 e
b1 H
b1 R
b1 [
1+
1/
#5770
0+
0/
#5780
1+
1/
#5790
0+
0/
#5800
1+
1/
#5810
0+
0/
#5820
1+
1/
#5830
0+
0/
#5840
1+
1/
#5850
0$
0+
0/
b0 .
b0 2
b0 C
b0 \
#5860
0X
1+
1/
#5870
0+
0/
#5880
0Y
1+
1/
#5890
0+
0/
#5900
1+
1/
#5910
0+
0/
