experiencia-5/testbench.vcd
$date
	Fri Feb  2 23:03:36 2024
$end
$version
	Icarus Verilog
$end
$timescale
	1ns
$end
$scope module circuito_exp5_tb $end
$var wire 1 ! db_clock_out $end
$var wire 1 " pronto_out $end
$var wire 4 # leds_out [3:0] $end
$var wire 1 $ errou_out $end
$var wire 1 % db_tem_jogada_out $end
$var wire 7 & db_memoria_out [6:0] $end
$var wire 7 ' db_jogadafeita_out [6:0] $end
$var wire 1 ( db_iniciar_out $end
$var wire 1 ) db_igual_out $end
$var wire 7 * db_estado_out [6:0] $end
$var wire 7 + db_contagem_out [6:0] $end
$var wire 1 , acertou_out $end
$var reg 32 - caso [31:0] $end
$var reg 4 . chaves_in [3:0] $end
$var reg 1 / clock_in $end
$var reg 1 0 iniciar_in $end
$var reg 1 1 reset_in $end
$scope module dut $end
$var wire 4 2 chaves [3:0] $end
$var wire 1 / clock $end
$var wire 1 ! db_clock $end
$var wire 1 ) db_igual $end
$var wire 1 ( db_iniciar $end
$var wire 1 0 iniciar $end
$var wire 4 3 leds [3:0] $end
$var wire 1 1 reset $end
$var wire 1 4 zeraR $end
$var wire 1 5 zeraC $end
$var wire 1 6 registraR $end
$var wire 1 " pronto $end
$var wire 1 7 jogada $end
$var wire 1 8 igual $end
$var wire 1 9 fimC $end
$var wire 1 $ errou $end
$var wire 1 % db_tem_jogada $end
$var wire 4 : db_memoria_hex [3:0] $end
$var wire 7 ; db_memoria [6:0] $end
$var wire 7 < db_jogadafeita [6:0] $end
$var wire 4 = db_jogada_hex [3:0] $end
$var wire 4 > db_estado_hex [3:0] $end
$var wire 7 ? db_estado [6:0] $end
$var wire 4 @ db_contagem_hex [3:0] $end
$var wire 7 A db_contagem [6:0] $end
$var wire 1 B contaC $end
$var wire 1 , acertou $end
$scope module fd $end
$var wire 4 C chaves [3:0] $end
$var wire 1 / clock $end
$var wire 4 D db_contagem [3:0] $end
$var wire 4 E db_jogada [3:0] $end
$var wire 4 F db_memoria [3:0] $end
$var wire 1 % db_tem_jogada $end
$var wire 1 4 zeraR $end
$var wire 1 5 zeraC $end
$var wire 4 G s_endereco [3:0] $end
$var wire 4 H s_dado [3:0] $end
$var wire 4 I s_chaves [3:0] $end
$var wire 1 6 registraR $end
$var wire 1 7 jogada_feita $end
$var wire 1 9 fimC $end
$var wire 1 B contaC $end
$var wire 1 8 chavesIgualMemoria $end
$scope module comparador $end
$var wire 1 J AEBi $end
$var wire 1 8 AEBo $end
$var wire 1 K AGBi $end
$var wire 1 L AGBo $end
$var wire 1 M ALBi $end
$var wire 1 N ALBo $end
$var wire 5 O CSL [4:0] $end
$var wire 5 P CSG [4:0] $end
$var wire 4 Q B [3:0] $end
$var wire 4 R A [3:0] $end
$upscope $end
$scope module contador $end
$var wire 4 S D [3:0] $end
$var wire 1 / clock $end
$var wire 1 T clr $end
$var wire 1 U ent $end
$var wire 1 V ld $end
$var wire 1 B enp $end
$var reg 4 W Q [3:0] $end
$var reg 1 9 rco $end
$upscope $end
$scope module edge_detect $end
$var wire 1 / clock $end
$var wire 1 7 pulso $end
$var wire 1 % sinal $end
$var wire 1 6 reset $end
$var reg 1 X reg0 $end
$var reg 1 Y reg1 $end
$upscope $end
$scope module memoria $end
$var wire 4 Z address [3:0] $end
$var wire 1 / clock $end
$var reg 4 [ data_out [3:0] $end
$upscope $end
$scope module registrador $end
$var wire 4 \ D [3:0] $end
$var wire 4 ] Q [3:0] $end
$var wire 1 / clock $end
$var wire 1 6 enable $end
$var wire 1 4 clear $end
$var reg 4 ^ IQ [3:0] $end
$upscope $end
$upscope $end
$scope module hexa7seg_CHAVES $end
$var wire 4 _ hexa [3:0] $end
$var reg 7 ` display [6:0] $end
$upscope $end
$scope module hexa7seg_CONT $end
$var wire 4 a hexa [3:0] $end
$var reg 7 b display [6:0] $end
$upscope $end
$scope module hexa7seg_EST $end
$var wire 4 c hexa [3:0] $end
$var reg 7 d display [6:0] $end
$upscope $end
$scope module hexa7seg_MEM $end
$var wire 4 e hexa [3:0] $end
$var reg 7 f display [6:0] $end
$upscope $end
$scope module uc $end
$var wire 1 / clock $end
$var wire 1 9 fimC $end
$var wire 1 8 igual $end
$var wire 1 0 iniciar $end
$var wire 1 7 jogada $end
$var wire 1 1 reset $end
$var reg 4 g Eatual [3:0] $end
$var reg 4 h Eprox [3:0] $end
$var reg 1 , acertou $end
$var reg 1 B contaC $end
$var reg 4 i db_estado [3:0] $end
$var reg 1 $ errou $end
$var reg 1 " pronto $end
$var reg 1 6 registraR $end
$var reg 1 5 zeraC $end
$var reg 1 4 zeraR $end
$upscope $end
$upscope $end
$upscope $end
$enddefinitions $end
#0
$dumpvars
bx i
b0 h
bx g
bx f
bx e
bx d
bx c
bx b
bx a
bx `
bx _
bx ^
bx ]
b0 \
bx [
bx Z
xY
xX
bx W
1V
1U
xT
b0 S
bx R
bx Q
bx P
bx O
xN
0M
xL
0K
1J
bx I
bx H
bx G
bx F
bx E
bx D
b0 C
xB
bx A
bx @
bx ?
bx >
bx =
bx <
bx ;
bx :
09
x8
x7
x6
x5
x4
bx 3
b0 2
01
00
1/
b0 .
b0 -
x,
bx +
bx *
x)
0(
bx '
bx &
0%
x$
bx #
x"
z!
$end
#10
0/
#20
b1000000 '
b1000000 <
b1000000 `
b0 #
b0 3
b0 =
b0 E
b0 _
b0 I
b0 Q
b0 ]
b0 ^
b1000000 *
b1000000 ?
b1000000 d
0T
07
b0 >
b0 c
b0 i
0,
0$
0"
0B
06
14
15
0X
b0 g
1/
b1 -
#30
11
0/
#40
b1000000 +
b1000000 A
b1000000 b
b0 @
b0 D
b0 a
b0 G
b0 W
b0 Z
0Y
1/
#50
0/
01
#60
0N
1L
0)
08
b11110 O
b1111001 &
b1111001 ;
b1111001 f
b0 P
b1 :
b1 F
b1 e
b1 H
b1 R
b1 [
1/
#70
0/
#80
1/
#90
0/
#100
1/
#110
0/
#120
1/
#130
0/
#140
1/
#150
0/
#160
1/
#170
0/
#180
1/
#190
0/
#200
1/
#210
0/
#220
1/
#230
0/
#240
1/
#250
b11 h
0/
1(
10
b10 -
#260
b110000 *
b110000 ?
b110000 d
b11 >
b11 c
b11 i
b1 h
b11 g
1/
#270
0/
#280
b1111001 *
b1111001 ?
b1111001 d
1T
b1 >
b1 c
b1 i
04
05
b1 g
1/
#290
0/
#300
1/
#310
0/
#320
1/
#330
0/
#340
1/
#350
0/
0(
00
#360
1/
#370
0/
#380
1/
#390
0/
#400
1/
#410
0/
#420
1/
#430
0/
#440
1/
#450
0/
#460
1/
#470
0/
#480
1/
#490
0/
#500
1/
#510
0/
#520
1/
#530
0/
#540
1/
#550
1%
b1 .
b1 2
b1 C
b1 \
0/
b11 -
#560
b100 h
17
1X
1/
#570
0/
#580
0X
07
b11001 *
b11001 ?
b11001 d
b100 >
b100 c
b100 i
16
b101 h
0Y
b100 g
1/
#590
0/
#600
0L
b10010 *
b10010 ?
b10010 d
1)
18
b11111 P
b1111001 '
b1111001 <
b1111001 `
b101 >
b101 c
b101 i
06
b110 h
b11111 O
b1 #
b1 3
b1 =
b1 E
b1 _
b1 I
b1 Q
b1 ]
b1 ^
b101 g
1/
#610
0/
#620
b10 *
b10 ?
b10 d
17
b110 >
b110 c
b110 i
1B
b1 h
1X
b110 g
1/
#630
0/
#640
07
b1111001 *
b1111001 ?
b1111001 d
b1111001 +
b1111001 A
b1111001 b
b1 >
b1 c
b1 i
0B
b1 h
b1 @
b1 D
b1 a
b1 G
b1 W
b1 Z
1Y
b1 g
1/
#650
0/
#660
1L
0)
08
b11110 O
b100100 &
b100100 ;
b100100 f
b0 P
b10 :
b10 F
b10 e
b10 H
b10 R
b10 [
1/
#670
0/
#680
1/
#690
0/
#700
1/
#710
0/
#720
1/
#730
0/
#740
1/
#750
0%
0/
b0 .
b0 2
b0 C
b0 \
#760
0X
1/
#770
0/
#780
0Y
1/
#790
0/
#800
1/
#810
0/
#820
1/
#830
0/
#840
1/
#850
0/
#860
1/
#870
0/
#880
1/
#890
0/
#900
1/
#910
0/
#920
1/
#930
0/
#940
1/
#950
1%
b10 .
b10 2
b10 C
b10 \
0/
b100 -
#960
b100 h
17
1X
1/
#970
0/
#980
0X
07
b11001 *
b11001 ?
b11001 d
b100 >
b100 c
b100 i
16
b101 h
0Y
b100 g
1/
#990
0/
#1000
0L
b10010 *
b10010 ?
b10010 d
1)
18
b11111 P
b100100 '
b100100 <
b100100 `
b101 >
b101 c
b101 i
06
b110 h
b11111 O
b10 #
b10 3
b10 =
b10 E
b10 _
b10 I
b10 Q
b10 ]
b10 ^
b101 g
1/
#1010
0/
#1020
b10 *
b10 ?
b10 d
17
b110 >
b110 c
b110 i
1B
b1 h
1X
b110 g
1/
#1030
0/
#1040
07
b1111001 *
b1111001 ?
b1111001 d
b100100 +
b100100 A
b100100 b
b1 >
b1 c
b1 i
0B
b1 h
b10 @
b10 D
b10 a
b10 G
b10 W
b10 Z
1Y
b1 g
1/
#1050
0/
#1060
1L
0)
08
b11101 O
b11001 &
b11001 ;
b11001 f
b1 P
b100 :
b100 F
b100 e
b100 H
b100 R
b100 [
1/
#1070
0/
#1080
1/
#1090
0/
#1100
1/
#1110
0/
#1120
1/
#1130
0/
#1140
1/
#1150
0%
0/
b0 .
b0 2
b0 C
b0 \
#1160
0X
1/
#1170
0/
#1180
0Y
1/
#1190
0/
#1200
1/
#1210
0/
#1220
1/
#1230
0/
#1240
1/
#1250
0/
#1260
1/
#1270
0/
#1280
1/
#1290
0/
#1300
1/
#1310
0/
#1320
1/
#1330
0/
#1340
1/
#1350
1%
b100 .
b100 2
b100 C
b100 \
0/
b101 -
#1360
b100 h
17
1X
1/
#1370
0/
#1380
0X
07
b11001 *
b11001 ?
b11001 d
b100 >
b100 c
b100 i
16
b101 h
0Y
b100 g
1/
#1390
0/
#1400
0L
b10010 *
b10010 ?
b10010 d
1)
18
b11111 P
b11001 '
b11001 <
b11001 `
b101 >
b101 c
b101 i
06
b110 h
b11111 O
b100 #
b100 3
b100 =
b100 E
b100 _
b100 I
b100 Q
b100 ]
b100 ^
b101 g
1/
#1410
0/
#1420
b10 *
b10 ?
b10 d
17
b110 >
b110 c
b110 i
1B
b1 h
1X
b110 g
1/
#1430
0/
#1440
07
b1111001 *
b1111001 ?
b1111001 d
b110000 +
b110000 A
b110000 b
b1 >
b1 c
b1 i
0B
b1 h
b11 @
b11 D
b11 a
b11 G
b11 W
b11 Z
1Y
b1 g
1/
#1450
0/
#1460
1L
0)
08
b11011 O
b0 &
b0 ;
b0 f
b11 P
b1000 :
b1000 F
b1000 e
b1000 H
b1000 R
b1000 [
1/
#1470
0/
#1480
1/
#1490
0/
#1500
1/
#1510
0/
#1520
1/
#1530
0/
#1540
1/
#1550
0%
0/
b0 .
b0 2
b0 C
b0 \
#1560
0X
1/
#1570
0/
#1580
0Y
1/
#1590
0/
#1600
1/
#1610
0/
#1620
1/
#1630
0/
#1640
1/
#1650
0/
#1660
1/
#1670
0/
#1680
1/
#1690
0/
#1700
1/
#1710
0/
#1720
1/
#1730
0/
#1740
1/
#1750
1%
b1000 .
b1000 2
b1000 C
b1000 \
0/
b110 -
#1760
b100 h
17
1X
1/
#1770
0/
#1780
0X
07
b11001 *
b11001 ?
b11001 d
b100 >
b100 c
b100 i
16
b101 h
0Y
b100 g
1/
#1790
0/
#1800
0L
b10010 *
b10010 ?
b10010 d
1)
18
b11111 P
b0 '
b0 <
b0 `
b101 >
b101 c
b101 i
06
b110 h
b11111 O
b1000 #
b1000 3
b1000 =
b1000 E
b1000 _
b1000 I
b1000 Q
b1000 ]
b1000 ^
b101 g
1/
#1810
0/
#1820
b10 *
b10 ?
b10 d
17
b110 >
b110 c
b110 i
1B
b1 h
1X
b110 g
1/
#1830
0/
#1840
07
b1111001 *
b1111001 ?
b1111001 d
b11001 +
b11001 A
b11001 b
b1 >
b1 c
b1 i
0B
b1 h
b100 @
b100 D
b100 a
b100 G
b100 W
b100 Z
1Y
b1 g
1/
#1850
0/
#1860
1N
0)
08
b11 O
b11001 &
b11001 ;
b11001 f
b11011 P
b100 :
b100 F
b100 e
b100 H
b100 R
b100 [
1/
#1870
0/
#1880
1/
#1890
0/
#1900
1/
#1910
0/
#1920
1/
#1930
0/
#1940
1/
#1950
0%
0/
b0 .
b0 2
b0 C
b0 \
#1960
0X
1/
#1970
0/
#1980
0Y
1/
#1990
0/
#2000
1/
#2010
0/
#2020
1/
#2030
0/
#2040
1/
#2050
0/
#2060
1/
#2070
0/
#2080
1/
#2090
0/
#2100
1/
#2110
0/
#2120
1/
#2130
0/
#2140
1/
#2150
1%
b1 .
b1 2
b1 C
b1 \
0/
b111 -
#2160
b100 h
17
1X
1/
#2170
0/
#2180
0X
07
b11001 *
b11001 ?
b11001 d
b100 >
b100 c
b100 i
16
b101 h
0Y
b100 g
1/
#2190
0/
#2200
1L
0N
b10010 *
b10010 ?
b10010 d
b10 P
b1111001 '
b1111001 <
b1111001 `
b101 >
b101 c
b101 i
06
b1110 h
b11100 O
b1 #
b1 3
b1 =
b1 E
b1 _
b1 I
b1 Q
b1 ]
b1 ^
b101 g
1/
#2210
0/
#2220
b110 *
b110 ?
b110 d
17
b1110 >
b1110 c
b1110 i
1$
1"
1X
b1110 g
1/
#2230
0/
#2240
07
1Y
1/
#2250
0%
0/
b0 .
b0 2
b0 C
b0 \
#2260
0X
1/
#2270
0/
#2280
0Y
1/
#2290
0/
#2300
1/
#2310
0/
#2320
1/
#2330
0/
#2340
1/
#2350
0/
#2360
1/
#2370
0/
#2380
1/
#2390
0/
#2400
1/
#2410
0/
#2420
1/
#2430
0/
#2440
1/
#2450
0/
b1100011 -
