experiencia-5/testbench_acertou.vcd
$date
	Sat Feb  3 16:38:23 2024
$end
$version
	ModelSim Version 2020.1
$end
$timescale
	1ns
$end

$scope module circuito_exp5_tb_acertou $end
$var parameter 32 ! clockPeriod $end
$var reg 1 " clock_in $end
$var reg 1 # reset_in $end
$var reg 1 $ iniciar_in $end
$var reg 4 % chaves_in [3:0] $end
$var wire 1 & acertou_out $end
$var wire 1 ' errou_out $end
$var wire 1 ( pronto_out $end
$var wire 1 ) leds_out [3] $end
$var wire 1 * leds_out [2] $end
$var wire 1 + leds_out [1] $end
$var wire 1 , leds_out [0] $end
$var wire 1 - db_igual_out $end
$var wire 1 . db_contagem_out [6] $end
$var wire 1 / db_contagem_out [5] $end
$var wire 1 0 db_contagem_out [4] $end
$var wire 1 1 db_contagem_out [3] $end
$var wire 1 2 db_contagem_out [2] $end
$var wire 1 3 db_contagem_out [1] $end
$var wire 1 4 db_contagem_out [0] $end
$var wire 1 5 db_memoria_out [6] $end
$var wire 1 6 db_memoria_out [5] $end
$var wire 1 7 db_memoria_out [4] $end
$var wire 1 8 db_memoria_out [3] $end
$var wire 1 9 db_memoria_out [2] $end
$var wire 1 : db_memoria_out [1] $end
$var wire 1 ; db_memoria_out [0] $end
$var wire 1 < db_estado_out [6] $end
$var wire 1 = db_estado_out [5] $end
$var wire 1 > db_estado_out [4] $end
$var wire 1 ? db_estado_out [3] $end
$var wire 1 @ db_estado_out [2] $end
$var wire 1 A db_estado_out [1] $end
$var wire 1 B db_estado_out [0] $end
$var wire 1 C db_jogadafeita_out [6] $end
$var wire 1 D db_jogadafeita_out [5] $end
$var wire 1 E db_jogadafeita_out [4] $end
$var wire 1 F db_jogadafeita_out [3] $end
$var wire 1 G db_jogadafeita_out [2] $end
$var wire 1 H db_jogadafeita_out [1] $end
$var wire 1 I db_jogadafeita_out [0] $end
$var wire 1 J db_clock_out $end
$var wire 1 K db_iniciar_out $end
$var wire 1 L db_tem_jogada_out $end
$var reg 32 M caso [31:0] $end

$scope module dut $end
$var wire 1 N clock $end
$var wire 1 O reset $end
$var wire 1 P iniciar $end
$var wire 1 Q chaves [3] $end
$var wire 1 R chaves [2] $end
$var wire 1 S chaves [1] $end
$var wire 1 T chaves [0] $end
$var wire 1 & acertou $end
$var wire 1 ' errou $end
$var wire 1 ( pronto $end
$var wire 1 ) leds [3] $end
$var wire 1 * leds [2] $end
$var wire 1 + leds [1] $end
$var wire 1 , leds [0] $end
$var wire 1 - db_igual $end
$var wire 1 . db_contagem [6] $end
$var wire 1 / db_contagem [5] $end
$var wire 1 0 db_contagem [4] $end
$var wire 1 1 db_contagem [3] $end
$var wire 1 2 db_contagem [2] $end
$var wire 1 3 db_contagem [1] $end
$var wire 1 4 db_contagem [0] $end
$var wire 1 5 db_memoria [6] $end
$var wire 1 6 db_memoria [5] $end
$var wire 1 7 db_memoria [4] $end
$var wire 1 8 db_memoria [3] $end
$var wire 1 9 db_memoria [2] $end
$var wire 1 : db_memoria [1] $end
$var wire 1 ; db_memoria [0] $end
$var wire 1 < db_estado [6] $end
$var wire 1 = db_estado [5] $end
$var wire 1 > db_estado [4] $end
$var wire 1 ? db_estado [3] $end
$var wire 1 @ db_estado [2] $end
$var wire 1 A db_estado [1] $end
$var wire 1 B db_estado [0] $end
$var wire 1 C db_jogadafeita [6] $end
$var wire 1 D db_jogadafeita [5] $end
$var wire 1 E db_jogadafeita [4] $end
$var wire 1 F db_jogadafeita [3] $end
$var wire 1 G db_jogadafeita [2] $end
$var wire 1 H db_jogadafeita [1] $end
$var wire 1 I db_jogadafeita [0] $end
$var wire 1 J db_clock $end
$var wire 1 K db_iniciar $end
$var wire 1 L db_tem_jogada $end
$var wire 1 U zeraC $end
$var wire 1 V contaC $end
$var wire 1 W zeraR $end
$var wire 1 X registraR $end
$var wire 1 Y fimC $end
$var wire 1 Z igual $end
$var wire 1 [ db_contagem_hex [3] $end
$var wire 1 \ db_contagem_hex [2] $end
$var wire 1 ] db_contagem_hex [1] $end
$var wire 1 ^ db_contagem_hex [0] $end
$var wire 1 _ db_memoria_hex [3] $end
$var wire 1 ` db_memoria_hex [2] $end
$var wire 1 a db_memoria_hex [1] $end
$var wire 1 b db_memoria_hex [0] $end
$var wire 1 c db_jogada_hex [3] $end
$var wire 1 d db_jogada_hex [2] $end
$var wire 1 e db_jogada_hex [1] $end
$var wire 1 f db_jogada_hex [0] $end
$var wire 1 g db_estado_hex [3] $end
$var wire 1 h db_estado_hex [2] $end
$var wire 1 i db_estado_hex [1] $end
$var wire 1 j db_estado_hex [0] $end
$var wire 1 k jogada $end

$scope module uc $end
$var parameter 4 l inicial $end
$var parameter 4 m preparacao $end
$var parameter 4 n espera $end
$var parameter 4 o registra $end
$var parameter 4 p comparacao $end
$var parameter 4 q proximo $end
$var parameter 4 r derrota $end
$var parameter 4 s vitoria $end
$var wire 1 N clock $end
$var wire 1 O reset $end
$var wire 1 P iniciar $end
$var wire 1 Y fimC $end
$var wire 1 k jogada $end
$var wire 1 Z igual $end
$var reg 1 t zeraC $end
$var reg 1 u contaC $end
$var reg 1 v zeraR $end
$var reg 1 w registraR $end
$var reg 1 x pronto $end
$var reg 1 y errou $end
$var reg 1 z acertou $end
$var reg 4 { db_estado [3:0] $end
$var reg 4 | Eatual [3:0] $end
$var reg 4 } Eprox [3:0] $end
$upscope $end

$scope module fd $end
$var wire 1 N clock $end
$var wire 1 W zeraR $end
$var wire 1 U zeraC $end
$var wire 1 X registraR $end
$var wire 1 V contaC $end
$var wire 1 Q chaves [3] $end
$var wire 1 R chaves [2] $end
$var wire 1 S chaves [1] $end
$var wire 1 T chaves [0] $end
$var wire 1 Z chavesIgualMemoria $end
$var wire 1 Y fimC $end
$var wire 1 k jogada_feita $end
$var wire 1 L db_tem_jogada $end
$var wire 1 [ db_contagem [3] $end
$var wire 1 \ db_contagem [2] $end
$var wire 1 ] db_contagem [1] $end
$var wire 1 ^ db_contagem [0] $end
$var wire 1 c db_jogada [3] $end
$var wire 1 d db_jogada [2] $end
$var wire 1 e db_jogada [1] $end
$var wire 1 f db_jogada [0] $end
$var wire 1 _ db_memoria [3] $end
$var wire 1 ` db_memoria [2] $end
$var wire 1 a db_memoria [1] $end
$var wire 1 b db_memoria [0] $end
$var wire 1 ~ s_endereco [3] $end
$var wire 1 !! s_endereco [2] $end
$var wire 1 "! s_endereco [1] $end
$var wire 1 #! s_endereco [0] $end
$var wire 1 $! s_chaves [3] $end
$var wire 1 %! s_chaves [2] $end
$var wire 1 &! s_chaves [1] $end
$var wire 1 '! s_chaves [0] $end
$var wire 1 (! s_dado [3] $end
$var wire 1 )! s_dado [2] $end
$var wire 1 *! s_dado [1] $end
$var wire 1 +! s_dado [0] $end

$scope module contador $end
$var wire 1 N clock $end
$var wire 1 ,! clr $end
$var wire 1 -! ld $end
$var wire 1 .! ent $end
$var wire 1 V enp $end
$var wire 1 /! D [3] $end
$var wire 1 0! D [2] $end
$var wire 1 1! D [1] $end
$var wire 1 2! D [0] $end
$var reg 4 3! Q [3:0] $end
$var reg 1 4! rco $end
$upscope $end

$scope module registrador $end
$var wire 1 N clock $end
$var wire 1 W clear $end
$var wire 1 X enable $end
$var wire 1 Q D [3] $end
$var wire 1 R D [2] $end
$var wire 1 S D [1] $end
$var wire 1 T D [0] $end
$var wire 1 $! Q [3] $end
$var wire 1 %! Q [2] $end
$var wire 1 &! Q [1] $end
$var wire 1 '! Q [0] $end
$var reg 4 5! IQ [3:0] $end
$upscope $end

$scope module memoria $end
$var wire 1 N clock $end
$var wire 1 ~ address [3] $end
$var wire 1 !! address [2] $end
$var wire 1 "! address [1] $end
$var wire 1 #! address [0] $end
$var reg 4 6! data_out [3:0] $end
$upscope $end

$scope module comparador $end
$var wire 1 (! A [3] $end
$var wire 1 )! A [2] $end
$var wire 1 *! A [1] $end
$var wire 1 +! A [0] $end
$var wire 1 $! B [3] $end
$var wire 1 %! B [2] $end
$var wire 1 &! B [1] $end
$var wire 1 '! B [0] $end
$var wire 1 7! ALBi $end
$var wire 1 8! AGBi $end
$var wire 1 9! AEBi $end
$var wire 1 :! ALBo $end
$var wire 1 ;! AGBo $end
$var wire 1 Z AEBo $end
$var wire 1 <! CSL [4] $end
$var wire 1 =! CSL [3] $end
$var wire 1 >! CSL [2] $end
$var wire 1 ?! CSL [1] $end
$var wire 1 @! CSL [0] $end
$var wire 1 A! CSG [4] $end
$var wire 1 B! CSG [3] $end
$var wire 1 C! CSG [2] $end
$var wire 1 D! CSG [1] $end
$var wire 1 E! CSG [0] $end
$upscope $end

$scope module edge_detect $end
$var wire 1 N clock $end
$var wire 1 X reset $end
$var wire 1 L sinal $end
$var wire 1 k pulso $end
$var reg 1 F! reg0 $end
$var reg 1 G! reg1 $end
$upscope $end
$upscope $end

$scope module hexa7seg_CHAVES $end
$var wire 1 c hexa [3] $end
$var wire 1 d hexa [2] $end
$var wire 1 e hexa [1] $end
$var wire 1 f hexa [0] $end
$var reg 7 H! display [6:0] $end
$upscope $end

$scope module hexa7seg_CONT $end
$var wire 1 [ hexa [3] $end
$var wire 1 \ hexa [2] $end
$var wire 1 ] hexa [1] $end
$var wire 1 ^ hexa [0] $end
$var reg 7 I! display [6:0] $end
$upscope $end

$scope module hexa7seg_MEM $end
$var wire 1 _ hexa [3] $end
$var wire 1 ` hexa [2] $end
$var wire 1 a hexa [1] $end
$var wire 1 b hexa [0] $end
$var reg 7 J! display [6:0] $end
$upscope $end

$scope module hexa7seg_EST $end
$var wire 1 g hexa [3] $end
$var wire 1 h hexa [2] $end
$var wire 1 i hexa [1] $end
$var wire 1 j hexa [0] $end
$var reg 7 K! display [6:0] $end
$upscope $end
$upscope $end
$upscope $end
$enddefinitions $end
#0
$dumpvars
1"
0#
0$
b0 %
b0 M
1t
0u
1v
0w
0x
0y
0z
b0 {
b0 |
b0 }
bx 3!
04!
b0 5!
bx 6!
0F!
xG!
b1000000 H!
bx I!
bx J!
b1000000 K!
b10100 !
b0 l
b11 m
b1 n
b100 o
b101 p
b110 q
b1110 r
b1101 s
0&
0'
0(
0,
0+
0*
0)
x-
x4
x3
x2
x1
x0
x/
x.
x;
x:
x9
x8
x7
x6
x5
0B
0A
0@
0?
0>
0=
1<
0I
0H
0G
0F
0E
0D
1C
1J
0K
0L
1U
0V
1W
0X
0Y
xZ
x^
x]
x\
x[
xb
xa
x`
x_
0f
0e
0d
0c
0j
0i
0h
0g
0k
x#!
x"!
x!!
x~
0'!
0&!
0%!
0$!
x+!
x*!
x)!
x(!
x@!
x?!
x>!
x=!
x<!
xE!
xD!
xC!
xB!
xA!
0T
0S
0R
0Q
0P
0O
1N
19!
08!
07!
02!
01!
00!
0/!
1.!
1-!
0,!
x:!
x;!
$end
#10
0"
0N
0J
#20
b1 M
1"
1N
1J
b0 3!
0G!
0#!
0"!
0!!
0~
0^
0]
0\
0[
b1000000 I!
04
03
02
01
00
0/
1.
#30
0"
0N
0J
1#
1O
#40
1"
1N
1J
b1 6!
1+!
0*!
0)!
0(!
0@!
1?!
1>!
1=!
1<!
0E!
0D!
0C!
0B!
0A!
1;!
0:!
1b
0a
0`
0_
0Z
0-
b1111001 J!
1;
0:
09
18
17
16
15
#50
0#
0"
0O
0N
0J
#60
1"
1N
1J
#70
0"
0N
0J
#80
1"
1N
1J
#90
0"
0N
0J
#100
1"
1N
1J
#110
0"
0N
0J
#120
1"
1N
1J
#130
0"
0N
0J
#140
1"
1N
1J
#150
0"
0N
0J
#160
1"
1N
1J
#170
0"
0N
0J
#180
1"
1N
1J
#190
0"
0N
0J
#200
1"
1N
1J
#210
0"
0N
0J
#220
1"
1N
1J
#230
0"
0N
0J
#240
1"
1N
1J
#250
b10 M
1$
0"
1P
0N
0J
1K
b11 }
#260
1"
1N
1J
b11 |
b1 }
b11 {
1j
1i
b110000 K!
1>
1=
0<
#270
0"
0N
0J
#280
1"
1N
1J
b1 |
0t
0v
b1 {
0U
1,!
0W
0i
b1111001 K!
1B
1?
1<
#290
0"
0N
0J
#300
1"
1N
1J
#310
0"
0N
0J
#320
1"
1N
1J
#330
0"
0N
0J
#340
1"
1N
1J
#350
0$
0"
0P
0N
0J
0K
#360
1"
1N
1J
#370
0"
0N
0J
#380
1"
1N
1J
#390
0"
0N
0J
#400
1"
1N
1J
#410
0"
0N
0J
#420
1"
1N
1J
#430
0"
0N
0J
#440
1"
1N
1J
#450
0"
0N
0J
#460
1"
1N
1J
#470
0"
0N
0J
#480
1"
1N
1J
#490
0"
0N
0J
#500
1"
1N
1J
#510
0"
0N
0J
#520
1"
1N
1J
#530
0"
0N
0J
#540
1"
1N
1J
#550
b11 M
0"
0N
0J
b1 %
1T
1L
#560
1"
1N
1J
1F!
1k
b100 }
#570
0"
0N
0J
#580
1"
1N
1J
b100 |
1G!
0k
b101 }
1w
b100 {
1X
0j
1h
b11001 K!
0=
0<
0F!
0G!
#590
0"
0N
0J
#600
1"
1N
1J
b101 |
b1 5!
1'!
1@!
1E!
1D!
1C!
1B!
1A!
0;!
1f
1Z
1-
1,
b1111001 H!
b110 }
0w
b101 {
1I
1F
1E
1D
0X
1j
b10010 K!
0B
1A
0?
#610
0"
0N
0J
#620
1"
1N
1J
b110 |
1F!
1k
b1 }
1u
b110 {
1V
0j
1i
b10 K!
0>
#630
0"
0N
0J
#640
1"
1N
1J
b1 |
b1 3!
1G!
1#!
0k
1^
b1111001 I!
0u
b1 {
14
11
10
1/
0V
1j
0i
0h
b1111001 K!
1B
0A
1?
1>
1=
1<
#650
0"
0N
0J
#660
1"
1N
1J
b10 6!
0+!
1*!
0@!
0E!
0D!
0C!
0B!
0A!
1;!
0b
1a
0Z
0-
b100100 J!
0;
19
08
07
05
#670
0"
0N
0J
#680
1"
1N
1J
#690
0"
0N
0J
#700
1"
1N
1J
#710
0"
0N
0J
#720
1"
1N
1J
#730
0"
0N
0J
#740
1"
1N
1J
#750
b0 %
0"
0T
0L
0N
0J
#760
1"
1N
1J
0F!
#770
0"
0N
0J
#780
1"
1N
1J
0G!
#790
0"
0N
0J
#800
1"
1N
1J
#810
0"
0N
0J
#820
1"
1N
1J
#830
0"
0N
0J
#840
1"
1N
1J
#850
0"
0N
0J
#860
1"
1N
1J
#870
0"
0N
0J
#880
1"
1N
1J
#890
0"
0N
0J
#900
1"
1N
1J
#910
0"
0N
0J
#920
1"
1N
1J
#930
0"
0N
0J
#940
1"
1N
1J
#950
b100 M
0"
0N
0J
b10 %
1S
1L
#960
1"
1N
1J
1F!
1k
b100 }
#970
0"
0N
0J
#980
1"
1N
1J
b100 |
1G!
0k
b101 }
1w
b100 {
1X
0j
1h
b11001 K!
0=
0<
0F!
0G!
#990
0"
0N
0J
#1000
1"
1N
1J
b101 |
b10 5!
0'!
1&!
1@!
1E!
1D!
1C!
1B!
1A!
0;!
0f
1e
1Z
1-
0,
1+
b100100 H!
b110 }
0w
b101 {
0I
1G
0F
0E
0C
0X
1j
b10010 K!
0B
1A
0?
#1010
0"
0N
0J
#1020
1"
1N
1J
b110 |
1F!
1k
b1 }
1u
b110 {
1V
0j
1i
b10 K!
0>
#1030
0"
0N
0J
#1040
1"
1N
1J
b1 |
b10 3!
1G!
0#!
1"!
0k
0^
1]
b100100 I!
0u
b1 {
04
12
01
00
0.
0V
1j
0i
0h
b1111001 K!
1B
0A
1?
1>
1=
1<
#1050
0"
0N
0J
#1060
1"
1N
1J
b100 6!
0*!
1)!
0?!
0D!
0C!
0B!
0A!
1;!
0a
1`
0Z
0-
b11001 J!
1;
09
18
17
06
#1070
0"
0N
0J
#1080
1"
1N
1J
#1090
0"
0N
0J
#1100
1"
1N
1J
#1110
0"
0N
0J
#1120
1"
1N
1J
#1130
0"
0N
0J
#1140
1"
1N
1J
#1150
b0 %
0"
0S
0L
0N
0J
#1160
1"
1N
1J
0F!
#1170
0"
0N
0J
#1180
1"
1N
1J
0G!
#1190
0"
0N
0J
#1200
1"
1N
1J
#1210
0"
0N
0J
#1220
1"
1N
1J
#1230
0"
0N
0J
#1240
1"
1N
1J
#1250
0"
0N
0J
#1260
1"
1N
1J
#1270
0"
0N
0J
#1280
1"
1N
1J
#1290
0"
0N
0J
#1300
1"
1N
1J
#1310
0"
0N
0J
#1320
1"
1N
1J
#1330
0"
0N
0J
#1340
1"
1N
1J
#1350
b101 M
0"
0N
0J
b100 %
1R
1L
#1360
1"
1N
1J
1F!
1k
b100 }
#1370
0"
0N
0J
#1380
1"
1N
1J
b100 |
1G!
0k
b101 }
1w
b100 {
1X
0j
1h
b11001 K!
0=
0<
0F!
0G!
#1390
0"
0N
0J
#1400
1"
1N
1J
b101 |
b100 5!
0&!
1%!
1?!
1D!
1C!
1B!
1A!
0;!
0e
1d
1Z
1-
0+
1*
b11001 H!
b110 }
0w
b101 {
1I
0G
1F
1E
0D
0X
1j
b10010 K!
0B
1A
0?
#1410
0"
0N
0J
#1420
1"
1N
1J
b110 |
1F!
1k
b1 }
1u
b110 {
1V
0j
1i
b10 K!
0>
#1430
0"
0N
0J
#1440
1"
1N
1J
b1 |
b11 3!
1G!
1#!
0k
1^
b110000 I!
0u
b1 {
02
10
0V
1j
0i
0h
b1111001 K!
1B
0A
1?
1>
1=
1<
#1450
0"
0N
0J
#1460
1"
1N
1J
b1000 6!
0)!
1(!
0>!
0C!
0B!
0A!
1;!
0`
1_
0Z
0-
b0 J!
0;
08
07
#1470
0"
0N
0J
#1480
1"
1N
1J
#1490
0"
0N
0J
#1500
1"
1N
1J
#1510
0"
0N
0J
#1520
1"
1N
1J
#1530
0"
0N
0J
#1540
1"
1N
1J
#1550
b0 %
0"
0R
0L
0N
0J
#1560
1"
1N
1J
0F!
#1570
0"
0N
0J
#1580
1"
1N
1J
0G!
#1590
0"
0N
0J
#1600
1"
1N
1J
#1610
0"
0N
0J
#1620
1"
1N
1J
#1630
0"
0N
0J
#1640
1"
1N
1J
#1650
0"
0N
0J
#1660
1"
1N
1J
#1670
0"
0N
0J
#1680
1"
1N
1J
#1690
0"
0N
0J
#1700
1"
1N
1J
#1710
0"
0N
0J
#1720
1"
1N
1J
#1730
0"
0N
0J
#1740
1"
1N
1J
#1750
b110 M
0"
0N
0J
b1000 %
1Q
1L
#1760
1"
1N
1J
1F!
1k
b100 }
#1770
0"
0N
0J
#1780
1"
1N
1J
b100 |
1G!
0k
b101 }
1w
b100 {
1X
0j
1h
b11001 K!
0=
0<
0F!
0G!
#1790
0"
0N
0J
#1800
1"
1N
1J
b101 |
b1000 5!
0%!
1$!
1>!
1C!
1B!
1A!
0;!
0d
1c
1Z
1-
0*
1)
b0 H!
b110 }
0w
b101 {
0I
0F
0E
0X
1j
b10010 K!
0B
1A
0?
#1810
0"
0N
0J
#1820
1"
1N
1J
b110 |
1F!
1k
b1 }
1u
b110 {
1V
0j
1i
b10 K!
0>
#1830
0"
0N
0J
#1840
1"
1N
1J
b1 |
b100 3!
1G!
0#!
0"!
1!!
0k
0^
0]
1\
b11001 I!
0u
b1 {
14
11
0/
0V
1j
0i
0h
b1111001 K!
1B
0A
1?
1>
1=
1<
#1850
0"
0N
0J
#1860
1"
1N
1J
b100 6!
1)!
0(!
0>!
0=!
0<!
0C!
1:!
1`
0_
0Z
0-
b11001 J!
1;
18
17
#1870
0"
0N
0J
#1880
1"
1N
1J
#1890
0"
0N
0J
#1900
1"
1N
1J
#1910
0"
0N
0J
#1920
1"
1N
1J
#1930
0"
0N
0J
#1940
1"
1N
1J
#1950
b0 %
0"
0Q
0L
0N
0J
#1960
1"
1N
1J
0F!
#1970
0"
0N
0J
#1980
1"
1N
1J
0G!
#1990
0"
0N
0J
#2000
1"
1N
1J
#2010
0"
0N
0J
#2020
1"
1N
1J
#2030
0"
0N
0J
#2040
1"
1N
1J
#2050
0"
0N
0J
#2060
1"
1N
1J
#2070
0"
0N
0J
#2080
1"
1N
1J
#2090
0"
0N
0J
#2100
1"
1N
1J
#2110
0"
0N
0J
#2120
1"
1N
1J
#2130
0"
0N
0J
#2140
1"
1N
1J
#2150
b111 M
0"
0N
0J
b100 %
1R
1L
#2160
1"
1N
1J
1F!
1k
b100 }
#2170
0"
0N
0J
#2180
1"
1N
1J
b100 |
1G!
0k
b101 }
1w
b100 {
1X
0j
1h
b11001 K!
0=
0<
0F!
0G!
#2190
0"
0N
0J
#2200
1"
1N
1J
b101 |
b100 5!
1%!
0$!
1>!
1=!
1<!
1C!
0:!
1d
0c
1Z
1-
1*
0)
b11001 H!
b110 }
0w
b101 {
1I
1F
1E
0X
1j
b10010 K!
0B
1A
0?
#2210
0"
0N
0J
#2220
1"
1N
1J
b110 |
1F!
1k
b1 }
1u
b110 {
1V
0j
1i
b10 K!
0>
#2230
0"
0N
0J
#2240
1"
1N
1J
b1 |
b101 3!
1G!
1#!
0k
1^
b10010 I!
0u
b1 {
04
13
01
0V
1j
0i
0h
b1111001 K!
1B
0A
1?
1>
1=
1<
#2250
b0 %
0"
0R
0L
0N
0J
#2260
1"
1N
1J
b10 6!
1*!
0)!
0?!
0>!
0=!
0<!
0D!
1:!
1a
0`
0Z
0-
b100100 J!
0;
19
08
07
16
0F!
#2270
0"
0N
0J
#2280
1"
1N
1J
0G!
#2290
0"
0N
0J
#2300
1"
1N
1J
#2310
0"
0N
0J
#2320
1"
1N
1J
#2330
0"
0N
0J
#2340
1"
1N
1J
#2350
0"
0N
0J
#2360
1"
1N
1J
#2370
0"
0N
0J
#2380
1"
1N
1J
#2390
0"
0N
0J
#2400
1"
1N
1J
#2410
0"
0N
0J
#2420
1"
1N
1J
#2430
0"
0N
0J
#2440
1"
1N
1J
#2450
b1000 M
0"
0N
0J
b10 %
1S
1L
#2460
1"
1N
1J
1F!
1k
b100 }
#2470
0"
0N
0J
#2480
1"
1N
1J
b100 |
1G!
0k
b101 }
1w
b100 {
1X
0j
1h
b11001 K!
0=
0<
0F!
0G!
#2490
0"
0N
0J
#2500
1"
1N
1J
b101 |
b10 5!
1&!
0%!
1?!
1>!
1=!
1<!
1D!
0:!
1e
0d
1Z
1-
1+
0*
b100100 H!
b110 }
0w
b101 {
0I
1G
0F
0E
1D
0X
1j
b10010 K!
0B
1A
0?
#2510
0"
0N
0J
#2520
1"
1N
1J
b110 |
1F!
1k
b1 }
1u
b110 {
1V
0j
1i
b10 K!
0>
#2530
0"
0N
0J
#2540
1"
1N
1J
b1 |
b110 3!
1G!
0#!
1"!
0k
0^
1]
b10 I!
0u
b1 {
00
0V
1j
0i
0h
b1111001 K!
1B
0A
1?
1>
1=
1<
#2550
0"
0N
0J
#2560
1"
1N
1J
b1 6!
1+!
0*!
0@!
0?!
0>!
0=!
0<!
0E!
1:!
1b
0a
0Z
0-
b1111001 J!
1;
09
18
17
15
#2570
0"
0N
0J
#2580
1"
1N
1J
#2590
0"
0N
0J
#2600
1"
1N
1J
#2610
0"
0N
0J
#2620
1"
1N
1J
#2630
0"
0N
0J
#2640
1"
1N
1J
#2650
b0 %
0"
0S
0L
0N
0J
#2660
1"
1N
1J
0F!
#2670
0"
0N
0J
#2680
1"
1N
1J
0G!
#2690
0"
0N
0J
#2700
1"
1N
1J
#2710
0"
0N
0J
#2720
1"
1N
1J
#2730
0"
0N
0J
#2740
1"
1N
1J
#2750
0"
0N
0J
#2760
1"
1N
1J
#2770
0"
0N
0J
#2780
1"
1N
1J
#2790
0"
0N
0J
#2800
1"
1N
1J
#2810
0"
0N
0J
#2820
1"
1N
1J
#2830
0"
0N
0J
#2840
1"
1N
1J
#2850
b1001 M
0"
0N
0J
b1 %
1T
1L
#2860
1"
1N
1J
1F!
1k
b100 }
#2870
0"
0N
0J
#2880
1"
1N
1J
b100 |
1G!
0k
b101 }
1w
b100 {
1X
0j
1h
b11001 K!
0=
0<
0F!
0G!
#2890
0"
0N
0J
#2900
1"
1N
1J
b101 |
b1 5!
1'!
0&!
1@!
1?!
1>!
1=!
1<!
1E!
0:!
1f
0e
1Z
1-
1,
0+
b1111001 H!
b110 }
0w
b101 {
1I
0G
1F
1E
1C
0X
1j
b10010 K!
0B
1A
0?
#2910
0"
0N
0J
#2920
1"
1N
1J
b110 |
1F!
1k
b1 }
1u
b110 {
1V
0j
1i
b10 K!
0>
#2930
0"
0N
0J
#2940
1"
1N
1J
b1 |
b111 3!
1G!
1#!
0k
1^
b1111000 I!
0u
b1 {
03
11
10
1/
1.
0V
1j
0i
0h
b1111001 K!
1B
0A
1?
1>
1=
1<
#2950
0"
0N
0J
#2960
1"
1N
1J
#2970
0"
0N
0J
#2980
1"
1N
1J
#2990
0"
0N
0J
#3000
1"
1N
1J
#3010
0"
0N
0J
#3020
1"
1N
1J
#3030
0"
0N
0J
#3040
1"
1N
1J
#3050
b0 %
0"
0T
0L
0N
0J
#3060
1"
1N
1J
0F!
#3070
0"
0N
0J
#3080
1"
1N
1J
0G!
#3090
0"
0N
0J
#3100
1"
1N
1J
#3110
0"
0N
0J
#3120
1"
1N
1J
#3130
0"
0N
0J
#3140
1"
1N
1J
#3150
0"
0N
0J
#3160
1"
1N
1J
#3170
0"
0N
0J
#3180
1"
1N
1J
#3190
0"
0N
0J
#3200
1"
1N
1J
#3210
0"
0N
0J
#3220
1"
1N
1J
#3230
0"
0N
0J
#3240
1"
1N
1J
#3250
b1010 M
0"
0N
0J
b1 %
1T
1L
#3260
1"
1N
1J
1F!
1k
b100 }
#3270
0"
0N
0J
#3280
1"
1N
1J
b100 |
1G!
0k
b101 }
1w
b100 {
1X
0j
1h
b11001 K!
0=
0<
0F!
0G!
#3290
0"
0N
0J
#3300
1"
1N
1J
b101 |
b110 }
0w
b101 {
0X
1j
b10010 K!
0B
1A
0?
#3310
0"
0N
0J
#3320
1"
1N
1J
b110 |
1F!
1k
b1 }
1u
b110 {
1V
0j
1i
b10 K!
0>
#3330
0"
0N
0J
#3340
1"
1N
1J
b1 |
b1000 3!
1G!
0#!
0"!
0!!
1~
0k
0^
0]
0\
1[
b0 I!
0u
b1 {
01
00
0/
0.
0V
1j
0i
0h
b1111001 K!
1B
0A
1?
1>
1=
1<
#3350
0"
0N
0J
#3360
1"
1N
1J
b10 6!
0+!
1*!
0@!
0E!
0D!
0C!
0B!
0A!
1;!
0b
1a
0Z
0-
b100100 J!
0;
19
08
07
05
#3370
0"
0N
0J
#3380
1"
1N
1J
#3390
0"
0N
0J
#3400
1"
1N
1J
#3410
0"
0N
0J
#3420
1"
1N
1J
#3430
0"
0N
0J
#3440
1"
1N
1J
#3450
b0 %
0"
0T
0L
0N
0J
#3460
1"
1N
1J
0F!
#3470
0"
0N
0J
#3480
1"
1N
1J
0G!
#3490
0"
0N
0J
#3500
1"
1N
1J
#3510
0"
0N
0J
#3520
1"
1N
1J
#3530
0"
0N
0J
#3540
1"
1N
1J
#3550
0"
0N
0J
#3560
1"
1N
1J
#3570
0"
0N
0J
#3580
1"
1N
1J
#3590
0"
0N
0J
#3600
1"
1N
1J
#3610
0"
0N
0J
#3620
1"
1N
1J
#3630
0"
0N
0J
#3640
1"
1N
1J
#3650
b1011 M
0"
0N
0J
b10 %
1S
1L
#3660
1"
1N
1J
1F!
1k
b100 }
#3670
0"
0N
0J
#3680
1"
1N
1J
b100 |
1G!
0k
b101 }
1w
b100 {
1X
0j
1h
b11001 K!
0=
0<
0F!
0G!
#3690
0"
0N
0J
#3700
1"
1N
1J
b101 |
b10 5!
0'!
1&!
1@!
1E!
1D!
1C!
1B!
1A!
0;!
0f
1e
1Z
1-
0,
1+
b100100 H!
b110 }
0w
b101 {
0I
1G
0F
0E
0C
0X
1j
b10010 K!
0B
1A
0?
#3710
0"
0N
0J
#3720
1"
1N
1J
b110 |
1F!
1k
b1 }
1u
b110 {
1V
0j
1i
b10 K!
0>
#3730
0"
0N
0J
#3740
1"
1N
1J
b1 |
b1001 3!
1G!
1#!
0k
1^
b10000 I!
0u
b1 {
10
0V
1j
0i
0h
b1111001 K!
1B
0A
1?
1>
1=
1<
#3750
0"
0N
0J
#3760
1"
1N
1J
#3770
0"
0N
0J
#3780
1"
1N
1J
#3790
0"
0N
0J
#3800
1"
1N
1J
#3810
0"
0N
0J
#3820
1"
1N
1J
#3830
0"
0N
0J
#3840
1"
1N
1J
#3850
b0 %
0"
0S
0L
0N
0J
#3860
1"
1N
1J
0F!
#3870
0"
0N
0J
#3880
1"
1N
1J
0G!
#3890
0"
0N
0J
#3900
1"
1N
1J
#3910
0"
0N
0J
#3920
1"
1N
1J
#3930
0"
0N
0J
#3940
1"
1N
1J
#3950
0"
0N
0J
#3960
1"
1N
1J
#3970
0"
0N
0J
#3980
1"
1N
1J
#3990
0"
0N
0J
#4000
1"
1N
1J
#4010
0"
0N
0J
#4020
1"
1N
1J
#4030
0"
0N
0J
#4040
1"
1N
1J
#4050
b1100 M
0"
0N
0J
b10 %
1S
1L
#4060
1"
1N
1J
1F!
1k
b100 }
#4070
0"
0N
0J
#4080
1"
1N
1J
b100 |
1G!
0k
b101 }
1w
b100 {
1X
0j
1h
b11001 K!
0=
0<
0F!
0G!
#4090
0"
0N
0J
#4100
1"
1N
1J
b101 |
b110 }
0w
b101 {
0X
1j
b10010 K!
0B
1A
0?
#4110
0"
0N
0J
#4120
1"
1N
1J
b110 |
1F!
1k
b1 }
1u
b110 {
1V
0j
1i
b10 K!
0>
#4130
0"
0N
0J
#4140
1"
1N
1J
b1 |
b1010 3!
1G!
0#!
1"!
0k
0^
1]
b1000 I!
0u
b1 {
11
00
0V
1j
0i
0h
b1111001 K!
1B
0A
1?
1>
1=
1<
#4150
0"
0N
0J
#4160
1"
1N
1J
b100 6!
0*!
1)!
0?!
0D!
0C!
0B!
0A!
1;!
0a
1`
0Z
0-
b11001 J!
1;
09
18
17
06
#4170
0"
0N
0J
#4180
1"
1N
1J
#4190
0"
0N
0J
#4200
1"
1N
1J
